# MagicaVoxel @ Ephtracy

# group
o 

# material
mtllib Atidaryti Vartai Balti.mtl
usemtl palette

# normals
vn -1 0 0
vn 1 0 0
vn 0 0 1
vn 0 0 -1
vn 0 -1 0
vn 0 1 0

# texcoords
vt 0.958984 0.5
vt 0.962891 0.5
vt 0.966797 0.5

# verts
v 2.2 3 -0.5
v 2.2 3 -0.6
v 2.2 4.5 -0.4
v 2.2 4.5 -0.5
v 2.2 4.5 -0.6
v 2.2 4.5 -0.7
v 2.2 4.6 -0.4
v 2.2 4.6 -0.5
v 2.2 4.6 -0.6
v 2.2 4.6 -0.7
v 2.2 5.2 -0.5
v 2.2 5.2 -0.6
v 2.3 2.9 -0.5
v 2.3 2.9 -0.6
v 2.3 2.9 -3.4
v 2.3 2.9 -3.5
v 2.3 3 -0.5
v 2.3 3 -0.6
v 2.3 4.6 -3.3
v 2.3 4.6 -3.4
v 2.3 4.6 -3.5
v 2.3 4.6 -3.6
v 2.3 4.7 -3.3
v 2.3 4.7 -3.4
v 2.3 4.7 -3.5
v 2.3 4.7 -3.6
v 2.3 5.2 -0.5
v 2.3 5.2 -0.6
v 2.3 5.3 -0.5
v 2.3 5.3 -0.6
v 2.3 5.3 -3.4
v 2.3 5.3 -3.5
v 2.4 2.8 -0.5
v 2.4 2.8 -0.6
v 2.4 2.8 -3.4
v 2.4 2.8 -3.5
v 2.4 2.9 -0.5
v 2.4 2.9 -0.6
v 2.4 2.9 -3.4
v 2.4 2.9 -3.5
v 2.4 5.3 -0.5
v 2.4 5.3 -0.6
v 2.4 5.3 -3.4
v 2.4 5.3 -3.5
v 2.4 5.4 -0.5
v 2.4 5.4 -0.6
v 2.4 5.4 -3.4
v 2.4 5.4 -3.5
v 2.5 2.7 -0.5
v 2.5 2.7 -0.6
v 2.5 2.7 -3.4
v 2.5 2.7 -3.5
v 2.5 2.8 -0.5
v 2.5 2.8 -0.6
v 2.5 2.8 -3.4
v 2.5 2.8 -3.5
v 2.5 4.4 -0.4
v 2.5 4.4 -0.5
v 2.5 4.4 -0.6
v 2.5 4.4 -0.7
v 2.5 4.5 -0.4
v 2.5 4.5 -0.5
v 2.5 4.5 -0.6
v 2.5 4.5 -0.7
v 2.5 5.4 -0.5
v 2.5 5.4 -0.6
v 2.5 5.4 -3.4
v 2.5 5.4 -3.5
v 2.5 5.5 -0.5
v 2.5 5.5 -0.6
v 2.5 5.5 -3.4
v 2.5 5.5 -3.5
v 2.6 2.6 -0.5
v 2.6 2.6 -0.6
v 2.6 2.6 -3.4
v 2.6 2.6 -3.5
v 2.6 2.7 -0.5
v 2.6 2.7 -0.6
v 2.6 2.7 -3.4
v 2.6 2.7 -3.5
v 2.6 4.5 -3.3
v 2.6 4.5 -3.4
v 2.6 4.5 -3.5
v 2.6 4.5 -3.6
v 2.6 4.6 -3.3
v 2.6 4.6 -3.4
v 2.6 4.6 -3.5
v 2.6 4.6 -3.6
v 2.6 5.5 -0.5
v 2.6 5.5 -0.6
v 2.6 5.5 -3.4
v 2.6 5.5 -3.5
v 2.6 5.6 -0.5
v 2.6 5.6 -0.6
v 2.6 5.6 -3.4
v 2.6 5.6 -3.5
v 2.7 2.5 -0.5
v 2.7 2.5 -0.6
v 2.7 2.5 -3.4
v 2.7 2.5 -3.5
v 2.7 2.6 -0.5
v 2.7 2.6 -0.6
v 2.7 2.6 -3.4
v 2.7 2.6 -3.5
v 2.7 5.6 -0.5
v 2.7 5.6 -0.6
v 2.7 5.6 -3.4
v 2.7 5.6 -3.5
v 2.7 5.7 -0.5
v 2.7 5.7 -0.6
v 2.7 5.7 -3.4
v 2.7 5.7 -3.5
v 2.8 2.4 -0.5
v 2.8 2.4 -0.6
v 2.8 2.4 -3.4
v 2.8 2.4 -3.5
v 2.8 2.5 -0.5
v 2.8 2.5 -0.6
v 2.8 2.5 -3.4
v 2.8 2.5 -3.5
v 2.8 5.7 -0.5
v 2.8 5.7 -0.6
v 2.8 5.7 -3.4
v 2.8 5.7 -3.5
v 2.8 5.8 -0.5
v 2.8 5.8 -0.6
v 2.8 5.8 -3.4
v 2.8 5.8 -3.5
v 2.9 2.3 -0.5
v 2.9 2.3 -0.6
v 2.9 2.3 -3.4
v 2.9 2.3 -3.5
v 2.9 2.4 -0.5
v 2.9 2.4 -0.6
v 2.9 2.4 -3.4
v 2.9 2.4 -3.5
v 2.9 5.8 -0.5
v 2.9 5.8 -0.6
v 2.9 5.8 -3.4
v 2.9 5.8 -3.5
v 2.9 5.9 -0.5
v 2.9 5.9 -0.6
v 2.9 5.9 -3.4
v 2.9 5.9 -3.5
v 3 2.2 -0.5
v 3 2.2 -0.6
v 3 2.2 -3.4
v 3 2.2 -3.5
v 3 2.3 -0.5
v 3 2.3 -0.6
v 3 2.3 -3.4
v 3 2.3 -3.5
v 3 5.9 -0.5
v 3 5.9 -0.6
v 3 5.9 -3.4
v 3 5.9 -3.5
v 3 6 -0.5
v 3 6 -0.6
v 3 6 -3.4
v 3 6 -3.5
v 3.5 2 0
v 3.5 2 -0.5
v 3.5 2 -3.5
v 3.5 2 -4
v 3.5 2.2 -0.5
v 3.5 2.2 -3.5
v 3.5 6 0
v 3.5 6 -0.5
v 3.5 6 -3.5
v 3.5 6 -4
v 2.6 4.4 -0.4
v 2.6 4.4 -0.5
v 2.6 4.4 -0.6
v 2.6 4.4 -0.7
v 2.6 4.6 -0.4
v 2.6 4.6 -0.5
v 2.6 4.6 -0.6
v 2.6 4.6 -0.7
v 2.7 4.5 -3.3
v 2.7 4.5 -3.4
v 2.7 4.5 -3.5
v 2.7 4.5 -3.6
v 2.7 4.7 -3.3
v 2.7 4.7 -3.4
v 2.7 4.7 -3.5
v 2.7 4.7 -3.6
v 3.7 2.2 -0.5
v 3.7 2.2 -0.6
v 3.7 2.2 -3.4
v 3.7 2.2 -3.5
v 3.7 2.9 -0.5
v 3.7 2.9 -0.6
v 3.7 2.9 -3.4
v 3.7 2.9 -3.5
v 3.7 3.3 -0.5
v 3.7 3.3 -0.6
v 3.7 3.3 -3.4
v 3.7 3.3 -3.5
v 3.7 4.9 -0.5
v 3.7 4.9 -0.6
v 3.7 4.9 -3.4
v 3.7 4.9 -3.5
v 3.7 5.3 -0.5
v 3.7 5.3 -0.6
v 3.7 5.3 -3.4
v 3.7 5.3 -3.5
v 3.7 6 -0.5
v 3.7 6 -0.6
v 3.7 6 -3.4
v 3.7 6 -3.5
v 3.8 2.9 -0.5
v 3.8 2.9 -0.6
v 3.8 2.9 -3.4
v 3.8 2.9 -3.5
v 3.8 3.3 -0.5
v 3.8 3.3 -0.6
v 3.8 3.3 -3.4
v 3.8 3.3 -3.5
v 3.8 4.9 -0.5
v 3.8 4.9 -0.6
v 3.8 4.9 -3.4
v 3.8 4.9 -3.5
v 3.8 5.3 -0.5
v 3.8 5.3 -0.6
v 3.8 5.3 -3.4
v 3.8 5.3 -3.5
v 4 2 0
v 4 2 -0.5
v 4 2 -3.5
v 4 2 -4
v 4 6 0
v 4 6 -0.5
v 4 6 -3.5
v 4 6 -4
v 3.5 2 0
v 3.5 6 0
v 4 2 0
v 4 6 0
v 2.2 4.5 -0.4
v 2.2 4.6 -0.4
v 2.5 4.4 -0.4
v 2.5 4.5 -0.4
v 2.6 4.4 -0.4
v 2.6 4.6 -0.4
v 2.2 3 -0.5
v 2.2 4.5 -0.5
v 2.2 4.6 -0.5
v 2.2 5.2 -0.5
v 2.3 2.9 -0.5
v 2.3 3 -0.5
v 2.3 5.2 -0.5
v 2.3 5.3 -0.5
v 2.4 2.8 -0.5
v 2.4 2.9 -0.5
v 2.4 5.3 -0.5
v 2.4 5.4 -0.5
v 2.5 2.7 -0.5
v 2.5 2.8 -0.5
v 2.5 4.4 -0.5
v 2.5 4.5 -0.5
v 2.5 5.4 -0.5
v 2.5 5.5 -0.5
v 2.6 2.6 -0.5
v 2.6 2.7 -0.5
v 2.6 4.4 -0.5
v 2.6 4.6 -0.5
v 2.6 5.5 -0.5
v 2.6 5.6 -0.5
v 2.7 2.5 -0.5
v 2.7 2.6 -0.5
v 2.7 5.6 -0.5
v 2.7 5.7 -0.5
v 2.8 2.4 -0.5
v 2.8 2.5 -0.5
v 2.8 5.7 -0.5
v 2.8 5.8 -0.5
v 2.9 2.3 -0.5
v 2.9 2.4 -0.5
v 2.9 5.8 -0.5
v 2.9 5.9 -0.5
v 3 2.2 -0.5
v 3 2.3 -0.5
v 3 5.9 -0.5
v 3 6 -0.5
v 3.5 2.2 -0.5
v 3.5 6 -0.5
v 2.3 4.6 -3.3
v 2.3 4.7 -3.3
v 2.6 4.5 -3.3
v 2.6 4.6 -3.3
v 2.7 4.5 -3.3
v 2.7 4.7 -3.3
v 2.3 2.9 -3.4
v 2.3 4.6 -3.4
v 2.3 4.7 -3.4
v 2.3 5.3 -3.4
v 2.4 2.8 -3.4
v 2.4 2.9 -3.4
v 2.4 5.3 -3.4
v 2.4 5.4 -3.4
v 2.5 2.7 -3.4
v 2.5 2.8 -3.4
v 2.5 5.4 -3.4
v 2.5 5.5 -3.4
v 2.6 2.6 -3.4
v 2.6 2.7 -3.4
v 2.6 4.5 -3.4
v 2.6 4.6 -3.4
v 2.6 5.5 -3.4
v 2.6 5.6 -3.4
v 2.7 2.5 -3.4
v 2.7 2.6 -3.4
v 2.7 4.5 -3.4
v 2.7 4.7 -3.4
v 2.7 5.6 -3.4
v 2.7 5.7 -3.4
v 2.8 2.4 -3.4
v 2.8 2.5 -3.4
v 2.8 5.7 -3.4
v 2.8 5.8 -3.4
v 2.9 2.3 -3.4
v 2.9 2.4 -3.4
v 2.9 5.8 -3.4
v 2.9 5.9 -3.4
v 3 2.2 -3.4
v 3 2.3 -3.4
v 3 5.9 -3.4
v 3 6 -3.4
v 3.7 2.2 -3.4
v 3.7 2.9 -3.4
v 3.7 3.3 -3.4
v 3.7 4.9 -3.4
v 3.7 5.3 -3.4
v 3.7 6 -3.4
v 3.8 2.9 -3.4
v 3.8 3.3 -3.4
v 3.8 4.9 -3.4
v 3.8 5.3 -3.4
v 3.5 2 -3.5
v 3.5 2.2 -3.5
v 3.7 2.2 -3.5
v 3.7 2.9 -3.5
v 3.7 3.3 -3.5
v 3.7 4.9 -3.5
v 3.7 5.3 -3.5
v 3.7 6 -3.5
v 3.8 2.9 -3.5
v 3.8 3.3 -3.5
v 3.8 4.9 -3.5
v 3.8 5.3 -3.5
v 4 2 -3.5
v 4 6 -3.5
v 3.5 2 -0.5
v 3.5 2.2 -0.5
v 3.7 2.2 -0.5
v 3.7 2.9 -0.5
v 3.7 3.3 -0.5
v 3.7 4.9 -0.5
v 3.7 5.3 -0.5
v 3.7 6 -0.5
v 3.8 2.9 -0.5
v 3.8 3.3 -0.5
v 3.8 4.9 -0.5
v 3.8 5.3 -0.5
v 4 2 -0.5
v 4 6 -0.5
v 2.2 3 -0.6
v 2.2 4.5 -0.6
v 2.2 4.6 -0.6
v 2.2 5.2 -0.6
v 2.3 2.9 -0.6
v 2.3 3 -0.6
v 2.3 5.2 -0.6
v 2.3 5.3 -0.6
v 2.4 2.8 -0.6
v 2.4 2.9 -0.6
v 2.4 5.3 -0.6
v 2.4 5.4 -0.6
v 2.5 2.7 -0.6
v 2.5 2.8 -0.6
v 2.5 4.4 -0.6
v 2.5 4.5 -0.6
v 2.5 5.4 -0.6
v 2.5 5.5 -0.6
v 2.6 2.6 -0.6
v 2.6 2.7 -0.6
v 2.6 4.4 -0.6
v 2.6 4.6 -0.6
v 2.6 5.5 -0.6
v 2.6 5.6 -0.6
v 2.7 2.5 -0.6
v 2.7 2.6 -0.6
v 2.7 5.6 -0.6
v 2.7 5.7 -0.6
v 2.8 2.4 -0.6
v 2.8 2.5 -0.6
v 2.8 5.7 -0.6
v 2.8 5.8 -0.6
v 2.9 2.3 -0.6
v 2.9 2.4 -0.6
v 2.9 5.8 -0.6
v 2.9 5.9 -0.6
v 3 2.2 -0.6
v 3 2.3 -0.6
v 3 5.9 -0.6
v 3 6 -0.6
v 3.7 2.2 -0.6
v 3.7 2.9 -0.6
v 3.7 3.3 -0.6
v 3.7 4.9 -0.6
v 3.7 5.3 -0.6
v 3.7 6 -0.6
v 3.8 2.9 -0.6
v 3.8 3.3 -0.6
v 3.8 4.9 -0.6
v 3.8 5.3 -0.6
v 2.2 4.5 -0.7
v 2.2 4.6 -0.7
v 2.5 4.4 -0.7
v 2.5 4.5 -0.7
v 2.6 4.4 -0.7
v 2.6 4.6 -0.7
v 2.3 2.9 -3.5
v 2.3 4.6 -3.5
v 2.3 4.7 -3.5
v 2.3 5.3 -3.5
v 2.4 2.8 -3.5
v 2.4 2.9 -3.5
v 2.4 5.3 -3.5
v 2.4 5.4 -3.5
v 2.5 2.7 -3.5
v 2.5 2.8 -3.5
v 2.5 5.4 -3.5
v 2.5 5.5 -3.5
v 2.6 2.6 -3.5
v 2.6 2.7 -3.5
v 2.6 4.5 -3.5
v 2.6 4.6 -3.5
v 2.6 5.5 -3.5
v 2.6 5.6 -3.5
v 2.7 2.5 -3.5
v 2.7 2.6 -3.5
v 2.7 4.5 -3.5
v 2.7 4.7 -3.5
v 2.7 5.6 -3.5
v 2.7 5.7 -3.5
v 2.8 2.4 -3.5
v 2.8 2.5 -3.5
v 2.8 5.7 -3.5
v 2.8 5.8 -3.5
v 2.9 2.3 -3.5
v 2.9 2.4 -3.5
v 2.9 5.8 -3.5
v 2.9 5.9 -3.5
v 3 2.2 -3.5
v 3 2.3 -3.5
v 3 5.9 -3.5
v 3 6 -3.5
v 3.5 2.2 -3.5
v 3.5 6 -3.5
v 2.3 4.6 -3.6
v 2.3 4.7 -3.6
v 2.6 4.5 -3.6
v 2.6 4.6 -3.6
v 2.7 4.5 -3.6
v 2.7 4.7 -3.6
v 3.5 2 -4
v 3.5 6 -4
v 4 2 -4
v 4 6 -4
v 3.5 2 0
v 4 2 0
v 3.5 2 -0.5
v 4 2 -0.5
v 3.5 2 -3.5
v 4 2 -3.5
v 3.5 2 -4
v 4 2 -4
v 3 2.2 -0.5
v 3.5 2.2 -0.5
v 3.7 2.2 -0.5
v 3 2.2 -0.6
v 3.7 2.2 -0.6
v 3 2.2 -3.4
v 3.7 2.2 -3.4
v 3 2.2 -3.5
v 3.5 2.2 -3.5
v 3.7 2.2 -3.5
v 2.9 2.3 -0.5
v 3 2.3 -0.5
v 2.9 2.3 -0.6
v 3 2.3 -0.6
v 2.9 2.3 -3.4
v 3 2.3 -3.4
v 2.9 2.3 -3.5
v 3 2.3 -3.5
v 2.8 2.4 -0.5
v 2.9 2.4 -0.5
v 2.8 2.4 -0.6
v 2.9 2.4 -0.6
v 2.8 2.4 -3.4
v 2.9 2.4 -3.4
v 2.8 2.4 -3.5
v 2.9 2.4 -3.5
v 2.7 2.5 -0.5
v 2.8 2.5 -0.5
v 2.7 2.5 -0.6
v 2.8 2.5 -0.6
v 2.7 2.5 -3.4
v 2.8 2.5 -3.4
v 2.7 2.5 -3.5
v 2.8 2.5 -3.5
v 2.6 2.6 -0.5
v 2.7 2.6 -0.5
v 2.6 2.6 -0.6
v 2.7 2.6 -0.6
v 2.6 2.6 -3.4
v 2.7 2.6 -3.4
v 2.6 2.6 -3.5
v 2.7 2.6 -3.5
v 2.5 2.7 -0.5
v 2.6 2.7 -0.5
v 2.5 2.7 -0.6
v 2.6 2.7 -0.6
v 2.5 2.7 -3.4
v 2.6 2.7 -3.4
v 2.5 2.7 -3.5
v 2.6 2.7 -3.5
v 2.4 2.8 -0.5
v 2.5 2.8 -0.5
v 2.4 2.8 -0.6
v 2.5 2.8 -0.6
v 2.4 2.8 -3.4
v 2.5 2.8 -3.4
v 2.4 2.8 -3.5
v 2.5 2.8 -3.5
v 2.3 2.9 -0.5
v 2.4 2.9 -0.5
v 3.7 2.9 -0.5
v 3.8 2.9 -0.5
v 2.3 2.9 -0.6
v 2.4 2.9 -0.6
v 3.7 2.9 -0.6
v 3.8 2.9 -0.6
v 2.3 2.9 -3.4
v 2.4 2.9 -3.4
v 3.7 2.9 -3.4
v 3.8 2.9 -3.4
v 2.3 2.9 -3.5
v 2.4 2.9 -3.5
v 3.7 2.9 -3.5
v 3.8 2.9 -3.5
v 2.2 3 -0.5
v 2.3 3 -0.5
v 2.2 3 -0.6
v 2.3 3 -0.6
v 2.5 4.4 -0.4
v 2.6 4.4 -0.4
v 2.5 4.4 -0.5
v 2.6 4.4 -0.5
v 2.5 4.4 -0.6
v 2.6 4.4 -0.6
v 2.5 4.4 -0.7
v 2.6 4.4 -0.7
v 2.2 4.5 -0.4
v 2.5 4.5 -0.4
v 2.2 4.5 -0.5
v 2.5 4.5 -0.5
v 2.2 4.5 -0.6
v 2.5 4.5 -0.6
v 2.2 4.5 -0.7
v 2.5 4.5 -0.7
v 2.6 4.5 -3.3
v 2.7 4.5 -3.3
v 2.6 4.5 -3.4
v 2.7 4.5 -3.4
v 2.6 4.5 -3.5
v 2.7 4.5 -3.5
v 2.6 4.5 -3.6
v 2.7 4.5 -3.6
v 2.3 4.6 -3.3
v 2.6 4.6 -3.3
v 2.3 4.6 -3.4
v 2.6 4.6 -3.4
v 2.3 4.6 -3.5
v 2.6 4.6 -3.5
v 2.3 4.6 -3.6
v 2.6 4.6 -3.6
v 3.7 4.9 -0.5
v 3.8 4.9 -0.5
v 3.7 4.9 -0.6
v 3.8 4.9 -0.6
v 3.7 4.9 -3.4
v 3.8 4.9 -3.4
v 3.7 4.9 -3.5
v 3.8 4.9 -3.5
v 3.7 3.3 -0.5
v 3.8 3.3 -0.5
v 3.7 3.3 -0.6
v 3.8 3.3 -0.6
v 3.7 3.3 -3.4
v 3.8 3.3 -3.4
v 3.7 3.3 -3.5
v 3.8 3.3 -3.5
v 2.2 4.6 -0.4
v 2.6 4.6 -0.4
v 2.2 4.6 -0.5
v 2.6 4.6 -0.5
v 2.2 4.6 -0.6
v 2.6 4.6 -0.6
v 2.2 4.6 -0.7
v 2.6 4.6 -0.7
v 2.3 4.7 -3.3
v 2.7 4.7 -3.3
v 2.3 4.7 -3.4
v 2.7 4.7 -3.4
v 2.3 4.7 -3.5
v 2.7 4.7 -3.5
v 2.3 4.7 -3.6
v 2.7 4.7 -3.6
v 2.2 5.2 -0.5
v 2.3 5.2 -0.5
v 2.2 5.2 -0.6
v 2.3 5.2 -0.6
v 2.3 5.3 -0.5
v 2.4 5.3 -0.5
v 3.7 5.3 -0.5
v 3.8 5.3 -0.5
v 2.3 5.3 -0.6
v 2.4 5.3 -0.6
v 3.7 5.3 -0.6
v 3.8 5.3 -0.6
v 2.3 5.3 -3.4
v 2.4 5.3 -3.4
v 3.7 5.3 -3.4
v 3.8 5.3 -3.4
v 2.3 5.3 -3.5
v 2.4 5.3 -3.5
v 3.7 5.3 -3.5
v 3.8 5.3 -3.5
v 2.4 5.4 -0.5
v 2.5 5.4 -0.5
v 2.4 5.4 -0.6
v 2.5 5.4 -0.6
v 2.4 5.4 -3.4
v 2.5 5.4 -3.4
v 2.4 5.4 -3.5
v 2.5 5.4 -3.5
v 2.5 5.5 -0.5
v 2.6 5.5 -0.5
v 2.5 5.5 -0.6
v 2.6 5.5 -0.6
v 2.5 5.5 -3.4
v 2.6 5.5 -3.4
v 2.5 5.5 -3.5
v 2.6 5.5 -3.5
v 2.6 5.6 -0.5
v 2.7 5.6 -0.5
v 2.6 5.6 -0.6
v 2.7 5.6 -0.6
v 2.6 5.6 -3.4
v 2.7 5.6 -3.4
v 2.6 5.6 -3.5
v 2.7 5.6 -3.5
v 2.7 5.7 -0.5
v 2.8 5.7 -0.5
v 2.7 5.7 -0.6
v 2.8 5.7 -0.6
v 2.7 5.7 -3.4
v 2.8 5.7 -3.4
v 2.7 5.7 -3.5
v 2.8 5.7 -3.5
v 2.8 5.8 -0.5
v 2.9 5.8 -0.5
v 2.8 5.8 -0.6
v 2.9 5.8 -0.6
v 2.8 5.8 -3.4
v 2.9 5.8 -3.4
v 2.8 5.8 -3.5
v 2.9 5.8 -3.5
v 2.9 5.9 -0.5
v 3 5.9 -0.5
v 2.9 5.9 -0.6
v 3 5.9 -0.6
v 2.9 5.9 -3.4
v 3 5.9 -3.4
v 2.9 5.9 -3.5
v 3 5.9 -3.5
v 3.5 6 0
v 4 6 0
v 3 6 -0.5
v 3.5 6 -0.5
v 3.7 6 -0.5
v 4 6 -0.5
v 3 6 -0.6
v 3.7 6 -0.6
v 3 6 -3.4
v 3.7 6 -3.4
v 3 6 -3.5
v 3.5 6 -3.5
v 3.7 6 -3.5
v 4 6 -3.5
v 3.5 6 -4
v 4 6 -4

# faces
f 4/1/1 2/1/1 1/1/1
f 5/1/1 2/1/1 4/1/1
f 7/3/1 4/3/1 3/3/1
f 8/1/1 5/1/1 4/1/1
f 8/3/1 4/3/1 7/3/1
f 9/3/1 6/3/1 5/3/1
f 9/1/1 5/1/1 8/1/1
f 10/3/1 6/3/1 9/3/1
f 11/1/1 9/1/1 8/1/1
f 12/1/1 9/1/1 11/1/1
f 17/1/1 14/1/1 13/1/1
f 18/1/1 14/1/1 17/1/1
f 20/1/1 16/1/1 15/1/1
f 21/1/1 16/1/1 20/1/1
f 23/3/1 20/3/1 19/3/1
f 24/1/1 21/1/1 20/1/1
f 24/3/1 20/3/1 23/3/1
f 25/3/1 22/3/1 21/3/1
f 25/1/1 21/1/1 24/1/1
f 26/3/1 22/3/1 25/3/1
f 29/1/1 28/1/1 27/1/1
f 30/1/1 28/1/1 29/1/1
f 31/1/1 25/1/1 24/1/1
f 32/1/1 25/1/1 31/1/1
f 37/1/1 34/1/1 33/1/1
f 38/1/1 34/1/1 37/1/1
f 39/1/1 36/1/1 35/1/1
f 40/1/1 36/1/1 39/1/1
f 45/1/1 42/1/1 41/1/1
f 46/1/1 42/1/1 45/1/1
f 47/1/1 44/1/1 43/1/1
f 48/1/1 44/1/1 47/1/1
f 53/1/1 50/1/1 49/1/1
f 54/1/1 50/1/1 53/1/1
f 55/1/1 52/1/1 51/1/1
f 56/1/1 52/1/1 55/1/1
f 61/3/1 58/3/1 57/3/1
f 62/3/1 58/3/1 61/3/1
f 63/3/1 60/3/1 59/3/1
f 64/3/1 60/3/1 63/3/1
f 69/1/1 66/1/1 65/1/1
f 70/1/1 66/1/1 69/1/1
f 71/1/1 68/1/1 67/1/1
f 72/1/1 68/1/1 71/1/1
f 77/1/1 74/1/1 73/1/1
f 78/1/1 74/1/1 77/1/1
f 79/1/1 76/1/1 75/1/1
f 80/1/1 76/1/1 79/1/1
f 85/3/1 82/3/1 81/3/1
f 86/3/1 82/3/1 85/3/1
f 87/3/1 84/3/1 83/3/1
f 88/3/1 84/3/1 87/3/1
f 93/1/1 90/1/1 89/1/1
f 94/1/1 90/1/1 93/1/1
f 95/1/1 92/1/1 91/1/1
f 96/1/1 92/1/1 95/1/1
f 101/1/1 98/1/1 97/1/1
f 102/1/1 98/1/1 101/1/1
f 103/1/1 100/1/1 99/1/1
f 104/1/1 100/1/1 103/1/1
f 109/1/1 106/1/1 105/1/1
f 110/1/1 106/1/1 109/1/1
f 111/1/1 108/1/1 107/1/1
f 112/1/1 108/1/1 111/1/1
f 117/1/1 114/1/1 113/1/1
f 118/1/1 114/1/1 117/1/1
f 119/1/1 116/1/1 115/1/1
f 120/1/1 116/1/1 119/1/1
f 125/1/1 122/1/1 121/1/1
f 126/1/1 122/1/1 125/1/1
f 127/1/1 124/1/1 123/1/1
f 128/1/1 124/1/1 127/1/1
f 133/1/1 130/1/1 129/1/1
f 134/1/1 130/1/1 133/1/1
f 135/1/1 132/1/1 131/1/1
f 136/1/1 132/1/1 135/1/1
f 141/1/1 138/1/1 137/1/1
f 142/1/1 138/1/1 141/1/1
f 143/1/1 140/1/1 139/1/1
f 144/1/1 140/1/1 143/1/1
f 149/1/1 146/1/1 145/1/1
f 150/1/1 146/1/1 149/1/1
f 151/1/1 148/1/1 147/1/1
f 152/1/1 148/1/1 151/1/1
f 157/1/1 154/1/1 153/1/1
f 158/1/1 154/1/1 157/1/1
f 159/1/1 156/1/1 155/1/1
f 160/1/1 156/1/1 159/1/1
f 165/2/1 162/2/1 161/2/1
f 166/2/1 164/2/1 163/2/1
f 167/2/1 165/2/1 161/2/1
f 168/2/1 165/2/1 167/2/1
f 169/2/1 164/2/1 166/2/1
f 170/2/1 164/2/1 169/2/1
f 171/3/2 172/3/2 175/3/2
f 175/3/2 172/3/2 176/3/2
f 173/3/2 174/3/2 177/3/2
f 177/3/2 174/3/2 178/3/2
f 179/3/2 180/3/2 183/3/2
f 183/3/2 180/3/2 184/3/2
f 181/3/2 182/3/2 185/3/2
f 185/3/2 182/3/2 186/3/2
f 187/1/2 188/1/2 191/1/2
f 191/1/2 188/1/2 192/1/2
f 189/1/2 190/1/2 193/1/2
f 193/1/2 190/1/2 194/1/2
f 195/1/2 196/1/2 199/1/2
f 199/1/2 196/1/2 200/1/2
f 197/1/2 198/1/2 201/1/2
f 201/1/2 198/1/2 202/1/2
f 203/1/2 204/1/2 207/1/2
f 207/1/2 204/1/2 208/1/2
f 205/1/2 206/1/2 209/1/2
f 209/1/2 206/1/2 210/1/2
f 211/3/2 212/3/2 215/3/2
f 215/3/2 212/3/2 216/3/2
f 213/3/2 214/3/2 217/3/2
f 217/3/2 214/3/2 218/3/2
f 219/3/2 220/3/2 223/3/2
f 223/3/2 220/3/2 224/3/2
f 221/3/2 222/3/2 225/3/2
f 225/3/2 222/3/2 226/3/2
f 227/2/2 228/2/2 231/2/2
f 231/2/2 228/2/2 232/2/2
f 229/2/2 230/2/2 233/2/2
f 233/2/2 230/2/2 234/2/2
f 237/2/3 236/2/3 235/2/3
f 238/2/3 236/2/3 237/2/3
f 242/3/3 240/3/3 239/3/3
f 243/3/3 242/3/3 241/3/3
f 244/3/3 240/3/3 242/3/3
f 244/3/3 242/3/3 243/3/3
f 250/1/3 246/1/3 245/1/3
f 251/1/3 248/1/3 247/1/3
f 254/1/3 250/1/3 249/1/3
f 255/1/3 252/1/3 251/1/3
f 258/1/3 254/1/3 253/1/3
f 259/1/3 246/1/3 250/1/3
f 259/1/3 250/1/3 254/1/3
f 259/1/3 254/1/3 258/1/3
f 260/1/3 246/1/3 259/1/3
f 261/1/3 256/1/3 255/1/3
f 264/1/3 258/1/3 257/1/3
f 264/1/3 259/1/3 258/1/3
f 265/1/3 259/1/3 264/1/3
f 266/1/3 262/1/3 261/1/3
f 266/1/3 261/1/3 255/1/3
f 266/1/3 251/1/3 247/1/3
f 266/1/3 255/1/3 251/1/3
f 267/1/3 262/1/3 266/1/3
f 270/1/3 265/1/3 264/1/3
f 270/1/3 268/1/3 267/1/3
f 270/1/3 267/1/3 266/1/3
f 270/1/3 266/1/3 265/1/3
f 270/1/3 264/1/3 263/1/3
f 271/1/3 268/1/3 270/1/3
f 274/1/3 270/1/3 269/1/3
f 274/1/3 272/1/3 271/1/3
f 274/1/3 271/1/3 270/1/3
f 275/1/3 272/1/3 274/1/3
f 278/1/3 274/1/3 273/1/3
f 278/1/3 276/1/3 275/1/3
f 278/1/3 275/1/3 274/1/3
f 279/1/3 276/1/3 278/1/3
f 282/1/3 278/1/3 277/1/3
f 282/1/3 280/1/3 279/1/3
f 282/1/3 279/1/3 278/1/3
f 283/1/3 280/1/3 282/1/3
f 285/1/3 282/1/3 281/1/3
f 285/1/3 284/1/3 283/1/3
f 285/1/3 283/1/3 282/1/3
f 286/1/3 284/1/3 285/1/3
f 290/3/3 288/3/3 287/3/3
f 291/3/3 290/3/3 289/3/3
f 292/3/3 288/3/3 290/3/3
f 292/3/3 290/3/3 291/3/3
f 298/1/3 294/1/3 293/1/3
f 299/1/3 296/1/3 295/1/3
f 302/1/3 298/1/3 297/1/3
f 303/1/3 300/1/3 299/1/3
f 306/1/3 302/1/3 301/1/3
f 307/1/3 294/1/3 298/1/3
f 307/1/3 298/1/3 302/1/3
f 307/1/3 302/1/3 306/1/3
f 308/1/3 294/1/3 307/1/3
f 309/1/3 304/1/3 303/1/3
f 312/1/3 306/1/3 305/1/3
f 312/1/3 307/1/3 306/1/3
f 313/1/3 307/1/3 312/1/3
f 314/1/3 310/1/3 309/1/3
f 314/1/3 309/1/3 303/1/3
f 314/1/3 299/1/3 295/1/3
f 314/1/3 303/1/3 299/1/3
f 315/1/3 310/1/3 314/1/3
f 318/1/3 313/1/3 312/1/3
f 318/1/3 316/1/3 315/1/3
f 318/1/3 315/1/3 314/1/3
f 318/1/3 314/1/3 313/1/3
f 318/1/3 312/1/3 311/1/3
f 319/1/3 316/1/3 318/1/3
f 322/1/3 318/1/3 317/1/3
f 322/1/3 320/1/3 319/1/3
f 322/1/3 319/1/3 318/1/3
f 323/1/3 320/1/3 322/1/3
f 326/1/3 322/1/3 321/1/3
f 326/1/3 324/1/3 323/1/3
f 326/1/3 323/1/3 322/1/3
f 327/1/3 324/1/3 326/1/3
f 329/1/3 326/1/3 325/1/3
f 329/1/3 328/1/3 327/1/3
f 329/1/3 327/1/3 326/1/3
f 330/1/3 328/1/3 329/1/3
f 331/1/3 328/1/3 330/1/3
f 332/1/3 328/1/3 331/1/3
f 333/1/3 328/1/3 332/1/3
f 334/1/3 328/1/3 333/1/3
f 335/3/3 331/3/3 330/3/3
f 336/3/3 331/3/3 335/3/3
f 337/3/3 333/3/3 332/3/3
f 338/3/3 333/3/3 337/3/3
f 341/2/3 340/2/3 339/2/3
f 347/2/3 342/2/3 341/2/3
f 348/2/3 344/2/3 343/2/3
f 349/2/3 344/2/3 348/2/3
f 350/2/3 346/2/3 345/2/3
f 351/2/3 341/2/3 339/2/3
f 351/2/3 350/2/3 349/2/3
f 351/2/3 349/2/3 348/2/3
f 351/2/3 347/2/3 341/2/3
f 351/2/3 348/2/3 347/2/3
f 352/2/3 346/2/3 350/2/3
f 352/2/3 350/2/3 351/2/3
f 353/2/4 354/2/4 355/2/4
f 355/2/4 356/2/4 361/2/4
f 357/2/4 358/2/4 362/2/4
f 362/2/4 358/2/4 363/2/4
f 359/2/4 360/2/4 364/2/4
f 353/2/4 355/2/4 365/2/4
f 363/2/4 364/2/4 365/2/4
f 362/2/4 363/2/4 365/2/4
f 355/2/4 361/2/4 365/2/4
f 361/2/4 362/2/4 365/2/4
f 364/2/4 360/2/4 366/2/4
f 365/2/4 364/2/4 366/2/4
f 367/1/4 368/1/4 372/1/4
f 369/1/4 370/1/4 373/1/4
f 371/1/4 372/1/4 376/1/4
f 373/1/4 374/1/4 377/1/4
f 375/1/4 376/1/4 380/1/4
f 372/1/4 368/1/4 381/1/4
f 376/1/4 372/1/4 381/1/4
f 380/1/4 376/1/4 381/1/4
f 381/1/4 368/1/4 382/1/4
f 377/1/4 378/1/4 383/1/4
f 379/1/4 380/1/4 386/1/4
f 380/1/4 381/1/4 386/1/4
f 386/1/4 381/1/4 387/1/4
f 383/1/4 384/1/4 388/1/4
f 377/1/4 383/1/4 388/1/4
f 369/1/4 373/1/4 388/1/4
f 373/1/4 377/1/4 388/1/4
f 388/1/4 384/1/4 389/1/4
f 386/1/4 387/1/4 392/1/4
f 389/1/4 390/1/4 392/1/4
f 388/1/4 389/1/4 392/1/4
f 387/1/4 388/1/4 392/1/4
f 385/1/4 386/1/4 392/1/4
f 392/1/4 390/1/4 393/1/4
f 391/1/4 392/1/4 396/1/4
f 393/1/4 394/1/4 396/1/4
f 392/1/4 393/1/4 396/1/4
f 396/1/4 394/1/4 397/1/4
f 395/1/4 396/1/4 400/1/4
f 397/1/4 398/1/4 400/1/4
f 396/1/4 397/1/4 400/1/4
f 400/1/4 398/1/4 401/1/4
f 399/1/4 400/1/4 404/1/4
f 401/1/4 402/1/4 404/1/4
f 400/1/4 401/1/4 404/1/4
f 404/1/4 402/1/4 405/1/4
f 403/1/4 404/1/4 407/1/4
f 405/1/4 406/1/4 407/1/4
f 404/1/4 405/1/4 407/1/4
f 407/1/4 406/1/4 408/1/4
f 408/1/4 406/1/4 409/1/4
f 409/1/4 406/1/4 410/1/4
f 410/1/4 406/1/4 411/1/4
f 411/1/4 406/1/4 412/1/4
f 408/3/4 409/3/4 413/3/4
f 413/3/4 409/3/4 414/3/4
f 410/3/4 411/3/4 415/3/4
f 415/3/4 411/3/4 416/3/4
f 417/3/4 418/3/4 420/3/4
f 419/3/4 420/3/4 421/3/4
f 420/3/4 418/3/4 422/3/4
f 421/3/4 420/3/4 422/3/4
f 423/1/4 424/1/4 428/1/4
f 425/1/4 426/1/4 429/1/4
f 427/1/4 428/1/4 432/1/4
f 429/1/4 430/1/4 433/1/4
f 431/1/4 432/1/4 436/1/4
f 428/1/4 424/1/4 437/1/4
f 432/1/4 428/1/4 437/1/4
f 436/1/4 432/1/4 437/1/4
f 437/1/4 424/1/4 438/1/4
f 433/1/4 434/1/4 439/1/4
f 435/1/4 436/1/4 442/1/4
f 436/1/4 437/1/4 442/1/4
f 442/1/4 437/1/4 443/1/4
f 439/1/4 440/1/4 444/1/4
f 433/1/4 439/1/4 444/1/4
f 425/1/4 429/1/4 444/1/4
f 429/1/4 433/1/4 444/1/4
f 444/1/4 440/1/4 445/1/4
f 442/1/4 443/1/4 448/1/4
f 445/1/4 446/1/4 448/1/4
f 444/1/4 445/1/4 448/1/4
f 443/1/4 444/1/4 448/1/4
f 441/1/4 442/1/4 448/1/4
f 448/1/4 446/1/4 449/1/4
f 447/1/4 448/1/4 452/1/4
f 449/1/4 450/1/4 452/1/4
f 448/1/4 449/1/4 452/1/4
f 452/1/4 450/1/4 453/1/4
f 451/1/4 452/1/4 456/1/4
f 453/1/4 454/1/4 456/1/4
f 452/1/4 453/1/4 456/1/4
f 456/1/4 454/1/4 457/1/4
f 455/1/4 456/1/4 459/1/4
f 457/1/4 458/1/4 459/1/4
f 456/1/4 457/1/4 459/1/4
f 459/1/4 458/1/4 460/1/4
f 461/3/4 462/3/4 464/3/4
f 463/3/4 464/3/4 465/3/4
f 464/3/4 462/3/4 466/3/4
f 465/3/4 464/3/4 466/3/4
f 467/2/4 468/2/4 469/2/4
f 469/2/4 468/2/4 470/2/4
f 473/2/5 472/2/5 471/2/5
f 474/2/5 472/2/5 473/2/5
f 477/2/5 476/2/5 475/2/5
f 478/2/5 476/2/5 477/2/5
f 482/1/5 480/1/5 479/1/5
f 482/1/5 481/1/5 480/1/5
f 483/1/5 481/1/5 482/1/5
f 486/1/5 485/1/5 484/1/5
f 487/1/5 485/1/5 486/1/5
f 488/1/5 485/1/5 487/1/5
f 491/1/5 490/1/5 489/1/5
f 492/1/5 490/1/5 491/1/5
f 495/1/5 494/1/5 493/1/5
f 496/1/5 494/1/5 495/1/5
f 499/1/5 498/1/5 497/1/5
f 500/1/5 498/1/5 499/1/5
f 503/1/5 502/1/5 501/1/5
f 504/1/5 502/1/5 503/1/5
f 507/1/5 506/1/5 505/1/5
f 508/1/5 506/1/5 507/1/5
f 511/1/5 510/1/5 509/1/5
f 512/1/5 510/1/5 511/1/5
f 515/1/5 514/1/5 513/1/5
f 516/1/5 514/1/5 515/1/5
f 519/1/5 518/1/5 517/1/5
f 520/1/5 518/1/5 519/1/5
f 523/1/5 522/1/5 521/1/5
f 524/1/5 522/1/5 523/1/5
f 527/1/5 526/1/5 525/1/5
f 528/1/5 526/1/5 527/1/5
f 531/1/5 530/1/5 529/1/5
f 532/1/5 530/1/5 531/1/5
f 535/1/5 534/1/5 533/1/5
f 536/1/5 534/1/5 535/1/5
f 541/1/5 538/1/5 537/1/5
f 542/1/5 538/1/5 541/1/5
f 543/3/5 540/3/5 539/3/5
f 544/3/5 540/3/5 543/3/5
f 549/1/5 546/1/5 545/1/5
f 550/1/5 546/1/5 549/1/5
f 551/3/5 548/3/5 547/3/5
f 552/3/5 548/3/5 551/3/5
f 555/1/5 554/1/5 553/1/5
f 556/1/5 554/1/5 555/1/5
f 559/3/5 558/3/5 557/3/5
f 560/3/5 558/3/5 559/3/5
f 563/3/5 562/3/5 561/3/5
f 564/3/5 562/3/5 563/3/5
f 567/3/5 566/3/5 565/3/5
f 568/3/5 566/3/5 567/3/5
f 571/3/5 570/3/5 569/3/5
f 572/3/5 570/3/5 571/3/5
f 575/3/5 574/3/5 573/3/5
f 576/3/5 574/3/5 575/3/5
f 579/3/5 578/3/5 577/3/5
f 580/3/5 578/3/5 579/3/5
f 583/3/5 582/3/5 581/3/5
f 584/3/5 582/3/5 583/3/5
f 587/3/5 586/3/5 585/3/5
f 588/3/5 586/3/5 587/3/5
f 591/3/5 590/3/5 589/3/5
f 592/3/5 590/3/5 591/3/5
f 595/3/5 594/3/5 593/3/5
f 596/3/5 594/3/5 595/3/5
f 597/3/6 598/3/6 599/3/6
f 599/3/6 598/3/6 600/3/6
f 601/3/6 602/3/6 603/3/6
f 603/3/6 602/3/6 604/3/6
f 605/3/6 606/3/6 607/3/6
f 607/3/6 606/3/6 608/3/6
f 609/3/6 610/3/6 611/3/6
f 611/3/6 610/3/6 612/3/6
f 613/3/6 614/3/6 615/3/6
f 615/3/6 614/3/6 616/3/6
f 617/3/6 618/3/6 619/3/6
f 619/3/6 618/3/6 620/3/6
f 621/1/6 622/1/6 623/1/6
f 623/1/6 622/1/6 624/1/6
f 625/1/6 626/1/6 629/1/6
f 629/1/6 626/1/6 630/1/6
f 627/3/6 628/3/6 631/3/6
f 631/3/6 628/3/6 632/3/6
f 633/1/6 634/1/6 637/1/6
f 637/1/6 634/1/6 638/1/6
f 635/3/6 636/3/6 639/3/6
f 639/3/6 636/3/6 640/3/6
f 641/1/6 642/1/6 643/1/6
f 643/1/6 642/1/6 644/1/6
f 645/1/6 646/1/6 647/1/6
f 647/1/6 646/1/6 648/1/6
f 649/1/6 650/1/6 651/1/6
f 651/1/6 650/1/6 652/1/6
f 653/1/6 654/1/6 655/1/6
f 655/1/6 654/1/6 656/1/6
f 657/1/6 658/1/6 659/1/6
f 659/1/6 658/1/6 660/1/6
f 661/1/6 662/1/6 663/1/6
f 663/1/6 662/1/6 664/1/6
f 665/1/6 666/1/6 667/1/6
f 667/1/6 666/1/6 668/1/6
f 669/1/6 670/1/6 671/1/6
f 671/1/6 670/1/6 672/1/6
f 673/1/6 674/1/6 675/1/6
f 675/1/6 674/1/6 676/1/6
f 677/1/6 678/1/6 679/1/6
f 679/1/6 678/1/6 680/1/6
f 681/1/6 682/1/6 683/1/6
f 683/1/6 682/1/6 684/1/6
f 685/1/6 686/1/6 687/1/6
f 687/1/6 686/1/6 688/1/6
f 689/2/6 690/2/6 692/2/6
f 692/2/6 690/2/6 693/2/6
f 693/2/6 690/2/6 694/2/6
f 691/1/6 692/1/6 695/1/6
f 692/1/6 693/1/6 695/1/6
f 695/1/6 693/1/6 696/1/6
f 697/1/6 698/1/6 699/1/6
f 699/1/6 698/1/6 700/1/6
f 700/1/6 698/1/6 701/1/6
f 700/2/6 701/2/6 703/2/6
f 701/2/6 702/2/6 703/2/6
f 703/2/6 702/2/6 704/2/6
