# MagicaVoxel @ Ephtracy

# group
o 

# material
mtllib arrow.mtl
usemtl palette

# normals
vn -1 0 0
vn 1 0 0
vn 0 0 1
vn 0 0 -1
vn 0 -1 0
vn 0 1 0

# texcoords
vt 0.865234 0.5
vt 0.869141 0.5
vt 0.958984 0.5
vt 0.970703 0.5
vt 0.974609 0.5
vt 0.978516 0.5

# verts
v 0.9 2 -0.9
v 0.9 2 -1
v 0.9 2.2 -0.6
v 0.9 2.2 -0.7
v 0.9 2.2 -0.8
v 0.9 2.2 -0.9
v 0.9 2.2 -1
v 0.9 2.2 -1.1
v 0.9 2.2 -1.2
v 0.9 2.2 -1.3
v 0.9 2.3 -0.6
v 0.9 2.3 -0.7
v 0.9 2.3 -0.8
v 0.9 2.3 -0.9
v 0.9 2.3 -1
v 0.9 2.3 -1.1
v 0.9 2.3 -1.2
v 0.9 2.3 -1.3
v 0.9 2.5 -0.9
v 0.9 2.5 -1
v 0.9 2.6 -0.9
v 0.9 2.6 -1
v 3.6 2.1 -0.9
v 3.6 2.1 -1
v 3.6 2.2 -0.8
v 3.6 2.2 -0.9
v 3.6 2.2 -1
v 3.6 2.2 -1.1
v 3.6 2.3 -0.8
v 3.6 2.3 -0.9
v 3.6 2.3 -1
v 3.6 2.3 -1.1
v 3.6 2.4 -0.9
v 3.6 2.4 -1
v 1 2.2 -0.6
v 1 2.2 -0.7
v 1 2.2 -1.2
v 1 2.2 -1.3
v 1 2.3 -0.6
v 1 2.3 -0.7
v 1 2.3 -1.2
v 1 2.3 -1.3
v 1 2.5 -0.9
v 1 2.5 -1
v 1 2.6 -0.9
v 1 2.6 -1
v 1.1 2 -0.9
v 1.1 2 -1
v 1.1 2.1 -0.9
v 1.1 2.1 -1
v 1.1 2.2 -0.7
v 1.1 2.2 -0.8
v 1.1 2.2 -1.1
v 1.1 2.2 -1.2
v 1.1 2.3 -0.7
v 1.1 2.3 -0.8
v 1.1 2.3 -1.1
v 1.1 2.3 -1.2
v 1.1 2.4 -0.9
v 1.1 2.4 -1
v 1.1 2.5 -0.9
v 1.1 2.5 -1
v 1.2 2.1 -0.9
v 1.2 2.1 -1
v 1.2 2.2 -0.8
v 1.2 2.2 -0.9
v 1.2 2.2 -1
v 1.2 2.2 -1.1
v 1.2 2.3 -0.8
v 1.2 2.3 -0.9
v 1.2 2.3 -1
v 1.2 2.3 -1.1
v 1.2 2.4 -0.9
v 1.2 2.4 -1
v 3.8 2.1 -0.9
v 3.8 2.1 -1
v 3.8 2.2 -0.8
v 3.8 2.2 -0.9
v 3.8 2.2 -1
v 3.8 2.2 -1.1
v 3.8 2.3 -0.8
v 3.8 2.3 -0.9
v 3.8 2.3 -1
v 3.8 2.3 -1.1
v 3.8 2.4 -0.9
v 3.8 2.4 -1
v 3.9 2.2 -0.9
v 3.9 2.2 -1
v 3.9 2.3 -0.9
v 3.9 2.3 -1
v 0.9 2.2 -0.6
v 0.9 2.3 -0.6
v 1 2.2 -0.6
v 1 2.3 -0.6
v 1 2.2 -0.7
v 1 2.3 -0.7
v 1.1 2.2 -0.7
v 1.1 2.3 -0.7
v 1.1 2.2 -0.8
v 1.1 2.3 -0.8
v 1.2 2.2 -0.8
v 1.2 2.3 -0.8
v 3.6 2.2 -0.8
v 3.6 2.3 -0.8
v 3.8 2.2 -0.8
v 3.8 2.3 -0.8
v 0.9 2 -0.9
v 0.9 2.2 -0.9
v 0.9 2.3 -0.9
v 0.9 2.5 -0.9
v 0.9 2.6 -0.9
v 1 2 -0.9
v 1 2.1 -0.9
v 1 2.2 -0.9
v 1 2.3 -0.9
v 1 2.4 -0.9
v 1 2.5 -0.9
v 1 2.6 -0.9
v 1.1 2 -0.9
v 1.1 2.1 -0.9
v 1.1 2.2 -0.9
v 1.1 2.3 -0.9
v 1.1 2.4 -0.9
v 1.1 2.5 -0.9
v 1.2 2.1 -0.9
v 1.2 2.2 -0.9
v 1.2 2.3 -0.9
v 1.2 2.4 -0.9
v 3.6 2.1 -0.9
v 3.6 2.2 -0.9
v 3.6 2.3 -0.9
v 3.6 2.4 -0.9
v 3.8 2.1 -0.9
v 3.8 2.2 -0.9
v 3.8 2.3 -0.9
v 3.8 2.4 -0.9
v 3.9 2.2 -0.9
v 3.9 2.3 -0.9
v 0.9 2 -1
v 0.9 2.2 -1
v 0.9 2.3 -1
v 0.9 2.5 -1
v 0.9 2.6 -1
v 1 2 -1
v 1 2.1 -1
v 1 2.2 -1
v 1 2.3 -1
v 1 2.4 -1
v 1 2.5 -1
v 1 2.6 -1
v 1.1 2 -1
v 1.1 2.1 -1
v 1.1 2.2 -1
v 1.1 2.3 -1
v 1.1 2.4 -1
v 1.1 2.5 -1
v 1.2 2.1 -1
v 1.2 2.2 -1
v 1.2 2.3 -1
v 1.2 2.4 -1
v 3.6 2.1 -1
v 3.6 2.2 -1
v 3.6 2.3 -1
v 3.6 2.4 -1
v 3.8 2.1 -1
v 3.8 2.2 -1
v 3.8 2.3 -1
v 3.8 2.4 -1
v 3.9 2.2 -1
v 3.9 2.3 -1
v 1.1 2.2 -1.1
v 1.1 2.3 -1.1
v 1.2 2.2 -1.1
v 1.2 2.3 -1.1
v 3.6 2.2 -1.1
v 3.6 2.3 -1.1
v 3.8 2.2 -1.1
v 3.8 2.3 -1.1
v 1 2.2 -1.2
v 1 2.3 -1.2
v 1.1 2.2 -1.2
v 1.1 2.3 -1.2
v 0.9 2.2 -1.3
v 0.9 2.3 -1.3
v 1 2.2 -1.3
v 1 2.3 -1.3
v 0.9 2 -0.9
v 1 2 -0.9
v 1.1 2 -0.9
v 0.9 2 -1
v 1 2 -1
v 1.1 2 -1
v 1.1 2.1 -0.9
v 1.2 2.1 -0.9
v 3.6 2.1 -0.9
v 3.8 2.1 -0.9
v 1.1 2.1 -1
v 1.2 2.1 -1
v 3.6 2.1 -1
v 3.8 2.1 -1
v 0.9 2.2 -0.6
v 1 2.2 -0.6
v 0.9 2.2 -0.7
v 1 2.2 -0.7
v 1.1 2.2 -0.7
v 0.9 2.2 -0.8
v 1 2.2 -0.8
v 1.1 2.2 -0.8
v 1.2 2.2 -0.8
v 3.6 2.2 -0.8
v 3.8 2.2 -0.8
v 0.9 2.2 -0.9
v 1 2.2 -0.9
v 1.1 2.2 -0.9
v 1.2 2.2 -0.9
v 3.6 2.2 -0.9
v 3.8 2.2 -0.9
v 3.9 2.2 -0.9
v 0.9 2.2 -1
v 1 2.2 -1
v 1.1 2.2 -1
v 1.2 2.2 -1
v 3.6 2.2 -1
v 3.8 2.2 -1
v 3.9 2.2 -1
v 0.9 2.2 -1.1
v 1 2.2 -1.1
v 1.1 2.2 -1.1
v 1.2 2.2 -1.1
v 3.6 2.2 -1.1
v 3.8 2.2 -1.1
v 0.9 2.2 -1.2
v 1 2.2 -1.2
v 1.1 2.2 -1.2
v 0.9 2.2 -1.3
v 1 2.2 -1.3
v 0.9 2.3 -0.6
v 1 2.3 -0.6
v 0.9 2.3 -0.7
v 1 2.3 -0.7
v 1.1 2.3 -0.7
v 0.9 2.3 -0.8
v 1 2.3 -0.8
v 1.1 2.3 -0.8
v 1.2 2.3 -0.8
v 3.6 2.3 -0.8
v 3.8 2.3 -0.8
v 0.9 2.3 -0.9
v 1 2.3 -0.9
v 1.1 2.3 -0.9
v 1.2 2.3 -0.9
v 3.6 2.3 -0.9
v 3.8 2.3 -0.9
v 3.9 2.3 -0.9
v 0.9 2.3 -1
v 1 2.3 -1
v 1.1 2.3 -1
v 1.2 2.3 -1
v 3.6 2.3 -1
v 3.8 2.3 -1
v 3.9 2.3 -1
v 0.9 2.3 -1.1
v 1 2.3 -1.1
v 1.1 2.3 -1.1
v 1.2 2.3 -1.1
v 3.6 2.3 -1.1
v 3.8 2.3 -1.1
v 0.9 2.3 -1.2
v 1 2.3 -1.2
v 1.1 2.3 -1.2
v 0.9 2.3 -1.3
v 1 2.3 -1.3
v 1.1 2.4 -0.9
v 1.2 2.4 -0.9
v 3.6 2.4 -0.9
v 3.8 2.4 -0.9
v 1.1 2.4 -1
v 1.2 2.4 -1
v 3.6 2.4 -1
v 3.8 2.4 -1
v 1 2.5 -0.9
v 1.1 2.5 -0.9
v 1 2.5 -1
v 1.1 2.5 -1
v 0.9 2.6 -0.9
v 1 2.6 -0.9
v 0.9 2.6 -1
v 1 2.6 -1

# faces
f 6/5/1 2/5/1 1/5/1
f 7/5/1 2/5/1 6/5/1
f 11/5/1 4/5/1 3/5/1
f 12/4/1 5/4/1 4/4/1
f 12/5/1 4/5/1 11/5/1
f 13/5/1 6/5/1 5/5/1
f 13/4/1 5/4/1 12/4/1
f 13/5/1 7/5/1 6/5/1
f 13/5/1 8/5/1 7/5/1
f 14/5/1 8/5/1 13/5/1
f 15/5/1 8/5/1 14/5/1
f 16/4/1 9/4/1 8/4/1
f 16/5/1 8/5/1 15/5/1
f 17/5/1 10/5/1 9/5/1
f 17/4/1 9/4/1 16/4/1
f 18/5/1 10/5/1 17/5/1
f 19/4/1 15/4/1 14/4/1
f 20/4/1 15/4/1 19/4/1
f 21/5/1 20/5/1 19/5/1
f 22/5/1 20/5/1 21/5/1
f 26/6/1 24/6/1 23/6/1
f 27/6/1 24/6/1 26/6/1
f 29/6/1 26/6/1 25/6/1
f 30/6/1 26/6/1 29/6/1
f 31/6/1 28/6/1 27/6/1
f 32/6/1 28/6/1 31/6/1
f 33/6/1 31/6/1 30/6/1
f 34/6/1 31/6/1 33/6/1
f 35/5/2 36/5/2 39/5/2
f 39/5/2 36/5/2 40/5/2
f 37/5/2 38/5/2 41/5/2
f 41/5/2 38/5/2 42/5/2
f 43/5/2 44/5/2 45/5/2
f 45/5/2 44/5/2 46/5/2
f 47/4/2 48/4/2 49/4/2
f 49/4/2 48/4/2 50/4/2
f 51/3/2 52/3/2 55/3/2
f 55/3/2 52/3/2 56/3/2
f 53/3/2 54/3/2 57/3/2
f 57/3/2 54/3/2 58/3/2
f 59/3/2 60/3/2 61/3/2
f 61/3/2 60/3/2 62/3/2
f 63/3/2 64/3/2 66/3/2
f 66/3/2 64/3/2 67/3/2
f 65/4/2 66/4/2 69/4/2
f 69/4/2 66/4/2 70/4/2
f 67/4/2 68/4/2 71/4/2
f 71/4/2 68/4/2 72/4/2
f 70/3/2 71/3/2 73/3/2
f 73/3/2 71/3/2 74/3/2
f 75/6/2 76/6/2 78/6/2
f 78/6/2 76/6/2 79/6/2
f 77/6/2 78/6/2 81/6/2
f 81/6/2 78/6/2 82/6/2
f 79/6/2 80/6/2 83/6/2
f 83/6/2 80/6/2 84/6/2
f 82/6/2 83/6/2 85/6/2
f 85/6/2 83/6/2 86/6/2
f 87/6/2 88/6/2 89/6/2
f 89/6/2 88/6/2 90/6/2
f 93/5/3 92/5/3 91/5/3
f 94/5/3 92/5/3 93/5/3
f 97/3/3 96/3/3 95/3/3
f 98/3/3 96/3/3 97/3/3
f 101/4/3 100/4/3 99/4/3
f 102/4/3 100/4/3 101/4/3
f 105/6/3 104/6/3 103/6/3
f 106/6/3 104/6/3 105/6/3
f 112/5/3 108/5/3 107/5/3
f 113/5/3 108/5/3 112/5/3
f 114/5/3 108/5/3 113/5/3
f 115/4/3 110/4/3 109/4/3
f 116/4/3 110/4/3 115/4/3
f 117/5/3 111/5/3 110/5/3
f 117/4/3 110/4/3 116/4/3
f 118/5/3 111/5/3 117/5/3
f 119/4/3 113/4/3 112/4/3
f 120/3/3 114/3/3 113/3/3
f 120/4/3 113/4/3 119/4/3
f 121/3/3 114/3/3 120/3/3
f 122/4/3 116/4/3 115/4/3
f 123/3/3 117/3/3 116/3/3
f 123/4/3 116/4/3 122/4/3
f 124/3/3 117/3/3 123/3/3
f 125/3/3 121/3/3 120/3/3
f 126/3/3 121/3/3 125/3/3
f 127/3/3 123/3/3 122/3/3
f 128/3/3 123/3/3 127/3/3
f 130/2/3 127/2/3 126/2/3
f 131/2/3 127/2/3 130/2/3
f 133/6/3 130/6/3 129/6/3
f 134/6/3 130/6/3 133/6/3
f 135/6/3 132/6/3 131/6/3
f 136/6/3 132/6/3 135/6/3
f 137/6/3 135/6/3 134/6/3
f 138/6/3 135/6/3 137/6/3
f 139/5/4 140/5/4 144/5/4
f 144/5/4 140/5/4 145/5/4
f 145/5/4 140/5/4 146/5/4
f 141/4/4 142/4/4 147/4/4
f 147/4/4 142/4/4 148/4/4
f 142/5/4 143/5/4 149/5/4
f 148/4/4 142/4/4 149/4/4
f 149/5/4 143/5/4 150/5/4
f 144/4/4 145/4/4 151/4/4
f 145/3/4 146/3/4 152/3/4
f 151/4/4 145/4/4 152/4/4
f 152/3/4 146/3/4 153/3/4
f 147/4/4 148/4/4 154/4/4
f 148/3/4 149/3/4 155/3/4
f 154/4/4 148/4/4 155/4/4
f 155/3/4 149/3/4 156/3/4
f 152/3/4 153/3/4 157/3/4
f 157/3/4 153/3/4 158/3/4
f 154/3/4 155/3/4 159/3/4
f 159/3/4 155/3/4 160/3/4
f 158/2/4 159/2/4 162/2/4
f 162/2/4 159/2/4 163/2/4
f 161/6/4 162/6/4 165/6/4
f 165/6/4 162/6/4 166/6/4
f 163/6/4 164/6/4 167/6/4
f 167/6/4 164/6/4 168/6/4
f 166/6/4 167/6/4 169/6/4
f 169/6/4 167/6/4 170/6/4
f 171/4/4 172/4/4 173/4/4
f 173/4/4 172/4/4 174/4/4
f 175/6/4 176/6/4 177/6/4
f 177/6/4 176/6/4 178/6/4
f 179/3/4 180/3/4 181/3/4
f 181/3/4 180/3/4 182/3/4
f 183/5/4 184/5/4 185/5/4
f 185/5/4 184/5/4 186/5/4
f 190/5/5 188/5/5 187/5/5
f 191/4/5 189/4/5 188/4/5
f 191/5/5 188/5/5 190/5/5
f 192/4/5 189/4/5 191/4/5
f 197/3/5 194/3/5 193/3/5
f 198/3/5 194/3/5 197/3/5
f 199/6/5 196/6/5 195/6/5
f 200/6/5 196/6/5 199/6/5
f 203/5/5 202/5/5 201/5/5
f 204/5/5 202/5/5 203/5/5
f 206/4/5 204/4/5 203/4/5
f 207/3/5 205/3/5 204/3/5
f 207/4/5 204/4/5 206/4/5
f 208/3/5 205/3/5 207/3/5
f 212/5/5 207/5/5 206/5/5
f 213/3/5 208/3/5 207/3/5
f 213/5/5 207/5/5 212/5/5
f 214/4/5 209/4/5 208/4/5
f 214/3/5 208/3/5 213/3/5
f 215/4/5 209/4/5 214/4/5
f 216/6/5 211/6/5 210/6/5
f 217/6/5 211/6/5 216/6/5
f 222/2/5 216/2/5 215/2/5
f 223/2/5 216/2/5 222/2/5
f 224/6/5 218/6/5 217/6/5
f 225/6/5 218/6/5 224/6/5
f 226/5/5 220/5/5 219/5/5
f 227/3/5 221/3/5 220/3/5
f 227/5/5 220/5/5 226/5/5
f 228/4/5 222/4/5 221/4/5
f 228/3/5 221/3/5 227/3/5
f 229/4/5 222/4/5 228/4/5
f 230/6/5 224/6/5 223/6/5
f 231/6/5 224/6/5 230/6/5
f 232/4/5 227/4/5 226/4/5
f 233/3/5 228/3/5 227/3/5
f 233/4/5 227/4/5 232/4/5
f 234/3/5 228/3/5 233/3/5
f 235/5/5 233/5/5 232/5/5
f 236/5/5 233/5/5 235/5/5
f 237/5/6 238/5/6 239/5/6
f 239/5/6 238/5/6 240/5/6
f 239/4/6 240/4/6 242/4/6
f 240/3/6 241/3/6 243/3/6
f 242/4/6 240/4/6 243/4/6
f 243/3/6 241/3/6 244/3/6
f 242/5/6 243/5/6 248/5/6
f 243/3/6 244/3/6 249/3/6
f 248/5/6 243/5/6 249/5/6
f 244/4/6 245/4/6 250/4/6
f 249/3/6 244/3/6 250/3/6
f 250/4/6 245/4/6 251/4/6
f 246/6/6 247/6/6 252/6/6
f 252/6/6 247/6/6 253/6/6
f 251/2/6 252/2/6 258/2/6
f 258/2/6 252/2/6 259/2/6
f 253/6/6 254/6/6 260/6/6
f 260/6/6 254/6/6 261/6/6
f 255/5/6 256/5/6 262/5/6
f 256/3/6 257/3/6 263/3/6
f 262/5/6 256/5/6 263/5/6
f 257/4/6 258/4/6 264/4/6
f 263/3/6 257/3/6 264/3/6
f 264/4/6 258/4/6 265/4/6
f 259/6/6 260/6/6 266/6/6
f 266/6/6 260/6/6 267/6/6
f 262/4/6 263/4/6 268/4/6
f 263/3/6 264/3/6 269/3/6
f 268/4/6 263/4/6 269/4/6
f 269/3/6 264/3/6 270/3/6
f 268/5/6 269/5/6 271/5/6
f 271/5/6 269/5/6 272/5/6
f 273/3/6 274/3/6 277/3/6
f 277/3/6 274/3/6 278/3/6
f 275/6/6 276/6/6 279/6/6
f 279/6/6 276/6/6 280/6/6
f 281/3/6 282/3/6 283/3/6
f 283/3/6 282/3/6 284/3/6
f 285/5/6 286/5/6 287/5/6
f 287/5/6 286/5/6 288/5/6
