%YAML 1.1
%TAG !u! tag:unity3d.com,2011:
--- !u!1 &1040117917027666182
GameObject:
  m_ObjectHideFlags: 0
  m_CorrespondingSourceObject: {fileID: 0}
  m_PrefabInstance: {fileID: 0}
  m_PrefabAsset: {fileID: 0}
  serializedVersion: 6
  m_Component:
  - component: {fileID: 1040117917027666178}
  - component: {fileID: 1040117917027666183}
  - component: {fileID: 5040105360552987419}
  m_Layer: 0
  m_Name: CannonBall
  m_TagString: Untagged
  m_Icon: {fileID: 0}
  m_NavMeshLayer: 0
  m_StaticEditorFlags: 0
  m_IsActive: 1
--- !u!4 &1040117917027666178
Transform:
  m_ObjectHideFlags: 0
  m_CorrespondingSourceObject: {fileID: 0}
  m_PrefabInstance: {fileID: 0}
  m_PrefabAsset: {fileID: 0}
  m_GameObject: {fileID: 1040117917027666182}
  m_LocalRotation: {x: 0, y: 0, z: 0, w: 1}
  m_LocalPosition: {x: 4.46, y: 0.718, z: 10.198}
  m_LocalScale: {x: 0.2, y: 0.2, z: 0.2}
  m_Children:
  - {fileID: 626836754552937207}
  m_Father: {fileID: 0}
  m_RootOrder: 0
  m_LocalEulerAnglesHint: {x: 0, y: 0, z: 0}
--- !u!135 &1040117917027666183
SphereCollider:
  m_ObjectHideFlags: 0
  m_CorrespondingSourceObject: {fileID: 0}
  m_PrefabInstance: {fileID: 0}
  m_PrefabAsset: {fileID: 0}
  m_GameObject: {fileID: 1040117917027666182}
  m_Material: {fileID: 0}
  m_IsTrigger: 1
  m_Enabled: 1
  serializedVersion: 2
  m_Radius: 0.5
  m_Center: {x: 0, y: 0, z: 0}
--- !u!114 &5040105360552987419
MonoBehaviour:
  m_ObjectHideFlags: 0
  m_CorrespondingSourceObject: {fileID: 0}
  m_PrefabInstance: {fileID: 0}
  m_PrefabAsset: {fileID: 0}
  m_GameObject: {fileID: 1040117917027666182}
  m_Enabled: 1
  m_EditorHideFlags: 0
  m_Script: {fileID: 11500000, guid: f070665c53e0f334392ec4d3fb4ffa8e, type: 3}
  m_Name: 
  m_EditorClassIdentifier: 
  impactEffect: {fileID: 2504380580594932024, guid: 44e9d90e41e12514592993d1708254c9,
    type: 3}
--- !u!1001 &5604813829689111021
PrefabInstance:
  m_ObjectHideFlags: 0
  serializedVersion: 2
  m_Modification:
    m_TransformParent: {fileID: 1040117917027666178}
    m_Modifications:
    - target: {fileID: -4216859302048453862, guid: b76622ff194cf854696b6a69f400e06d,
        type: 3}
      propertyPath: m_LocalPosition.x
      value: 1.564
      objectReference: {fileID: 0}
    - target: {fileID: -4216859302048453862, guid: b76622ff194cf854696b6a69f400e06d,
        type: 3}
      propertyPath: m_LocalPosition.y
      value: -3.833
      objectReference: {fileID: 0}
    - target: {fileID: -4216859302048453862, guid: b76622ff194cf854696b6a69f400e06d,
        type: 3}
      propertyPath: m_LocalPosition.z
      value: 1.959
      objectReference: {fileID: 0}
    - target: {fileID: -4216859302048453862, guid: b76622ff194cf854696b6a69f400e06d,
        type: 3}
      propertyPath: m_LocalRotation.x
      value: 0
      objectReference: {fileID: 0}
    - target: {fileID: -4216859302048453862, guid: b76622ff194cf854696b6a69f400e06d,
        type: 3}
      propertyPath: m_LocalRotation.y
      value: -0
      objectReference: {fileID: 0}
    - target: {fileID: -4216859302048453862, guid: b76622ff194cf854696b6a69f400e06d,
        type: 3}
      propertyPath: m_LocalRotation.z
      value: -0
      objectReference: {fileID: 0}
    - target: {fileID: -4216859302048453862, guid: b76622ff194cf854696b6a69f400e06d,
        type: 3}
      propertyPath: m_LocalRotation.w
      value: 1
      objectReference: {fileID: 0}
    - target: {fileID: -4216859302048453862, guid: b76622ff194cf854696b6a69f400e06d,
        type: 3}
      propertyPath: m_RootOrder
      value: 0
      objectReference: {fileID: 0}
    - target: {fileID: -4216859302048453862, guid: b76622ff194cf854696b6a69f400e06d,
        type: 3}
      propertyPath: m_LocalEulerAnglesHint.x
      value: 0
      objectReference: {fileID: 0}
    - target: {fileID: -4216859302048453862, guid: b76622ff194cf854696b6a69f400e06d,
        type: 3}
      propertyPath: m_LocalEulerAnglesHint.y
      value: 0
      objectReference: {fileID: 0}
    - target: {fileID: -4216859302048453862, guid: b76622ff194cf854696b6a69f400e06d,
        type: 3}
      propertyPath: m_LocalEulerAnglesHint.z
      value: 0
      objectReference: {fileID: 0}
    - target: {fileID: -4216859302048453862, guid: b76622ff194cf854696b6a69f400e06d,
        type: 3}
      propertyPath: m_LocalScale.x
      value: 1.1
      objectReference: {fileID: 0}
    - target: {fileID: -4216859302048453862, guid: b76622ff194cf854696b6a69f400e06d,
        type: 3}
      propertyPath: m_LocalScale.y
      value: 1.1
      objectReference: {fileID: 0}
    - target: {fileID: -4216859302048453862, guid: b76622ff194cf854696b6a69f400e06d,
        type: 3}
      propertyPath: m_LocalScale.z
      value: 1.1
      objectReference: {fileID: 0}
    - target: {fileID: -927199367670048503, guid: b76622ff194cf854696b6a69f400e06d,
        type: 3}
      propertyPath: m_Name
      value: SviedinysPatrankai
      objectReference: {fileID: 0}
    m_RemovedComponents: []
  m_SourcePrefab: {fileID: 100100000, guid: b76622ff194cf854696b6a69f400e06d, type: 3}
--- !u!4 &626836754552937207 stripped
Transform:
  m_CorrespondingSourceObject: {fileID: -4216859302048453862, guid: b76622ff194cf854696b6a69f400e06d,
    type: 3}
  m_PrefabInstance: {fileID: 5604813829689111021}
  m_PrefabAsset: {fileID: 0}
