# MagicaVoxel @ Ephtracy

# group
o 

# material
mtllib Medis bet nuvytes.mtl
usemtl palette

# normals
vn -1 0 0
vn 1 0 0
vn 0 0 1
vn 0 0 -1
vn 0 -1 0
vn 0 1 0

# texcoords
vt 0.537109 0.5
vt 0.990234 0.5

# verts
v 1 4.1 -1.1
v 1 4.1 -1.2
v 1 4.2 -1.1
v 1 4.2 -1.2
v 1.1 4 -1.1
v 1.1 4 -1.3
v 1.1 4.1 -1.1
v 1.1 4.1 -1.2
v 1.1 4.1 -1.3
v 1.2 4.2 -2.7
v 1.2 4.2 -2.9
v 1.2 4.3 -2.7
v 1.2 4.3 -2.9
v 1.3 3.9 -1.3
v 1.3 3.9 -1.4
v 1.3 4 -1.3
v 1.3 4.1 -1.3
v 1.3 4.1 -1.4
v 1.3 4.1 -2.6
v 1.3 4.1 -2.7
v 1.3 4.2 -2.7
v 1.3 4.3 -2.6
v 1.3 4.3 -2.7
v 1.4 3.9 -1.4
v 1.4 3.9 -1.5
v 1.4 4 -1.4
v 1.4 4 -1.5
v 1.4 4 -2.5
v 1.4 4 -2.6
v 1.4 4.1 -2.6
v 1.4 4.2 -2.5
v 1.4 4.2 -2.6
v 1.5 2 -1.9
v 1.5 2 -2.2
v 1.5 2.1 -1.9
v 1.5 2.1 -2.2
v 1.5 3.9 -1.5
v 1.5 3.9 -1.6
v 1.5 3.9 -2.4
v 1.5 3.9 -2.5
v 1.5 4 -1.5
v 1.5 4 -1.6
v 1.5 4 -2.5
v 1.5 4.1 -2.4
v 1.5 4.1 -2.5
v 1.6 2 -1.7
v 1.6 2 -1.9
v 1.6 2 -2.2
v 1.6 2 -2.4
v 1.6 2.1 -1.7
v 1.6 2.1 -1.8
v 1.6 2.1 -1.9
v 1.6 2.1 -2.2
v 1.6 2.1 -2.3
v 1.6 2.1 -2.4
v 1.6 2.2 -1.8
v 1.6 2.2 -2.3
v 1.6 3.8 -1.5
v 1.6 3.8 -1.7
v 1.6 3.8 -2.3
v 1.6 3.8 -2.4
v 1.6 3.9 -1.5
v 1.6 3.9 -1.6
v 1.6 3.9 -1.7
v 1.6 3.9 -2.4
v 1.6 4 -2.3
v 1.6 4 -2.4
v 1.7 2 -1.6
v 1.7 2 -1.7
v 1.7 2 -2.4
v 1.7 2 -2.5
v 1.7 2.1 -1.6
v 1.7 2.1 -1.7
v 1.7 2.1 -1.8
v 1.7 2.1 -2.3
v 1.7 2.1 -2.4
v 1.7 2.1 -2.5
v 1.7 2.2 -1.7
v 1.7 2.2 -1.8
v 1.7 2.2 -2.3
v 1.7 2.2 -2.4
v 1.7 3.7 -1.6
v 1.7 3.7 -1.8
v 1.7 3.7 -2.2
v 1.7 3.7 -2.3
v 1.7 3.8 -1.6
v 1.7 3.8 -1.7
v 1.7 3.8 -1.8
v 1.7 3.8 -2.3
v 1.7 3.9 -2.2
v 1.7 3.9 -2.3
v 1.8 2 -1.5
v 1.8 2 -1.6
v 1.8 2 -2.5
v 1.8 2 -2.6
v 1.8 2.1 -1.5
v 1.8 2.1 -1.6
v 1.8 2.1 -1.7
v 1.8 2.1 -2.4
v 1.8 2.1 -2.5
v 1.8 2.1 -2.6
v 1.8 2.2 -1.6
v 1.8 2.2 -1.7
v 1.8 2.2 -1.8
v 1.8 2.2 -2.3
v 1.8 2.2 -2.4
v 1.8 2.2 -2.5
v 1.8 2.3 -1.8
v 1.8 2.3 -1.9
v 1.8 2.3 -2.2
v 1.8 2.3 -2.3
v 1.8 2.5 -1.9
v 1.8 2.5 -2
v 1.8 2.7 -1.9
v 1.8 2.7 -2
v 1.8 2.8 -2.1
v 1.8 2.8 -2.2
v 1.8 2.9 -2.1
v 1.8 2.9 -2.2
v 1.8 3.1 -2.1
v 1.8 3.1 -2.2
v 1.8 3.2 -1.9
v 1.8 3.2 -2
v 1.8 3.3 -2
v 1.8 3.3 -2.1
v 1.8 3.6 -1.7
v 1.8 3.6 -1.9
v 1.8 3.6 -2.1
v 1.8 3.6 -2.2
v 1.8 3.7 -1.7
v 1.8 3.7 -1.8
v 1.8 3.7 -1.9
v 1.8 3.7 -2.2
v 1.8 3.8 -2.1
v 1.8 3.8 -2.2
v 1.9 2.2 -1.7
v 1.9 2.2 -1.8
v 1.9 2.3 -1.7
v 1.9 2.3 -1.8
v 1.9 2.3 -1.9
v 1.9 2.3 -2.2
v 1.9 2.3 -2.3
v 1.9 2.5 -1.9
v 1.9 2.5 -2
v 1.9 2.6 -1.8
v 1.9 2.6 -1.9
v 1.9 2.7 -1.9
v 1.9 2.7 -2
v 1.9 2.8 -2.1
v 1.9 2.8 -2.2
v 1.9 2.9 -1.8
v 1.9 2.9 -1.9
v 1.9 2.9 -2.1
v 1.9 2.9 -2.2
v 1.9 3 -2.2
v 1.9 3 -2.3
v 1.9 3.1 -2.1
v 1.9 3.1 -2.2
v 1.9 3.2 -1.9
v 1.9 3.2 -2
v 1.9 3.3 -1.8
v 1.9 3.3 -1.9
v 1.9 3.3 -2
v 1.9 3.3 -2.1
v 1.9 3.6 -1.9
v 1.9 3.6 -2.1
v 1.9 3.6 -2.2
v 1.9 3.7 -1.9
v 1.9 3.7 -2.1
v 2 2 -2.5
v 2 2 -2.6
v 2 2.1 -2.4
v 2 2.1 -2.5
v 2 2.1 -2.6
v 2 2.2 -2.3
v 2 2.2 -2.4
v 2 2.2 -2.5
v 2 2.3 -2.3
v 2 2.3 -2.4
v 2 2.6 -1.8
v 2 2.6 -1.9
v 2 2.9 -1.8
v 2 2.9 -1.9
v 2 3 -2.2
v 2 3 -2.3
v 2 3.3 -2.2
v 2 3.3 -2.3
v 2 3.7 -1.9
v 2 3.7 -2.2
v 2 3.8 -1.9
v 2 3.8 -2.2
v 2.1 2.8 -2.2
v 2.1 2.8 -2.3
v 2.1 2.9 -1.8
v 2.1 2.9 -1.9
v 2.1 2.9 -2.2
v 2.1 3 -1.8
v 2.1 3 -1.9
v 2.1 3 -2.2
v 2.1 3 -2.3
v 2.1 3.8 -1.9
v 2.1 3.8 -2
v 2.1 3.8 -2.1
v 2.1 3.8 -2.2
v 2.1 3.9 -2.1
v 2.1 3.9 -2.2
v 2.1 4 -1.9
v 2.1 4 -2
v 2.2 3.8 -2.2
v 2.2 3.8 -2.3
v 2.2 3.9 -2.2
v 2.2 3.9 -2.3
v 2.2 4 -1.8
v 2.2 4 -1.9
v 2.2 4 -2
v 2.2 4.1 -1.9
v 2.2 4.1 -2
v 2.2 4.2 -1.8
v 2.2 4.2 -1.9
v 2.3 2.1 -2.3
v 2.3 2.1 -2.4
v 2.3 2.2 -2.3
v 2.3 2.2 -2.4
v 2.3 3.9 -2.2
v 2.3 3.9 -2.3
v 2.3 4 -2.2
v 2.3 4 -2.3
v 2.3 4.2 -1.7
v 2.3 4.2 -1.8
v 2.3 4.2 -1.9
v 2.3 4.3 -1.8
v 2.3 4.3 -1.9
v 2.3 4.5 -1.7
v 2.3 4.5 -1.8
v 2.4 2.8 -2
v 2.4 2.8 -2.1
v 2.4 2.9 -2
v 2.4 2.9 -2.1
v 2.4 3.9 -2.3
v 2.4 3.9 -2.4
v 2.4 4 -2.3
v 2.4 4 -2.4
v 2.4 4.4 -1.6
v 2.4 4.4 -1.7
v 2.4 4.5 -1.7
v 2.4 4.6 -1.6
v 2.4 4.6 -1.7
v 2.5 3.9 -2.4
v 2.5 3.9 -2.6
v 2.5 4 -2.4
v 2.5 4 -2.5
v 2.5 4 -2.6
v 2.5 4 -2.7
v 2.5 4.1 -2.5
v 2.5 4.1 -2.7
v 2.5 4.6 -1.5
v 2.5 4.6 -1.6
v 2.5 4.6 -1.7
v 2.5 4.7 -1.5
v 2.5 4.7 -1.7
v 2.6 4 -2.7
v 2.6 4 -2.8
v 2.6 4.1 -2.7
v 2.6 4.1 -2.8
v 2.6 4.1 -2.9
v 2.6 4.2 -2.7
v 2.6 4.2 -2.9
v 2.6 4.6 -1.4
v 2.6 4.6 -1.5
v 2.6 4.7 -1.4
v 2.6 4.7 -1.5
v 1.2 4 -1.1
v 1.2 4 -1.2
v 1.2 4.1 -1.2
v 1.2 4.2 -1.1
v 1.2 4.2 -1.2
v 1.3 4.2 -2.8
v 1.3 4.2 -2.9
v 1.3 4.3 -2.8
v 1.3 4.3 -2.9
v 1.4 4 -1.2
v 1.4 4 -1.3
v 1.4 4 -1.4
v 1.4 4.1 -1.2
v 1.4 4.1 -1.4
v 1.4 4.2 -2.6
v 1.4 4.2 -2.7
v 1.4 4.2 -2.8
v 1.4 4.3 -2.6
v 1.4 4.3 -2.8
v 1.5 3.9 -1.3
v 1.5 3.9 -1.4
v 1.5 4 -1.3
v 1.5 4 -1.4
v 1.5 4.1 -2.5
v 1.5 4.1 -2.6
v 1.5 4.1 -2.7
v 1.5 4.2 -2.5
v 1.5 4.2 -2.7
v 1.6 3.9 -1.4
v 1.6 3.9 -1.5
v 1.6 4 -1.4
v 1.6 4 -1.5
v 1.6 4 -2.4
v 1.6 4 -2.5
v 1.6 4 -2.6
v 1.6 4.1 -2.4
v 1.6 4.1 -2.6
v 1.7 3.8 -1.5
v 1.7 3.8 -1.6
v 1.7 3.9 -1.6
v 1.7 3.9 -2.3
v 1.7 3.9 -2.4
v 1.7 3.9 -2.5
v 1.7 4 -1.5
v 1.7 4 -1.6
v 1.7 4 -2.3
v 1.7 4 -2.5
v 1.8 3.7 -1.6
v 1.8 3.7 -1.7
v 1.8 3.8 -1.7
v 1.8 3.8 -2.2
v 1.8 3.8 -2.3
v 1.8 3.8 -2.4
v 1.8 3.9 -1.6
v 1.8 3.9 -1.7
v 1.8 3.9 -2.2
v 1.8 3.9 -2.4
v 1.9 2 -2.5
v 1.9 2 -2.6
v 1.9 2.1 -2.4
v 1.9 2.1 -2.5
v 1.9 2.1 -2.6
v 1.9 2.2 -2.4
v 1.9 2.2 -2.5
v 1.9 3.6 -1.7
v 1.9 3.6 -1.8
v 1.9 3.7 -1.8
v 1.9 3.7 -2.1
v 1.9 3.7 -2.2
v 1.9 3.7 -2.3
v 1.9 3.8 -1.7
v 1.9 3.8 -1.8
v 1.9 3.8 -2.1
v 1.9 3.8 -2.3
v 2 2.6 -2.2
v 2 2.6 -2.3
v 2 2.9 -1.8
v 2 2.9 -1.9
v 2 2.9 -2.2
v 2 3 -1.8
v 2 3 -1.9
v 2 3 -2.2
v 2 3 -2.3
v 2 3.6 -1.8
v 2 3.6 -1.9
v 2 3.7 -1.8
v 2 3.7 -1.9
v 2.1 2.5 -2.2
v 2.1 2.5 -2.3
v 2.1 2.6 -2.2
v 2.1 2.6 -2.3
v 2.1 3 -1.8
v 2.1 3 -1.9
v 2.1 3.1 -1.8
v 2.1 3.1 -1.9
v 2.1 3.5 -1.9
v 2.1 3.5 -2
v 2.1 3.6 -2.1
v 2.1 3.6 -2.2
v 2.1 3.7 -2
v 2.1 3.7 -2.1
v 2.1 3.8 -1.9
v 2.1 3.8 -2
v 2.1 3.8 -2.1
v 2.1 3.8 -2.2
v 2.2 2 -2.5
v 2.2 2 -2.6
v 2.2 2.1 -2.3
v 2.2 2.1 -2.5
v 2.2 2.1 -2.6
v 2.2 2.2 -1.7
v 2.2 2.2 -1.8
v 2.2 2.2 -2.4
v 2.2 2.2 -2.5
v 2.2 2.3 -1.7
v 2.2 2.3 -1.8
v 2.2 2.3 -1.9
v 2.2 2.3 -2.2
v 2.2 2.3 -2.3
v 2.2 2.3 -2.4
v 2.2 2.5 -2.2
v 2.2 2.5 -2.3
v 2.2 2.8 -2.2
v 2.2 2.8 -2.3
v 2.2 2.9 -2.1
v 2.2 2.9 -2.2
v 2.2 3 -1.8
v 2.2 3 -1.9
v 2.2 3.1 -1.8
v 2.2 3.1 -1.9
v 2.2 3.1 -2.1
v 2.2 3.1 -2.2
v 2.2 3.2 -1.9
v 2.2 3.2 -2
v 2.2 3.3 -1.8
v 2.2 3.3 -1.9
v 2.2 3.3 -2
v 2.2 3.3 -2.1
v 2.2 3.3 -2.2
v 2.2 3.3 -2.3
v 2.2 3.5 -1.9
v 2.2 3.5 -2
v 2.2 3.6 -2.1
v 2.2 3.6 -2.2
v 2.2 3.7 -2
v 2.2 3.7 -2.1
v 2.2 3.8 -1.9
v 2.2 3.8 -2
v 2.2 3.9 -1.9
v 2.2 3.9 -2
v 2.3 2 -1.5
v 2.3 2 -1.6
v 2.3 2.1 -1.5
v 2.3 2.1 -1.6
v 2.3 2.1 -1.7
v 2.3 2.2 -1.6
v 2.3 2.2 -1.7
v 2.3 2.2 -1.8
v 2.3 2.2 -1.9
v 2.3 2.2 -2
v 2.3 2.2 -2.1
v 2.3 2.2 -2.2
v 2.3 2.2 -2.3
v 2.3 2.3 -1.8
v 2.3 2.3 -1.9
v 2.3 2.3 -2
v 2.3 2.3 -2.1
v 2.3 2.3 -2.2
v 2.3 2.3 -2.3
v 2.3 2.7 -2
v 2.3 2.7 -2.1
v 2.3 2.8 -2
v 2.3 2.8 -2.1
v 2.3 2.9 -2.1
v 2.3 2.9 -2.2
v 2.3 3.1 -1.9
v 2.3 3.1 -2.1
v 2.3 3.1 -2.2
v 2.3 3.2 -1.9
v 2.3 3.2 -2
v 2.3 3.3 -1.9
v 2.3 3.3 -2
v 2.3 3.3 -2.1
v 2.3 3.3 -2.2
v 2.3 3.8 -2.1
v 2.3 3.8 -2.2
v 2.3 3.9 -1.9
v 2.3 3.9 -2
v 2.3 3.9 -2.1
v 2.3 3.9 -2.2
v 2.3 4 -1.8
v 2.3 4 -1.9
v 2.3 4.1 -1.8
v 2.3 4.1 -1.9
v 2.3 4.1 -2
v 2.4 2 -1.6
v 2.4 2 -1.7
v 2.4 2 -2.4
v 2.4 2 -2.5
v 2.4 2.1 -1.6
v 2.4 2.1 -1.7
v 2.4 2.1 -1.8
v 2.4 2.1 -2
v 2.4 2.1 -2.1
v 2.4 2.1 -2.2
v 2.4 2.1 -2.4
v 2.4 2.1 -2.5
v 2.4 2.2 -1.7
v 2.4 2.2 -1.8
v 2.4 2.2 -1.9
v 2.4 2.2 -2
v 2.4 2.2 -2.1
v 2.4 2.2 -2.2
v 2.4 2.2 -2.4
v 2.4 2.3 -1.9
v 2.4 2.3 -2
v 2.4 2.3 -2.1
v 2.4 2.3 -2.2
v 2.4 2.7 -2
v 2.4 2.7 -2.1
v 2.4 2.8 -2
v 2.4 2.8 -2.1
v 2.4 3.8 -2.2
v 2.4 3.8 -2.3
v 2.4 3.9 -2.3
v 2.4 4 -2.2
v 2.4 4 -2.3
v 2.4 4.1 -1.8
v 2.4 4.1 -1.9
v 2.4 4.2 -1.7
v 2.4 4.2 -1.8
v 2.4 4.3 -1.8
v 2.4 4.3 -1.9
v 2.4 4.4 -1.7
v 2.4 4.5 -1.7
v 2.4 4.5 -1.8
v 2.5 2 -1.7
v 2.5 2 -1.8
v 2.5 2 -2.2
v 2.5 2 -2.4
v 2.5 2.1 -1.7
v 2.5 2.1 -1.8
v 2.5 2.1 -2
v 2.5 2.1 -2.1
v 2.5 2.1 -2.2
v 2.5 2.1 -2.4
v 2.5 2.2 -1.8
v 2.5 2.2 -2
v 2.5 2.2 -2.1
v 2.5 2.2 -2.2
v 2.5 2.8 -2
v 2.5 2.8 -2.1
v 2.5 2.9 -2
v 2.5 2.9 -2.1
v 2.5 3.9 -2.3
v 2.5 3.9 -2.4
v 2.5 4 -2.3
v 2.5 4 -2.4
v 2.5 4.4 -1.6
v 2.5 4.4 -1.7
v 2.5 4.5 -1.6
v 2.5 4.5 -1.7
v 2.6 2 -1.8
v 2.6 2 -2.2
v 2.6 2.1 -1.8
v 2.6 2.1 -2.2
v 2.6 3.9 -2.4
v 2.6 3.9 -2.6
v 2.6 4 -2.4
v 2.6 4 -2.5
v 2.6 4 -2.6
v 2.6 4.1 -2.5
v 2.6 4.1 -2.6
v 2.6 4.5 -1.6
v 2.6 4.5 -1.7
v 2.6 4.6 -1.6
v 2.6 4.7 -1.6
v 2.6 4.7 -1.7
v 2.7 4 -2.6
v 2.7 4 -2.8
v 2.7 4.1 -2.6
v 2.7 4.1 -2.7
v 2.7 4.1 -2.8
v 2.7 4.1 -2.9
v 2.7 4.2 -2.7
v 2.7 4.2 -2.9
v 2.7 4.6 -1.5
v 2.7 4.6 -1.6
v 2.7 4.7 -1.5
v 2.7 4.7 -1.6
v 2.8 4.6 -1.4
v 2.8 4.6 -1.5
v 2.8 4.7 -1.4
v 2.8 4.7 -1.5
v 1 4.1 -1.1
v 1 4.2 -1.1
v 1.1 4 -1.1
v 1.1 4.1 -1.1
v 1.2 4 -1.1
v 1.2 4.2 -1.1
v 1.2 4 -1.2
v 1.2 4.1 -1.2
v 1.4 4 -1.2
v 1.4 4.1 -1.2
v 1.3 3.9 -1.3
v 1.3 4 -1.3
v 1.4 4 -1.3
v 1.5 3.9 -1.3
v 1.5 4 -1.3
v 1.5 3.9 -1.4
v 1.5 4 -1.4
v 1.6 3.9 -1.4
v 1.6 4 -1.4
v 2.6 4.6 -1.4
v 2.6 4.7 -1.4
v 2.8 4.6 -1.4
v 2.8 4.7 -1.4
v 1.6 3.8 -1.5
v 1.6 3.9 -1.5
v 1.6 4 -1.5
v 1.7 3.8 -1.5
v 1.7 4 -1.5
v 1.8 2 -1.5
v 1.8 2.1 -1.5
v 2.3 2 -1.5
v 2.3 2.1 -1.5
v 2.5 4.6 -1.5
v 2.5 4.7 -1.5
v 2.6 4.6 -1.5
v 2.6 4.7 -1.5
v 1.7 2 -1.6
v 1.7 2.1 -1.6
v 1.7 3.7 -1.6
v 1.7 3.8 -1.6
v 1.7 3.9 -1.6
v 1.8 2 -1.6
v 1.8 2.1 -1.6
v 1.8 2.2 -1.6
v 1.8 3.7 -1.6
v 1.8 3.9 -1.6
v 2.3 2 -1.6
v 2.3 2.1 -1.6
v 2.3 2.2 -1.6
v 2.4 2 -1.6
v 2.4 2.1 -1.6
v 2.4 4.4 -1.6
v 2.4 4.6 -1.6
v 2.5 4.4 -1.6
v 2.5 4.5 -1.6
v 2.5 4.6 -1.6
v 2.6 4.5 -1.6
v 2.6 4.6 -1.6
v 1.6 2 -1.7
v 1.6 2.1 -1.7
v 1.7 2 -1.7
v 1.7 2.1 -1.7
v 1.7 2.2 -1.7
v 1.8 2.1 -1.7
v 1.8 2.2 -1.7
v 1.8 3.6 -1.7
v 1.8 3.7 -1.7
v 1.8 3.8 -1.7
v 1.9 2.2 -1.7
v 1.9 2.3 -1.7
v 1.9 3.6 -1.7
v 1.9 3.8 -1.7
v 2.2 2.2 -1.7
v 2.2 2.3 -1.7
v 2.3 2.1 -1.7
v 2.3 2.2 -1.7
v 2.3 4.2 -1.7
v 2.3 4.5 -1.7
v 2.4 2 -1.7
v 2.4 2.1 -1.7
v 2.4 2.2 -1.7
v 2.4 4.2 -1.7
v 2.4 4.4 -1.7
v 2.4 4.5 -1.7
v 2.5 2 -1.7
v 2.5 2.1 -1.7
v 1.6 2.1 -1.8
v 1.6 2.2 -1.8
v 1.7 2.1 -1.8
v 1.7 2.2 -1.8
v 1.8 2.2 -1.8
v 1.8 2.3 -1.8
v 1.9 2.2 -1.8
v 1.9 2.3 -1.8
v 1.9 2.6 -1.8
v 1.9 2.9 -1.8
v 1.9 3.3 -1.8
v 1.9 3.6 -1.8
v 1.9 3.7 -1.8
v 2 2.6 -1.8
v 2 2.9 -1.8
v 2 3 -1.8
v 2 3.6 -1.8
v 2 3.7 -1.8
v 2.1 2.9 -1.8
v 2.1 3 -1.8
v 2.1 3.1 -1.8
v 2.2 2.2 -1.8
v 2.2 2.3 -1.8
v 2.2 3 -1.8
v 2.2 3.1 -1.8
v 2.2 3.3 -1.8
v 2.2 4 -1.8
v 2.2 4.2 -1.8
v 2.3 2.2 -1.8
v 2.3 2.3 -1.8
v 2.3 4 -1.8
v 2.3 4.1 -1.8
v 2.3 4.2 -1.8
v 2.4 2.1 -1.8
v 2.4 2.2 -1.8
v 2.4 4.1 -1.8
v 2.4 4.2 -1.8
v 2.5 2 -1.8
v 2.5 2.1 -1.8
v 2.5 2.2 -1.8
v 2.6 2 -1.8
v 2.6 2.1 -1.8
v 1.5 2 -1.9
v 1.5 2.1 -1.9
v 1.6 2 -1.9
v 1.6 2.1 -1.9
v 1.8 2.3 -1.9
v 1.8 2.5 -1.9
v 1.8 2.7 -1.9
v 1.8 3.2 -1.9
v 1.9 2.3 -1.9
v 1.9 2.5 -1.9
v 1.9 2.6 -1.9
v 1.9 2.7 -1.9
v 1.9 2.9 -1.9
v 1.9 3.2 -1.9
v 1.9 3.3 -1.9
v 1.9 3.6 -1.9
v 2 2.6 -1.9
v 2 2.9 -1.9
v 2 3 -1.9
v 2 3.6 -1.9
v 2 3.7 -1.9
v 2 3.8 -1.9
v 2.1 2.9 -1.9
v 2.1 3 -1.9
v 2.1 3.1 -1.9
v 2.1 3.5 -1.9
v 2.1 3.8 -1.9
v 2.1 4 -1.9
v 2.2 2.3 -1.9
v 2.2 3 -1.9
v 2.2 3.1 -1.9
v 2.2 3.2 -1.9
v 2.2 3.3 -1.9
v 2.2 3.5 -1.9
v 2.2 3.8 -1.9
v 2.2 3.9 -1.9
v 2.2 4 -1.9
v 2.3 2.2 -1.9
v 2.3 2.3 -1.9
v 2.3 3.1 -1.9
v 2.3 3.2 -1.9
v 2.3 3.3 -1.9
v 2.3 3.9 -1.9
v 2.3 4 -1.9
v 2.4 2.2 -1.9
v 2.4 2.3 -1.9
v 1.8 2.5 -2
v 1.8 2.7 -2
v 1.8 3.2 -2
v 1.8 3.3 -2
v 1.9 2.5 -2
v 1.9 2.7 -2
v 1.9 3.2 -2
v 1.9 3.3 -2
v 2.1 3.5 -2
v 2.1 3.7 -2
v 2.2 3.5 -2
v 2.2 3.7 -2
v 2.3 2.7 -2
v 2.3 2.8 -2
v 2.4 2.7 -2
v 2.4 2.8 -2
v 2.4 2.9 -2
v 2.5 2.8 -2
v 2.5 2.9 -2
v 1.8 3.6 -2.1
v 1.8 3.8 -2.1
v 1.9 3.6 -2.1
v 1.9 3.7 -2.1
v 1.9 3.8 -2.1
v 2.1 3.8 -2.1
v 2.1 3.9 -2.1
v 2.2 3.1 -2.1
v 2.2 3.3 -2.1
v 2.3 2.2 -2.1
v 2.3 2.3 -2.1
v 2.3 3.1 -2.1
v 2.3 3.3 -2.1
v 2.3 3.8 -2.1
v 2.3 3.9 -2.1
v 2.4 2.1 -2.1
v 2.4 2.2 -2.1
v 2.4 2.3 -2.1
v 2.5 2.1 -2.1
v 2.5 2.2 -2.1
v 1.7 3.7 -2.2
v 1.7 3.9 -2.2
v 1.8 3.7 -2.2
v 1.8 3.8 -2.2
v 1.8 3.9 -2.2
v 2.3 3.8 -2.2
v 2.3 3.9 -2.2
v 2.3 4 -2.2
v 2.4 3.8 -2.2
v 2.4 4 -2.2
v 1.6 3.8 -2.3
v 1.6 4 -2.3
v 1.7 3.8 -2.3
v 1.7 3.9 -2.3
v 1.7 4 -2.3
v 2.4 3.9 -2.3
v 2.4 4 -2.3
v 2.5 3.9 -2.3
v 2.5 4 -2.3
v 1.5 3.9 -2.4
v 1.5 4.1 -2.4
v 1.6 3.9 -2.4
v 1.6 4 -2.4
v 1.6 4.1 -2.4
v 2.5 3.9 -2.4
v 2.5 4 -2.4
v 2.6 3.9 -2.4
v 2.6 4 -2.4
v 1.4 4 -2.5
v 1.4 4.2 -2.5
v 1.5 4 -2.5
v 1.5 4.1 -2.5
v 1.5 4.2 -2.5
v 2.5 4 -2.5
v 2.5 4.1 -2.5
v 2.6 4 -2.5
v 2.6 4.1 -2.5
v 1.3 4.1 -2.6
v 1.3 4.3 -2.6
v 1.4 4.1 -2.6
v 1.4 4.2 -2.6
v 1.4 4.3 -2.6
v 2.6 4 -2.6
v 2.6 4.1 -2.6
v 2.7 4 -2.6
v 2.7 4.1 -2.6
v 1.2 4.2 -2.7
v 1.2 4.3 -2.7
v 1.3 4.2 -2.7
v 1.3 4.3 -2.7
v 2.6 4.1 -2.7
v 2.6 4.2 -2.7
v 2.7 4.1 -2.7
v 2.7 4.2 -2.7
v 1 4.1 -1.2
v 1 4.2 -1.2
v 1.1 4.1 -1.2
v 1.2 4.1 -1.2
v 1.2 4.2 -1.2
v 1.1 4 -1.3
v 1.1 4.1 -1.3
v 1.3 4 -1.3
v 1.3 4.1 -1.3
v 1.3 3.9 -1.4
v 1.3 4.1 -1.4
v 1.4 3.9 -1.4
v 1.4 4 -1.4
v 1.4 4.1 -1.4
v 1.4 3.9 -1.5
v 1.4 4 -1.5
v 1.5 3.9 -1.5
v 1.5 4 -1.5
v 2.7 4.6 -1.5
v 2.7 4.7 -1.5
v 2.8 4.6 -1.5
v 2.8 4.7 -1.5
v 1.5 3.9 -1.6
v 1.5 4 -1.6
v 1.6 3.9 -1.6
v 1.7 3.9 -1.6
v 1.7 4 -1.6
v 2.6 4.6 -1.6
v 2.6 4.7 -1.6
v 2.7 4.6 -1.6
v 2.7 4.7 -1.6
v 1.6 3.8 -1.7
v 1.6 3.9 -1.7
v 1.7 3.8 -1.7
v 1.8 3.8 -1.7
v 1.8 3.9 -1.7
v 2.4 4.4 -1.7
v 2.4 4.5 -1.7
v 2.4 4.6 -1.7
v 2.5 4.4 -1.7
v 2.5 4.5 -1.7
v 2.5 4.6 -1.7
v 2.5 4.7 -1.7
v 2.6 4.5 -1.7
v 2.6 4.7 -1.7
v 1.7 3.7 -1.8
v 1.7 3.8 -1.8
v 1.8 3.7 -1.8
v 1.9 3.7 -1.8
v 1.9 3.8 -1.8
v 2.3 4.3 -1.8
v 2.3 4.5 -1.8
v 2.4 4.3 -1.8
v 2.4 4.5 -1.8
v 1.8 3.6 -1.9
v 1.8 3.7 -1.9
v 1.9 3.6 -1.9
v 1.9 3.7 -1.9
v 2.2 4.1 -1.9
v 2.2 4.2 -1.9
v 2.3 4.1 -1.9
v 2.3 4.2 -1.9
v 2.3 4.3 -1.9
v 2.4 4.1 -1.9
v 2.4 4.3 -1.9
v 2.1 3.8 -2
v 2.1 4 -2
v 2.2 3.2 -2
v 2.2 3.3 -2
v 2.2 3.8 -2
v 2.2 3.9 -2
v 2.2 4 -2
v 2.2 4.1 -2
v 2.3 2.2 -2
v 2.3 2.3 -2
v 2.3 3.2 -2
v 2.3 3.3 -2
v 2.3 3.9 -2
v 2.3 4.1 -2
v 2.4 2.1 -2
v 2.4 2.2 -2
v 2.4 2.3 -2
v 2.5 2.1 -2
v 2.5 2.2 -2
v 1.8 2.8 -2.1
v 1.8 2.9 -2.1
v 1.8 3.1 -2.1
v 1.8 3.3 -2.1
v 1.9 2.8 -2.1
v 1.9 2.9 -2.1
v 1.9 3.1 -2.1
v 1.9 3.3 -2.1
v 2.1 3.6 -2.1
v 2.1 3.7 -2.1
v 2.2 2.9 -2.1
v 2.2 3.1 -2.1
v 2.2 3.6 -2.1
v 2.2 3.7 -2.1
v 2.3 2.7 -2.1
v 2.3 2.8 -2.1
v 2.3 2.9 -2.1
v 2.3 3.1 -2.1
v 2.4 2.7 -2.1
v 2.4 2.8 -2.1
v 2.4 2.9 -2.1
v 2.5 2.8 -2.1
v 2.5 2.9 -2.1
v 1.5 2 -2.2
v 1.5 2.1 -2.2
v 1.6 2 -2.2
v 1.6 2.1 -2.2
v 1.8 2.3 -2.2
v 1.8 2.8 -2.2
v 1.8 2.9 -2.2
v 1.8 3.1 -2.2
v 1.8 3.6 -2.2
v 1.8 3.7 -2.2
v 1.9 2.3 -2.2
v 1.9 2.8 -2.2
v 1.9 2.9 -2.2
v 1.9 3 -2.2
v 1.9 3.1 -2.2
v 1.9 3.6 -2.2
v 1.9 3.7 -2.2
v 2 2.6 -2.2
v 2 2.9 -2.2
v 2 3 -2.2
v 2 3.3 -2.2
v 2 3.7 -2.2
v 2 3.8 -2.2
v 2.1 2.5 -2.2
v 2.1 2.6 -2.2
v 2.1 2.8 -2.2
v 2.1 2.9 -2.2
v 2.1 3 -2.2
v 2.1 3.6 -2.2
v 2.1 3.8 -2.2
v 2.1 3.9 -2.2
v 2.2 2.3 -2.2
v 2.2 2.5 -2.2
v 2.2 2.8 -2.2
v 2.2 2.9 -2.2
v 2.2 3.1 -2.2
v 2.2 3.3 -2.2
v 2.2 3.6 -2.2
v 2.2 3.8 -2.2
v 2.2 3.9 -2.2
v 2.3 2.2 -2.2
v 2.3 2.3 -2.2
v 2.3 2.9 -2.2
v 2.3 3.1 -2.2
v 2.3 3.3 -2.2
v 2.4 2.1 -2.2
v 2.4 2.2 -2.2
v 2.4 2.3 -2.2
v 2.5 2 -2.2
v 2.5 2.1 -2.2
v 2.5 2.2 -2.2
v 2.6 2 -2.2
v 2.6 2.1 -2.2
v 1.6 2.1 -2.3
v 1.6 2.2 -2.3
v 1.7 2.1 -2.3
v 1.7 2.2 -2.3
v 1.7 3.7 -2.3
v 1.7 3.8 -2.3
v 1.8 2.2 -2.3
v 1.8 2.3 -2.3
v 1.8 3.8 -2.3
v 1.9 2.3 -2.3
v 1.9 3 -2.3
v 1.9 3.7 -2.3
v 1.9 3.8 -2.3
v 2 2.2 -2.3
v 2 2.3 -2.3
v 2 2.6 -2.3
v 2 3 -2.3
v 2 3.3 -2.3
v 2.1 2.5 -2.3
v 2.1 2.6 -2.3
v 2.1 2.8 -2.3
v 2.1 3 -2.3
v 2.2 2.1 -2.3
v 2.2 2.3 -2.3
v 2.2 2.5 -2.3
v 2.2 2.8 -2.3
v 2.2 3.3 -2.3
v 2.2 3.8 -2.3
v 2.2 3.9 -2.3
v 2.3 2.1 -2.3
v 2.3 2.2 -2.3
v 2.3 2.3 -2.3
v 2.3 3.9 -2.3
v 2.3 4 -2.3
v 2.4 3.8 -2.3
v 2.4 3.9 -2.3
v 2.4 4 -2.3
v 1.6 2 -2.4
v 1.6 2.1 -2.4
v 1.6 3.8 -2.4
v 1.6 3.9 -2.4
v 1.7 2 -2.4
v 1.7 2.1 -2.4
v 1.7 2.2 -2.4
v 1.7 3.9 -2.4
v 1.8 2.1 -2.4
v 1.8 2.2 -2.4
v 1.8 3.8 -2.4
v 1.8 3.9 -2.4
v 1.9 2.1 -2.4
v 1.9 2.2 -2.4
v 2 2.1 -2.4
v 2 2.2 -2.4
v 2 2.3 -2.4
v 2.2 2.2 -2.4
v 2.2 2.3 -2.4
v 2.3 2.1 -2.4
v 2.3 2.2 -2.4
v 2.4 2 -2.4
v 2.4 2.1 -2.4
v 2.4 2.2 -2.4
v 2.4 3.9 -2.4
v 2.4 4 -2.4
v 2.5 2 -2.4
v 2.5 2.1 -2.4
v 2.5 3.9 -2.4
v 2.5 4 -2.4
v 1.5 3.9 -2.5
v 1.5 4 -2.5
v 1.6 4 -2.5
v 1.7 2 -2.5
v 1.7 2.1 -2.5
v 1.7 3.9 -2.5
v 1.7 4 -2.5
v 1.8 2 -2.5
v 1.8 2.1 -2.5
v 1.8 2.2 -2.5
v 1.9 2 -2.5
v 1.9 2.1 -2.5
v 1.9 2.2 -2.5
v 2 2 -2.5
v 2 2.1 -2.5
v 2 2.2 -2.5
v 2.2 2 -2.5
v 2.2 2.1 -2.5
v 2.2 2.2 -2.5
v 2.4 2 -2.5
v 2.4 2.1 -2.5
v 1.4 4 -2.6
v 1.4 4.1 -2.6
v 1.5 4.1 -2.6
v 1.6 4 -2.6
v 1.6 4.1 -2.6
v 1.8 2 -2.6
v 1.8 2.1 -2.6
v 1.9 2 -2.6
v 1.9 2.1 -2.6
v 2 2 -2.6
v 2 2.1 -2.6
v 2.2 2 -2.6
v 2.2 2.1 -2.6
v 2.5 3.9 -2.6
v 2.5 4 -2.6
v 2.6 3.9 -2.6
v 2.6 4 -2.6
v 1.3 4.1 -2.7
v 1.3 4.2 -2.7
v 1.4 4.2 -2.7
v 1.5 4.1 -2.7
v 1.5 4.2 -2.7
v 2.5 4 -2.7
v 2.5 4.1 -2.7
v 2.6 4 -2.7
v 2.6 4.1 -2.7
v 1.3 4.2 -2.8
v 1.3 4.3 -2.8
v 1.4 4.2 -2.8
v 1.4 4.3 -2.8
v 2.6 4 -2.8
v 2.6 4.1 -2.8
v 2.7 4 -2.8
v 2.7 4.1 -2.8
v 1.2 4.2 -2.9
v 1.2 4.3 -2.9
v 1.3 4.2 -2.9
v 1.3 4.3 -2.9
v 2.6 4.1 -2.9
v 2.6 4.2 -2.9
v 2.7 4.1 -2.9
v 2.7 4.2 -2.9
v 1.8 2 -1.5
v 2.3 2 -1.5
v 1.7 2 -1.6
v 1.8 2 -1.6
v 2.3 2 -1.6
v 2.4 2 -1.6
v 1.6 2 -1.7
v 1.7 2 -1.7
v 2.4 2 -1.7
v 2.5 2 -1.7
v 2.5 2 -1.8
v 2.6 2 -1.8
v 1.5 2 -1.9
v 1.6 2 -1.9
v 1.5 2 -2.2
v 1.6 2 -2.2
v 2.5 2 -2.2
v 2.6 2 -2.2
v 1.6 2 -2.4
v 1.7 2 -2.4
v 2.4 2 -2.4
v 2.5 2 -2.4
v 1.7 2 -2.5
v 1.8 2 -2.5
v 1.9 2 -2.5
v 2 2 -2.5
v 2.2 2 -2.5
v 2.4 2 -2.5
v 1.8 2 -2.6
v 1.9 2 -2.6
v 2 2 -2.6
v 2.2 2 -2.6
v 1.8 2.7 -1.9
v 1.9 2.7 -1.9
v 1.8 2.7 -2
v 1.9 2.7 -2
v 2.3 2.7 -2
v 2.4 2.7 -2
v 2.3 2.7 -2.1
v 2.4 2.7 -2.1
v 2.4 2.8 -2
v 2.5 2.8 -2
v 2.4 2.8 -2.1
v 2.5 2.8 -2.1
v 2.1 2.8 -2.2
v 2.2 2.8 -2.2
v 2.1 2.8 -2.3
v 2.2 2.8 -2.3
v 1.9 2.9 -1.8
v 2 2.9 -1.8
v 1.9 2.9 -1.9
v 2 2.9 -1.9
v 1.8 2.9 -2.1
v 1.9 2.9 -2.1
v 1.8 2.9 -2.2
v 1.9 2.9 -2.2
v 2 3 -1.8
v 2.1 3 -1.8
v 2 3 -1.9
v 2.1 3 -1.9
v 2 3 -2.2
v 2.1 3 -2.2
v 2 3 -2.3
v 2.1 3 -2.3
v 2.1 3.1 -1.8
v 2.2 3.1 -1.8
v 2.1 3.1 -1.9
v 2.2 3.1 -1.9
v 2.2 3.1 -2.1
v 2.3 3.1 -2.1
v 2.2 3.1 -2.2
v 2.3 3.1 -2.2
v 2.2 3.2 -1.9
v 2.3 3.2 -1.9
v 2.2 3.2 -2
v 2.3 3.2 -2
v 1.8 3.6 -1.7
v 1.9 3.6 -1.7
v 1.9 3.6 -1.8
v 2 3.6 -1.8
v 1.8 3.6 -1.9
v 1.9 3.6 -1.9
v 2 3.6 -1.9
v 1.8 3.6 -2.1
v 1.9 3.6 -2.1
v 1.8 3.6 -2.2
v 1.9 3.6 -2.2
v 1.7 3.7 -1.6
v 1.8 3.7 -1.6
v 1.8 3.7 -1.7
v 1.7 3.7 -1.8
v 1.8 3.7 -1.8
v 1.7 3.7 -2.2
v 1.8 3.7 -2.2
v 1.9 3.7 -2.2
v 1.7 3.7 -2.3
v 1.9 3.7 -2.3
v 1.6 3.8 -1.5
v 1.7 3.8 -1.5
v 1.7 3.8 -1.6
v 1.6 3.8 -1.7
v 1.7 3.8 -1.7
v 2.1 3.8 -1.9
v 2.2 3.8 -1.9
v 2.1 3.8 -2
v 2.2 3.8 -2
v 2.1 3.8 -2.1
v 2.3 3.8 -2.1
v 2.1 3.8 -2.2
v 2.2 3.8 -2.2
v 2.3 3.8 -2.2
v 2.4 3.8 -2.2
v 1.6 3.8 -2.3
v 1.7 3.8 -2.3
v 1.8 3.8 -2.3
v 2.2 3.8 -2.3
v 2.4 3.8 -2.3
v 1.6 3.8 -2.4
v 1.8 3.8 -2.4
v 1.3 3.9 -1.3
v 1.5 3.9 -1.3
v 1.3 3.9 -1.4
v 1.4 3.9 -1.4
v 1.5 3.9 -1.4
v 1.6 3.9 -1.4
v 1.4 3.9 -1.5
v 1.5 3.9 -1.5
v 1.6 3.9 -1.5
v 1.5 3.9 -1.6
v 1.6 3.9 -1.6
v 2.2 3.9 -1.9
v 2.3 3.9 -1.9
v 2.2 3.9 -2
v 2.3 3.9 -2
v 2.4 3.9 -2.3
v 2.5 3.9 -2.3
v 1.5 3.9 -2.4
v 1.6 3.9 -2.4
v 1.7 3.9 -2.4
v 2.4 3.9 -2.4
v 2.5 3.9 -2.4
v 2.6 3.9 -2.4
v 1.5 3.9 -2.5
v 1.7 3.9 -2.5
v 2.5 3.9 -2.6
v 2.6 3.9 -2.6
v 1.1 4 -1.1
v 1.2 4 -1.1
v 1.2 4 -1.2
v 1.4 4 -1.2
v 1.1 4 -1.3
v 1.3 4 -1.3
v 1.4 4 -1.3
v 2.2 4 -1.8
v 2.3 4 -1.8
v 2.2 4 -1.9
v 2.3 4 -1.9
v 1.4 4 -2.5
v 1.5 4 -2.5
v 1.6 4 -2.5
v 1.4 4 -2.6
v 1.6 4 -2.6
v 2.5 4 -2.6
v 2.6 4 -2.6
v 2.7 4 -2.6
v 2.5 4 -2.7
v 2.6 4 -2.7
v 2.6 4 -2.8
v 2.7 4 -2.8
v 1 4.1 -1.1
v 1.1 4.1 -1.1
v 1 4.1 -1.2
v 1.1 4.1 -1.2
v 2.3 4.1 -1.8
v 2.4 4.1 -1.8
v 2.3 4.1 -1.9
v 2.4 4.1 -1.9
v 1.3 4.1 -2.6
v 1.4 4.1 -2.6
v 1.5 4.1 -2.6
v 1.3 4.1 -2.7
v 1.5 4.1 -2.7
v 2.6 4.1 -2.8
v 2.7 4.1 -2.8
v 2.6 4.1 -2.9
v 2.7 4.1 -2.9
v 2.3 4.2 -1.7
v 2.4 4.2 -1.7
v 2.3 4.2 -1.8
v 2.4 4.2 -1.8
v 1.2 4.2 -2.7
v 1.3 4.2 -2.7
v 1.4 4.2 -2.7
v 1.3 4.2 -2.8
v 1.4 4.2 -2.8
v 1.2 4.2 -2.9
v 1.3 4.2 -2.9
v 2.4 4.4 -1.6
v 2.5 4.4 -1.6
v 2.4 4.4 -1.7
v 2.5 4.4 -1.7
v 2.5 4.5 -1.6
v 2.6 4.5 -1.6
v 2.5 4.5 -1.7
v 2.6 4.5 -1.7
v 2.6 4.6 -1.4
v 2.8 4.6 -1.4
v 2.5 4.6 -1.5
v 2.6 4.6 -1.5
v 2.7 4.6 -1.5
v 2.8 4.6 -1.5
v 2.5 4.6 -1.6
v 2.6 4.6 -1.6
v 2.7 4.6 -1.6
v 1.8 2.1 -1.5
v 2.3 2.1 -1.5
v 1.7 2.1 -1.6
v 1.8 2.1 -1.6
v 2.3 2.1 -1.6
v 2.4 2.1 -1.6
v 1.6 2.1 -1.7
v 1.7 2.1 -1.7
v 1.8 2.1 -1.7
v 2.3 2.1 -1.7
v 2.4 2.1 -1.7
v 2.5 2.1 -1.7
v 1.6 2.1 -1.8
v 1.7 2.1 -1.8
v 2.4 2.1 -1.8
v 2.5 2.1 -1.8
v 2.6 2.1 -1.8
v 1.5 2.1 -1.9
v 1.6 2.1 -1.9
v 2.4 2.1 -2
v 2.5 2.1 -2
v 2.4 2.1 -2.1
v 2.5 2.1 -2.1
v 1.5 2.1 -2.2
v 1.6 2.1 -2.2
v 2.4 2.1 -2.2
v 2.5 2.1 -2.2
v 2.6 2.1 -2.2
v 1.6 2.1 -2.3
v 1.7 2.1 -2.3
v 2.2 2.1 -2.3
v 2.3 2.1 -2.3
v 1.6 2.1 -2.4
v 1.7 2.1 -2.4
v 1.8 2.1 -2.4
v 1.9 2.1 -2.4
v 2 2.1 -2.4
v 2.3 2.1 -2.4
v 2.4 2.1 -2.4
v 2.5 2.1 -2.4
v 1.7 2.1 -2.5
v 1.8 2.1 -2.5
v 1.9 2.1 -2.5
v 2 2.1 -2.5
v 2.2 2.1 -2.5
v 2.4 2.1 -2.5
v 1.8 2.1 -2.6
v 1.9 2.1 -2.6
v 2 2.1 -2.6
v 2.2 2.1 -2.6
v 1.8 2.2 -1.6
v 2.3 2.2 -1.6
v 1.7 2.2 -1.7
v 1.8 2.2 -1.7
v 1.9 2.2 -1.7
v 2.2 2.2 -1.7
v 2.3 2.2 -1.7
v 2.4 2.2 -1.7
v 1.6 2.2 -1.8
v 1.7 2.2 -1.8
v 1.8 2.2 -1.8
v 1.9 2.2 -1.8
v 2.2 2.2 -1.8
v 2.3 2.2 -1.8
v 2.4 2.2 -1.8
v 2.5 2.2 -1.8
v 2.3 2.2 -1.9
v 2.4 2.2 -1.9
v 2.3 2.2 -2
v 2.4 2.2 -2
v 2.5 2.2 -2
v 2.3 2.2 -2.1
v 2.4 2.2 -2.1
v 2.5 2.2 -2.1
v 2.3 2.2 -2.2
v 2.4 2.2 -2.2
v 2.5 2.2 -2.2
v 1.6 2.2 -2.3
v 1.7 2.2 -2.3
v 1.8 2.2 -2.3
v 2 2.2 -2.3
v 2.3 2.2 -2.3
v 1.7 2.2 -2.4
v 1.8 2.2 -2.4
v 1.9 2.2 -2.4
v 2 2.2 -2.4
v 2.2 2.2 -2.4
v 2.3 2.2 -2.4
v 2.4 2.2 -2.4
v 1.8 2.2 -2.5
v 1.9 2.2 -2.5
v 2 2.2 -2.5
v 2.2 2.2 -2.5
v 1.9 2.3 -1.7
v 2.2 2.3 -1.7
v 1.8 2.3 -1.8
v 1.9 2.3 -1.8
v 2.2 2.3 -1.8
v 2.3 2.3 -1.8
v 1.8 2.3 -1.9
v 1.9 2.3 -1.9
v 2.2 2.3 -1.9
v 2.3 2.3 -1.9
v 2.4 2.3 -1.9
v 2.3 2.3 -2
v 2.4 2.3 -2
v 2.3 2.3 -2.1
v 2.4 2.3 -2.1
v 1.8 2.3 -2.2
v 1.9 2.3 -2.2
v 2.2 2.3 -2.2
v 2.3 2.3 -2.2
v 2.4 2.3 -2.2
v 1.8 2.3 -2.3
v 1.9 2.3 -2.3
v 2 2.3 -2.3
v 2.2 2.3 -2.3
v 2.3 2.3 -2.3
v 2 2.3 -2.4
v 2.2 2.3 -2.4
v 1.8 2.5 -1.9
v 1.9 2.5 -1.9
v 1.8 2.5 -2
v 1.9 2.5 -2
v 2.1 2.5 -2.2
v 2.2 2.5 -2.2
v 2.1 2.5 -2.3
v 2.2 2.5 -2.3
v 1.9 2.6 -1.8
v 2 2.6 -1.8
v 1.9 2.6 -1.9
v 2 2.6 -1.9
v 2 2.6 -2.2
v 2.1 2.6 -2.2
v 2 2.6 -2.3
v 2.1 2.6 -2.3
v 2.3 2.8 -2
v 2.4 2.8 -2
v 1.8 2.8 -2.1
v 1.9 2.8 -2.1
v 2.3 2.8 -2.1
v 2.4 2.8 -2.1
v 1.8 2.8 -2.2
v 1.9 2.8 -2.2
v 2 2.9 -1.8
v 2.1 2.9 -1.8
v 2 2.9 -1.9
v 2.1 2.9 -1.9
v 2.4 2.9 -2
v 2.5 2.9 -2
v 2.2 2.9 -2.1
v 2.3 2.9 -2.1
v 2.4 2.9 -2.1
v 2.5 2.9 -2.1
v 2.2 2.9 -2.2
v 2.3 2.9 -2.2
v 2.1 3 -1.8
v 2.2 3 -1.8
v 2.1 3 -1.9
v 2.2 3 -1.9
v 1.9 3 -2.2
v 2 3 -2.2
v 1.9 3 -2.3
v 2 3 -2.3
v 2.2 3.1 -1.9
v 2.3 3.1 -1.9
v 1.8 3.1 -2.1
v 1.9 3.1 -2.1
v 2.2 3.1 -2.1
v 2.3 3.1 -2.1
v 1.8 3.1 -2.2
v 1.9 3.1 -2.2
v 1.8 3.2 -1.9
v 1.9 3.2 -1.9
v 1.8 3.2 -2
v 1.9 3.2 -2
v 1.9 3.3 -1.8
v 2.2 3.3 -1.8
v 1.9 3.3 -1.9
v 2.2 3.3 -1.9
v 2.3 3.3 -1.9
v 1.8 3.3 -2
v 1.9 3.3 -2
v 2.2 3.3 -2
v 2.3 3.3 -2
v 1.8 3.3 -2.1
v 1.9 3.3 -2.1
v 2.2 3.3 -2.1
v 2.3 3.3 -2.1
v 2 3.3 -2.2
v 2.2 3.3 -2.2
v 2.3 3.3 -2.2
v 2 3.3 -2.3
v 2.2 3.3 -2.3
v 2.1 3.5 -1.9
v 2.2 3.5 -1.9
v 2.1 3.5 -2
v 2.2 3.5 -2
v 2.1 3.6 -2.1
v 2.2 3.6 -2.1
v 2.1 3.6 -2.2
v 2.2 3.6 -2.2
v 1.8 3.7 -1.8
v 1.9 3.7 -1.8
v 2 3.7 -1.8
v 1.8 3.7 -1.9
v 1.9 3.7 -1.9
v 2 3.7 -1.9
v 2.1 3.7 -2
v 2.2 3.7 -2
v 1.9 3.7 -2.1
v 2.1 3.7 -2.1
v 2.2 3.7 -2.1
v 1.9 3.7 -2.2
v 2 3.7 -2.2
v 1.7 3.8 -1.7
v 1.8 3.8 -1.7
v 1.9 3.8 -1.7
v 1.7 3.8 -1.8
v 1.9 3.8 -1.8
v 2 3.8 -1.9
v 2.1 3.8 -1.9
v 2.1 3.8 -2
v 1.8 3.8 -2.1
v 1.9 3.8 -2.1
v 2.1 3.8 -2.1
v 1.8 3.8 -2.2
v 2 3.8 -2.2
v 2.1 3.8 -2.2
v 1.8 3.8 -2.3
v 1.9 3.8 -2.3
v 1.6 3.9 -1.6
v 1.7 3.9 -1.6
v 1.8 3.9 -1.6
v 1.6 3.9 -1.7
v 1.8 3.9 -1.7
v 2.1 3.9 -2.1
v 2.3 3.9 -2.1
v 1.7 3.9 -2.2
v 1.8 3.9 -2.2
v 2.1 3.9 -2.2
v 2.2 3.9 -2.2
v 2.3 3.9 -2.2
v 1.7 3.9 -2.3
v 2.2 3.9 -2.3
v 2.3 3.9 -2.3
v 1.7 3.9 -2.4
v 1.8 3.9 -2.4
v 1.4 4 -1.3
v 1.5 4 -1.3
v 1.4 4 -1.4
v 1.5 4 -1.4
v 1.6 4 -1.4
v 1.4 4 -1.5
v 1.5 4 -1.5
v 1.6 4 -1.5
v 1.7 4 -1.5
v 1.5 4 -1.6
v 1.7 4 -1.6
v 2.1 4 -1.9
v 2.2 4 -1.9
v 2.1 4 -2
v 2.2 4 -2
v 2.3 4 -2.2
v 2.4 4 -2.2
v 1.6 4 -2.3
v 1.7 4 -2.3
v 2.3 4 -2.3
v 2.4 4 -2.3
v 2.5 4 -2.3
v 1.6 4 -2.4
v 2.4 4 -2.4
v 2.5 4 -2.4
v 2.6 4 -2.4
v 1.6 4 -2.5
v 1.7 4 -2.5
v 2.5 4 -2.5
v 2.6 4 -2.5
v 1.1 4.1 -1.2
v 1.2 4.1 -1.2
v 1.4 4.1 -1.2
v 1.1 4.1 -1.3
v 1.3 4.1 -1.3
v 1.3 4.1 -1.4
v 1.4 4.1 -1.4
v 2.2 4.1 -1.9
v 2.3 4.1 -1.9
v 2.2 4.1 -2
v 2.3 4.1 -2
v 1.5 4.1 -2.4
v 1.6 4.1 -2.4
v 1.5 4.1 -2.5
v 2.5 4.1 -2.5
v 2.6 4.1 -2.5
v 1.5 4.1 -2.6
v 1.6 4.1 -2.6
v 2.6 4.1 -2.6
v 2.7 4.1 -2.6
v 2.5 4.1 -2.7
v 2.6 4.1 -2.7
v 2.7 4.1 -2.7
v 1 4.2 -1.1
v 1.2 4.2 -1.1
v 1 4.2 -1.2
v 1.2 4.2 -1.2
v 2.2 4.2 -1.8
v 2.3 4.2 -1.8
v 2.2 4.2 -1.9
v 2.3 4.2 -1.9
v 1.4 4.2 -2.5
v 1.5 4.2 -2.5
v 1.4 4.2 -2.6
v 1.4 4.2 -2.7
v 1.5 4.2 -2.7
v 2.6 4.2 -2.7
v 2.7 4.2 -2.7
v 2.6 4.2 -2.9
v 2.7 4.2 -2.9
v 2.3 4.3 -1.8
v 2.4 4.3 -1.8
v 2.3 4.3 -1.9
v 2.4 4.3 -1.9
v 1.3 4.3 -2.6
v 1.4 4.3 -2.6
v 1.2 4.3 -2.7
v 1.3 4.3 -2.7
v 1.3 4.3 -2.8
v 1.4 4.3 -2.8
v 1.2 4.3 -2.9
v 1.3 4.3 -2.9
v 2.3 4.5 -1.7
v 2.4 4.5 -1.7
v 2.3 4.5 -1.8
v 2.4 4.5 -1.8
v 2.4 4.6 -1.6
v 2.5 4.6 -1.6
v 2.4 4.6 -1.7
v 2.5 4.6 -1.7
v 2.6 4.7 -1.4
v 2.8 4.7 -1.4
v 2.5 4.7 -1.5
v 2.6 4.7 -1.5
v 2.7 4.7 -1.5
v 2.8 4.7 -1.5
v 2.6 4.7 -1.6
v 2.7 4.7 -1.6
v 2.5 4.7 -1.7
v 2.6 4.7 -1.7

# faces
f 3/1/1 2/1/1 1/1/1
f 4/1/1 2/1/1 3/1/1
f 7/1/1 6/1/1 5/1/1
f 8/1/1 6/1/1 7/1/1
f 9/1/1 6/1/1 8/1/1
f 12/1/1 11/1/1 10/1/1
f 13/1/1 11/1/1 12/1/1
f 16/1/1 15/1/1 14/1/1
f 17/1/1 15/1/1 16/1/1
f 18/1/1 15/1/1 17/1/1
f 21/1/1 20/1/1 19/1/1
f 22/1/1 21/1/1 19/1/1
f 23/1/1 21/1/1 22/1/1
f 26/1/1 25/1/1 24/1/1
f 27/1/1 25/1/1 26/1/1
f 30/1/1 29/1/1 28/1/1
f 31/1/1 30/1/1 28/1/1
f 32/1/1 30/1/1 31/1/1
f 35/1/1 34/1/1 33/1/1
f 36/1/1 34/1/1 35/1/1
f 41/1/1 38/1/1 37/1/1
f 42/1/1 38/1/1 41/1/1
f 43/1/1 40/1/1 39/1/1
f 44/1/1 43/1/1 39/1/1
f 45/1/1 43/1/1 44/1/1
f 50/1/1 47/1/1 46/1/1
f 51/1/1 47/1/1 50/1/1
f 52/1/1 47/1/1 51/1/1
f 53/1/1 49/1/1 48/1/1
f 54/1/1 49/1/1 53/1/1
f 55/1/1 49/1/1 54/1/1
f 56/1/1 52/1/1 51/1/1
f 56/1/1 54/1/1 53/1/1
f 56/1/1 53/1/1 52/1/1
f 57/1/1 54/1/1 56/1/1
f 62/1/1 59/1/1 58/1/1
f 63/1/1 59/1/1 62/1/1
f 64/1/1 59/1/1 63/1/1
f 65/1/1 61/1/1 60/1/1
f 66/1/1 65/1/1 60/1/1
f 67/1/1 65/1/1 66/1/1
f 72/1/1 69/1/1 68/1/1
f 73/1/1 69/1/1 72/1/1
f 76/1/1 71/1/1 70/1/1
f 77/1/1 71/1/1 76/1/1
f 78/1/1 74/1/1 73/1/1
f 79/1/1 74/1/1 78/1/1
f 80/1/1 76/1/1 75/1/1
f 81/1/1 76/1/1 80/1/1
f 86/1/1 83/1/1 82/1/1
f 87/1/1 83/1/1 86/1/1
f 88/1/1 83/1/1 87/1/1
f 89/1/1 85/1/1 84/1/1
f 90/1/1 89/1/1 84/1/1
f 91/1/1 89/1/1 90/1/1
f 96/1/1 93/1/1 92/1/1
f 97/1/1 93/1/1 96/1/1
f 100/1/1 95/1/1 94/1/1
f 101/1/1 95/1/1 100/1/1
f 102/1/1 98/1/1 97/1/1
f 103/1/1 98/1/1 102/1/1
f 106/1/1 100/1/1 99/1/1
f 107/1/1 100/1/1 106/1/1
f 108/1/1 105/1/1 104/1/1
f 109/1/1 105/1/1 108/1/1
f 110/1/1 105/1/1 109/1/1
f 111/1/1 105/1/1 110/1/1
f 112/1/1 110/1/1 109/1/1
f 113/1/1 110/1/1 112/1/1
f 115/1/1 110/1/1 113/1/1
f 116/1/1 110/1/1 115/1/1
f 116/1/1 115/1/1 114/1/1
f 117/1/1 110/1/1 116/1/1
f 118/1/1 116/1/1 114/1/1
f 120/1/1 118/1/1 114/1/1
f 120/1/1 119/1/1 118/1/1
f 121/1/1 119/1/1 120/1/1
f 122/1/1 120/1/1 114/1/1
f 123/1/1 120/1/1 122/1/1
f 124/1/1 120/1/1 123/1/1
f 125/1/1 120/1/1 124/1/1
f 130/1/1 127/1/1 126/1/1
f 131/1/1 127/1/1 130/1/1
f 132/1/1 127/1/1 131/1/1
f 133/1/1 129/1/1 128/1/1
f 134/1/1 133/1/1 128/1/1
f 135/1/1 133/1/1 134/1/1
f 138/1/1 137/1/1 136/1/1
f 139/1/1 137/1/1 138/1/1
f 143/1/1 140/1/1 139/1/1
f 145/1/1 143/1/1 139/1/1
f 145/1/1 144/1/1 143/1/1
f 146/1/1 144/1/1 145/1/1
f 147/1/1 144/1/1 146/1/1
f 148/1/1 144/1/1 147/1/1
f 150/1/1 142/1/1 141/1/1
f 153/1/1 150/1/1 149/1/1
f 154/1/1 142/1/1 150/1/1
f 154/1/1 150/1/1 153/1/1
f 155/1/1 142/1/1 154/1/1
f 156/1/1 142/1/1 155/1/1
f 159/1/1 152/1/1 151/1/1
f 161/1/1 159/1/1 151/1/1
f 161/1/1 160/1/1 159/1/1
f 162/1/1 160/1/1 161/1/1
f 163/1/1 160/1/1 162/1/1
f 164/1/1 158/1/1 157/1/1
f 165/1/1 163/1/1 162/1/1
f 165/1/1 164/1/1 163/1/1
f 166/1/1 158/1/1 164/1/1
f 166/1/1 164/1/1 165/1/1
f 167/1/1 158/1/1 166/1/1
f 168/1/1 166/1/1 165/1/1
f 169/1/1 166/1/1 168/1/1
f 173/1/1 171/1/1 170/1/1
f 174/1/1 171/1/1 173/1/1
f 176/1/1 173/1/1 172/1/1
f 177/1/1 173/1/1 176/1/1
f 178/1/1 176/1/1 175/1/1
f 179/1/1 176/1/1 178/1/1
f 182/1/1 181/1/1 180/1/1
f 183/1/1 181/1/1 182/1/1
f 186/1/1 185/1/1 184/1/1
f 187/1/1 185/1/1 186/1/1
f 190/1/1 189/1/1 188/1/1
f 191/1/1 189/1/1 190/1/1
f 196/1/1 193/1/1 192/1/1
f 197/1/1 195/1/1 194/1/1
f 198/1/1 195/1/1 197/1/1
f 199/1/1 193/1/1 196/1/1
f 200/1/1 193/1/1 199/1/1
f 205/1/1 204/1/1 203/1/1
f 206/1/1 204/1/1 205/1/1
f 207/1/1 202/1/1 201/1/1
f 208/1/1 202/1/1 207/1/1
f 211/1/1 210/1/1 209/1/1
f 212/1/1 210/1/1 211/1/1
f 216/1/1 214/1/1 213/1/1
f 216/1/1 215/1/1 214/1/1
f 217/1/1 215/1/1 216/1/1
f 218/1/1 216/1/1 213/1/1
f 219/1/1 216/1/1 218/1/1
f 222/1/1 221/1/1 220/1/1
f 223/1/1 221/1/1 222/1/1
f 226/1/1 225/1/1 224/1/1
f 227/1/1 225/1/1 226/1/1
f 231/1/1 229/1/1 228/1/1
f 231/1/1 230/1/1 229/1/1
f 232/1/1 230/1/1 231/1/1
f 233/1/1 231/1/1 228/1/1
f 234/1/1 231/1/1 233/1/1
f 237/1/1 236/1/1 235/1/1
f 238/1/1 236/1/1 237/1/1
f 241/1/1 240/1/1 239/1/1
f 242/1/1 240/1/1 241/1/1
f 245/1/1 244/1/1 243/1/1
f 246/1/1 245/1/1 243/1/1
f 247/1/1 245/1/1 246/1/1
f 250/1/1 249/1/1 248/1/1
f 251/1/1 249/1/1 250/1/1
f 252/1/1 249/1/1 251/1/1
f 254/1/1 253/1/1 252/1/1
f 254/1/1 252/1/1 251/1/1
f 255/1/1 253/1/1 254/1/1
f 259/1/1 257/1/1 256/1/1
f 259/1/1 258/1/1 257/1/1
f 260/1/1 258/1/1 259/1/1
f 263/1/1 262/1/1 261/1/1
f 264/1/1 262/1/1 263/1/1
f 266/1/1 264/1/1 263/1/1
f 266/1/1 265/1/1 264/1/1
f 267/1/1 265/1/1 266/1/1
f 270/1/1 269/1/1 268/1/1
f 271/1/1 269/1/1 270/1/1
f 272/1/2 273/1/2 274/1/2
f 272/1/2 274/1/2 275/1/2
f 275/1/2 274/1/2 276/1/2
f 277/1/2 278/1/2 279/1/2
f 279/1/2 278/1/2 280/1/2
f 281/1/2 282/1/2 284/1/2
f 282/1/2 283/1/2 284/1/2
f 284/1/2 283/1/2 285/1/2
f 286/1/2 287/1/2 289/1/2
f 287/1/2 288/1/2 289/1/2
f 289/1/2 288/1/2 290/1/2
f 291/1/2 292/1/2 293/1/2
f 293/1/2 292/1/2 294/1/2
f 295/1/2 296/1/2 298/1/2
f 296/1/2 297/1/2 298/1/2
f 298/1/2 297/1/2 299/1/2
f 300/1/2 301/1/2 302/1/2
f 302/1/2 301/1/2 303/1/2
f 305/1/2 306/1/2 307/1/2
f 304/1/2 305/1/2 307/1/2
f 307/1/2 306/1/2 308/1/2
f 309/1/2 310/1/2 311/1/2
f 309/1/2 311/1/2 315/1/2
f 315/1/2 311/1/2 316/1/2
f 313/1/2 314/1/2 317/1/2
f 312/1/2 313/1/2 317/1/2
f 317/1/2 314/1/2 318/1/2
f 319/1/2 320/1/2 321/1/2
f 319/1/2 321/1/2 325/1/2
f 325/1/2 321/1/2 326/1/2
f 323/1/2 324/1/2 327/1/2
f 322/1/2 323/1/2 327/1/2
f 327/1/2 324/1/2 328/1/2
f 329/1/2 330/1/2 332/1/2
f 332/1/2 330/1/2 333/1/2
f 331/1/2 332/1/2 334/1/2
f 334/1/2 332/1/2 335/1/2
f 336/1/2 337/1/2 338/1/2
f 336/1/2 338/1/2 342/1/2
f 342/1/2 338/1/2 343/1/2
f 340/1/2 341/1/2 344/1/2
f 339/1/2 340/1/2 344/1/2
f 344/1/2 341/1/2 345/1/2
f 346/1/2 347/1/2 350/1/2
f 348/1/2 349/1/2 351/1/2
f 351/1/2 349/1/2 352/1/2
f 350/1/2 347/1/2 353/1/2
f 353/1/2 347/1/2 354/1/2
f 355/1/2 356/1/2 357/1/2
f 357/1/2 356/1/2 358/1/2
f 359/1/2 360/1/2 361/1/2
f 361/1/2 360/1/2 362/1/2
f 363/1/2 364/1/2 365/1/2
f 365/1/2 364/1/2 366/1/2
f 367/1/2 368/1/2 371/1/2
f 369/1/2 370/1/2 372/1/2
f 367/1/2 371/1/2 373/1/2
f 371/1/2 372/1/2 373/1/2
f 373/1/2 372/1/2 374/1/2
f 372/1/2 370/1/2 375/1/2
f 374/1/2 372/1/2 375/1/2
f 375/1/2 370/1/2 376/1/2
f 377/1/2 378/1/2 380/1/2
f 380/1/2 378/1/2 381/1/2
f 379/1/2 380/1/2 384/1/2
f 384/1/2 380/1/2 385/1/2
f 382/1/2 383/1/2 386/1/2
f 386/1/2 383/1/2 387/1/2
f 379/1/2 384/1/2 390/1/2
f 390/1/2 384/1/2 391/1/2
f 389/1/2 390/1/2 392/1/2
f 392/1/2 390/1/2 393/1/2
f 394/1/2 395/1/2 397/1/2
f 387/1/2 388/1/2 398/1/2
f 398/1/2 388/1/2 399/1/2
f 396/1/2 397/1/2 402/1/2
f 397/1/2 395/1/2 403/1/2
f 402/1/2 397/1/2 403/1/2
f 400/1/2 401/1/2 404/1/2
f 401/1/2 402/1/2 404/1/2
f 404/1/2 402/1/2 405/1/2
f 400/1/2 404/1/2 406/1/2
f 406/1/2 404/1/2 407/1/2
f 405/1/2 402/1/2 408/1/2
f 408/1/2 402/1/2 409/1/2
f 403/1/2 395/1/2 410/1/2
f 410/1/2 395/1/2 411/1/2
f 408/1/2 409/1/2 412/1/2
f 409/1/2 410/1/2 412/1/2
f 407/1/2 408/1/2 412/1/2
f 412/1/2 410/1/2 413/1/2
f 413/1/2 410/1/2 414/1/2
f 414/1/2 410/1/2 415/1/2
f 413/1/2 414/1/2 416/1/2
f 416/1/2 414/1/2 417/1/2
f 418/1/2 419/1/2 420/1/2
f 420/1/2 419/1/2 421/1/2
f 422/1/2 423/1/2 424/1/2
f 424/1/2 423/1/2 425/1/2
f 425/1/2 426/1/2 427/1/2
f 427/1/2 426/1/2 428/1/2
f 429/1/2 430/1/2 435/1/2
f 435/1/2 430/1/2 436/1/2
f 431/1/2 432/1/2 437/1/2
f 437/1/2 432/1/2 438/1/2
f 433/1/2 434/1/2 439/1/2
f 439/1/2 434/1/2 440/1/2
f 437/1/2 438/1/2 441/1/2
f 438/1/2 439/1/2 441/1/2
f 436/1/2 437/1/2 441/1/2
f 441/1/2 439/1/2 442/1/2
f 436/1/2 441/1/2 443/1/2
f 442/1/2 439/1/2 444/1/2
f 444/1/2 439/1/2 445/1/2
f 443/1/2 444/1/2 445/1/2
f 445/1/2 439/1/2 446/1/2
f 436/1/2 443/1/2 447/1/2
f 443/1/2 445/1/2 447/1/2
f 447/1/2 445/1/2 448/1/2
f 450/1/2 451/1/2 452/1/2
f 452/1/2 451/1/2 453/1/2
f 448/1/2 449/1/2 454/1/2
f 454/1/2 449/1/2 455/1/2
f 456/1/2 457/1/2 460/1/2
f 460/1/2 457/1/2 461/1/2
f 458/1/2 459/1/2 463/1/2
f 462/1/2 463/1/2 464/1/2
f 463/1/2 459/1/2 465/1/2
f 464/1/2 463/1/2 465/1/2
f 465/1/2 459/1/2 466/1/2
f 467/1/2 468/1/2 471/1/2
f 471/1/2 468/1/2 472/1/2
f 469/1/2 470/1/2 477/1/2
f 477/1/2 470/1/2 478/1/2
f 472/1/2 473/1/2 479/1/2
f 479/1/2 473/1/2 480/1/2
f 474/1/2 475/1/2 482/1/2
f 482/1/2 475/1/2 483/1/2
f 476/1/2 477/1/2 484/1/2
f 484/1/2 477/1/2 485/1/2
f 481/1/2 482/1/2 486/1/2
f 486/1/2 482/1/2 487/1/2
f 483/1/2 484/1/2 488/1/2
f 488/1/2 484/1/2 489/1/2
f 490/1/2 491/1/2 492/1/2
f 492/1/2 491/1/2 493/1/2
f 494/1/2 495/1/2 496/1/2
f 494/1/2 496/1/2 497/1/2
f 497/1/2 496/1/2 498/1/2
f 499/1/2 500/1/2 502/1/2
f 502/1/2 500/1/2 503/1/2
f 501/1/2 502/1/2 503/1/2
f 503/1/2 500/1/2 504/1/2
f 501/1/2 503/1/2 505/1/2
f 505/1/2 503/1/2 506/1/2
f 506/1/2 503/1/2 507/1/2
f 508/1/2 509/1/2 512/1/2
f 512/1/2 509/1/2 513/1/2
f 510/1/2 511/1/2 516/1/2
f 516/1/2 511/1/2 517/1/2
f 513/1/2 514/1/2 518/1/2
f 518/1/2 514/1/2 519/1/2
f 515/1/2 516/1/2 520/1/2
f 520/1/2 516/1/2 521/1/2
f 522/1/2 523/1/2 524/1/2
f 524/1/2 523/1/2 525/1/2
f 526/1/2 527/1/2 528/1/2
f 528/1/2 527/1/2 529/1/2
f 530/1/2 531/1/2 532/1/2
f 532/1/2 531/1/2 533/1/2
f 534/1/2 535/1/2 536/1/2
f 536/1/2 535/1/2 537/1/2
f 538/1/2 539/1/2 540/1/2
f 540/1/2 539/1/2 541/1/2
f 541/1/2 539/1/2 542/1/2
f 541/1/2 542/1/2 543/1/2
f 543/1/2 542/1/2 544/1/2
f 545/1/2 546/1/2 547/1/2
f 547/1/2 546/1/2 548/1/2
f 548/1/2 546/1/2 549/1/2
f 550/1/2 551/1/2 552/1/2
f 552/1/2 551/1/2 553/1/2
f 553/1/2 551/1/2 554/1/2
f 554/1/2 555/1/2 556/1/2
f 553/1/2 554/1/2 556/1/2
f 556/1/2 555/1/2 557/1/2
f 558/1/2 559/1/2 560/1/2
f 560/1/2 559/1/2 561/1/2
f 562/1/2 563/1/2 564/1/2
f 564/1/2 563/1/2 565/1/2
f 569/1/3 567/1/3 566/1/3
f 570/1/3 569/1/3 568/1/3
f 571/1/3 567/1/3 569/1/3
f 571/1/3 569/1/3 570/1/3
f 574/1/3 573/1/3 572/1/3
f 575/1/3 573/1/3 574/1/3
f 578/1/3 577/1/3 576/1/3
f 579/1/3 578/1/3 576/1/3
f 580/1/3 578/1/3 579/1/3
f 583/1/3 582/1/3 581/1/3
f 584/1/3 582/1/3 583/1/3
f 587/1/3 586/1/3 585/1/3
f 588/1/3 586/1/3 587/1/3
f 592/1/3 590/1/3 589/1/3
f 592/1/3 591/1/3 590/1/3
f 593/1/3 591/1/3 592/1/3
f 596/1/3 595/1/3 594/1/3
f 597/1/3 595/1/3 596/1/3
f 600/1/3 599/1/3 598/1/3
f 601/1/3 599/1/3 600/1/3
f 607/1/3 603/1/3 602/1/3
f 608/1/3 603/1/3 607/1/3
f 610/1/3 606/1/3 605/1/3
f 610/1/3 605/1/3 604/1/3
f 611/1/3 606/1/3 610/1/3
f 613/1/3 609/1/3 608/1/3
f 614/1/3 609/1/3 613/1/3
f 615/1/3 613/1/3 612/1/3
f 616/1/3 613/1/3 615/1/3
f 619/1/3 618/1/3 617/1/3
f 620/1/3 618/1/3 619/1/3
f 621/1/3 618/1/3 620/1/3
f 622/1/3 621/1/3 620/1/3
f 623/1/3 621/1/3 622/1/3
f 626/1/3 625/1/3 624/1/3
f 627/1/3 625/1/3 626/1/3
f 629/1/3 628/1/3 627/1/3
f 630/1/3 628/1/3 629/1/3
f 636/1/3 633/1/3 632/1/3
f 636/1/3 632/1/3 631/1/3
f 637/1/3 633/1/3 636/1/3
f 638/1/3 635/1/3 634/1/3
f 639/1/3 635/1/3 638/1/3
f 645/1/3 641/1/3 640/1/3
f 646/1/3 641/1/3 645/1/3
f 647/1/3 643/1/3 642/1/3
f 648/1/3 643/1/3 647/1/3
f 649/1/3 643/1/3 648/1/3
f 650/1/3 645/1/3 644/1/3
f 651/1/3 645/1/3 650/1/3
f 654/1/3 653/1/3 652/1/3
f 655/1/3 653/1/3 654/1/3
f 658/1/3 657/1/3 656/1/3
f 659/1/3 657/1/3 658/1/3
f 665/1/3 660/1/3 659/1/3
f 666/1/3 662/1/3 661/1/3
f 667/1/3 662/1/3 666/1/3
f 668/1/3 664/1/3 663/1/3
f 669/1/3 664/1/3 668/1/3
f 670/1/3 666/1/3 665/1/3
f 671/1/3 662/1/3 667/1/3
f 672/1/3 662/1/3 671/1/3
f 674/1/3 670/1/3 665/1/3
f 674/1/3 665/1/3 659/1/3
f 674/1/3 671/1/3 670/1/3
f 675/1/3 671/1/3 674/1/3
f 676/1/3 662/1/3 672/1/3
f 677/1/3 662/1/3 676/1/3
f 680/1/3 674/1/3 673/1/3
f 681/1/3 674/1/3 680/1/3
f 682/1/3 679/1/3 678/1/3
f 683/1/3 679/1/3 682/1/3
f 684/1/3 679/1/3 683/1/3
f 687/1/3 684/1/3 683/1/3
f 688/1/3 684/1/3 687/1/3
f 690/1/3 686/1/3 685/1/3
f 691/1/3 686/1/3 690/1/3
f 692/1/3 690/1/3 689/1/3
f 693/1/3 690/1/3 692/1/3
f 696/1/3 695/1/3 694/1/3
f 697/1/3 695/1/3 696/1/3
f 702/1/3 699/1/3 698/1/3
f 703/1/3 699/1/3 702/1/3
f 705/1/3 701/1/3 700/1/3
f 706/1/3 701/1/3 705/1/3
f 707/1/3 701/1/3 706/1/3
f 710/1/3 705/1/3 704/1/3
f 710/1/3 706/1/3 705/1/3
f 711/1/3 706/1/3 710/1/3
f 713/1/3 709/1/3 708/1/3
f 716/1/3 712/1/3 711/1/3
f 717/1/3 712/1/3 716/1/3
f 719/1/3 715/1/3 714/1/3
f 719/1/3 714/1/3 713/1/3
f 719/1/3 713/1/3 708/1/3
f 720/1/3 715/1/3 719/1/3
f 723/1/3 718/1/3 717/1/3
f 724/1/3 718/1/3 723/1/3
f 726/1/3 719/1/3 708/1/3
f 727/1/3 719/1/3 726/1/3
f 728/1/3 721/1/3 720/1/3
f 729/1/3 721/1/3 728/1/3
f 730/1/3 721/1/3 729/1/3
f 732/1/3 724/1/3 723/1/3
f 732/1/3 723/1/3 722/1/3
f 733/1/3 724/1/3 732/1/3
f 734/1/3 726/1/3 725/1/3
f 735/1/3 726/1/3 734/1/3
f 736/1/3 730/1/3 729/1/3
f 737/1/3 730/1/3 736/1/3
f 738/1/3 732/1/3 731/1/3
f 739/1/3 732/1/3 738/1/3
f 744/1/3 741/1/3 740/1/3
f 745/1/3 741/1/3 744/1/3
f 746/1/3 743/1/3 742/1/3
f 747/1/3 743/1/3 746/1/3
f 750/1/3 749/1/3 748/1/3
f 751/1/3 749/1/3 750/1/3
f 754/1/3 753/1/3 752/1/3
f 755/1/3 753/1/3 754/1/3
f 757/1/3 756/1/3 755/1/3
f 758/1/3 756/1/3 757/1/3
f 761/1/3 760/1/3 759/1/3
f 762/1/3 760/1/3 761/1/3
f 763/1/3 760/1/3 762/1/3
f 770/1/3 767/1/3 766/1/3
f 771/1/3 767/1/3 770/1/3
f 772/1/3 765/1/3 764/1/3
f 773/1/3 765/1/3 772/1/3
f 775/1/3 769/1/3 768/1/3
f 776/1/3 769/1/3 775/1/3
f 777/1/3 775/1/3 774/1/3
f 778/1/3 775/1/3 777/1/3
f 781/1/3 780/1/3 779/1/3
f 782/1/3 780/1/3 781/1/3
f 783/1/3 780/1/3 782/1/3
f 787/1/3 785/1/3 784/1/3
f 787/1/3 786/1/3 785/1/3
f 788/1/3 786/1/3 787/1/3
f 791/1/3 790/1/3 789/1/3
f 792/1/3 790/1/3 791/1/3
f 793/1/3 790/1/3 792/1/3
f 796/1/3 795/1/3 794/1/3
f 797/1/3 795/1/3 796/1/3
f 800/1/3 799/1/3 798/1/3
f 801/1/3 799/1/3 800/1/3
f 802/1/3 799/1/3 801/1/3
f 805/1/3 804/1/3 803/1/3
f 806/1/3 804/1/3 805/1/3
f 809/1/3 808/1/3 807/1/3
f 810/1/3 808/1/3 809/1/3
f 811/1/3 808/1/3 810/1/3
f 814/1/3 813/1/3 812/1/3
f 815/1/3 813/1/3 814/1/3
f 818/1/3 817/1/3 816/1/3
f 819/1/3 817/1/3 818/1/3
f 820/1/3 817/1/3 819/1/3
f 823/1/3 822/1/3 821/1/3
f 824/1/3 822/1/3 823/1/3
f 827/1/3 826/1/3 825/1/3
f 828/1/3 826/1/3 827/1/3
f 831/1/3 830/1/3 829/1/3
f 832/1/3 830/1/3 831/1/3
f 833/1/4 834/1/4 835/1/4
f 835/1/4 834/1/4 836/1/4
f 836/1/4 834/1/4 837/1/4
f 838/1/4 839/1/4 840/1/4
f 840/1/4 839/1/4 841/1/4
f 842/1/4 843/1/4 844/1/4
f 844/1/4 843/1/4 845/1/4
f 845/1/4 843/1/4 846/1/4
f 847/1/4 848/1/4 849/1/4
f 849/1/4 848/1/4 850/1/4
f 851/1/4 852/1/4 853/1/4
f 853/1/4 852/1/4 854/1/4
f 855/1/4 856/1/4 857/1/4
f 857/1/4 856/1/4 858/1/4
f 858/1/4 856/1/4 859/1/4
f 860/1/4 861/1/4 862/1/4
f 862/1/4 861/1/4 863/1/4
f 864/1/4 865/1/4 866/1/4
f 866/1/4 865/1/4 867/1/4
f 867/1/4 865/1/4 868/1/4
f 869/1/4 870/1/4 872/1/4
f 870/1/4 871/1/4 872/1/4
f 872/1/4 871/1/4 873/1/4
f 873/1/4 871/1/4 874/1/4
f 874/1/4 875/1/4 876/1/4
f 873/1/4 874/1/4 876/1/4
f 876/1/4 875/1/4 877/1/4
f 878/1/4 879/1/4 880/1/4
f 880/1/4 879/1/4 881/1/4
f 881/1/4 879/1/4 882/1/4
f 883/1/4 884/1/4 885/1/4
f 885/1/4 884/1/4 886/1/4
f 887/1/4 888/1/4 889/1/4
f 889/1/4 888/1/4 890/1/4
f 891/1/4 892/1/4 893/1/4
f 893/1/4 892/1/4 894/1/4
f 893/1/4 894/1/4 896/1/4
f 894/1/4 895/1/4 896/1/4
f 896/1/4 895/1/4 897/1/4
f 898/1/4 899/1/4 902/1/4
f 902/1/4 899/1/4 903/1/4
f 903/1/4 899/1/4 904/1/4
f 900/1/4 901/1/4 908/1/4
f 908/1/4 901/1/4 909/1/4
f 904/1/4 905/1/4 910/1/4
f 903/1/4 904/1/4 910/1/4
f 910/1/4 905/1/4 911/1/4
f 906/1/4 907/1/4 913/1/4
f 913/1/4 907/1/4 914/1/4
f 912/1/4 913/1/4 915/1/4
f 915/1/4 913/1/4 916/1/4
f 917/1/4 918/1/4 921/1/4
f 921/1/4 918/1/4 922/1/4
f 919/1/4 920/1/4 923/1/4
f 923/1/4 920/1/4 924/1/4
f 925/1/4 926/1/4 929/1/4
f 929/1/4 926/1/4 930/1/4
f 927/1/4 928/1/4 933/1/4
f 933/1/4 928/1/4 934/1/4
f 931/1/4 932/1/4 935/1/4
f 935/1/4 932/1/4 936/1/4
f 936/1/4 937/1/4 938/1/4
f 938/1/4 937/1/4 939/1/4
f 940/1/4 941/1/4 942/1/4
f 942/1/4 941/1/4 943/1/4
f 944/1/4 945/1/4 950/1/4
f 950/1/4 945/1/4 951/1/4
f 946/1/4 947/1/4 952/1/4
f 952/1/4 947/1/4 953/1/4
f 953/1/4 947/1/4 954/1/4
f 948/1/4 949/1/4 955/1/4
f 955/1/4 949/1/4 956/1/4
f 953/1/4 954/1/4 959/1/4
f 955/1/4 956/1/4 959/1/4
f 954/1/4 955/1/4 959/1/4
f 959/1/4 956/1/4 960/1/4
f 960/1/4 956/1/4 961/1/4
f 957/2/4 958/2/4 964/2/4
f 964/2/4 958/2/4 965/2/4
f 958/1/4 959/1/4 966/1/4
f 965/2/4 958/2/4 966/2/4
f 966/1/4 959/1/4 967/1/4
f 961/1/4 962/1/4 968/1/4
f 960/1/4 961/1/4 968/1/4
f 968/1/4 962/1/4 969/1/4
f 964/1/4 965/1/4 972/1/4
f 963/1/4 964/1/4 972/1/4
f 972/1/4 965/1/4 973/1/4
f 960/1/4 968/1/4 976/1/4
f 976/1/4 968/1/4 977/1/4
f 969/1/4 970/1/4 978/1/4
f 978/1/4 970/1/4 979/1/4
f 973/1/4 974/1/4 981/1/4
f 971/1/4 972/1/4 981/1/4
f 972/1/4 973/1/4 981/1/4
f 981/1/4 974/1/4 982/1/4
f 975/1/4 976/1/4 983/1/4
f 983/1/4 976/1/4 984/1/4
f 980/1/4 981/1/4 986/1/4
f 986/1/4 981/1/4 987/1/4
f 985/1/4 986/1/4 989/1/4
f 989/1/4 986/1/4 990/1/4
f 988/1/4 989/1/4 991/1/4
f 991/1/4 989/1/4 992/1/4
f 993/1/4 994/1/4 995/1/4
f 995/1/4 994/1/4 996/1/4
f 997/1/4 998/1/4 1001/1/4
f 999/1/4 1000/1/4 1002/1/4
f 997/1/4 1001/1/4 1004/1/4
f 1004/1/4 1001/1/4 1005/1/4
f 1002/1/4 1003/1/4 1006/1/4
f 999/1/4 1002/1/4 1006/1/4
f 1006/1/4 1003/1/4 1007/1/4
f 1007/1/4 1003/1/4 1008/1/4
f 1008/1/4 1003/1/4 1009/1/4
f 1007/1/4 1008/1/4 1011/1/4
f 1011/1/4 1008/1/4 1012/1/4
f 1009/1/4 1010/1/4 1014/1/4
f 1007/1/4 1011/1/4 1016/1/4
f 1016/1/4 1011/1/4 1017/1/4
f 1013/1/4 1014/1/4 1018/1/4
f 1014/1/4 1010/1/4 1019/1/4
f 1018/1/4 1014/1/4 1019/1/4
f 1015/1/4 1016/1/4 1022/1/4
f 1022/1/4 1016/1/4 1023/1/4
f 1023/1/4 1016/1/4 1024/1/4
f 1020/1/4 1021/1/4 1025/1/4
f 1025/1/4 1026/1/4 1027/1/4
f 1020/1/4 1025/1/4 1027/1/4
f 1027/1/4 1026/1/4 1028/1/4
f 1028/1/4 1026/1/4 1029/1/4
f 1030/1/4 1031/1/4 1034/1/4
f 1034/1/4 1031/1/4 1035/1/4
f 1032/1/4 1033/1/4 1037/1/4
f 1035/1/4 1036/1/4 1038/1/4
f 1038/1/4 1036/1/4 1039/1/4
f 1032/1/4 1037/1/4 1040/1/4
f 1040/1/4 1037/1/4 1041/1/4
f 1042/1/4 1043/1/4 1044/1/4
f 1044/1/4 1043/1/4 1045/1/4
f 1045/1/4 1046/1/4 1047/1/4
f 1047/1/4 1046/1/4 1048/1/4
f 1049/1/4 1050/1/4 1052/1/4
f 1052/1/4 1050/1/4 1053/1/4
f 1051/1/4 1052/1/4 1056/1/4
f 1056/1/4 1052/1/4 1057/1/4
f 1054/1/4 1055/1/4 1058/1/4
f 1058/1/4 1055/1/4 1059/1/4
f 1060/1/4 1061/1/4 1062/1/4
f 1060/1/4 1062/1/4 1065/1/4
f 1065/1/4 1062/1/4 1066/1/4
f 1063/1/4 1064/1/4 1067/1/4
f 1067/1/4 1064/1/4 1068/1/4
f 1068/1/4 1069/1/4 1071/1/4
f 1071/1/4 1069/1/4 1072/1/4
f 1070/1/4 1071/1/4 1073/1/4
f 1073/1/4 1071/1/4 1074/1/4
f 1074/1/4 1075/1/4 1077/1/4
f 1077/1/4 1075/1/4 1078/1/4
f 1076/1/4 1077/1/4 1079/1/4
f 1079/1/4 1077/1/4 1080/1/4
f 1081/1/4 1082/1/4 1083/1/4
f 1081/1/4 1083/1/4 1084/1/4
f 1084/1/4 1083/1/4 1085/1/4
f 1086/1/4 1087/1/4 1088/1/4
f 1088/1/4 1087/1/4 1089/1/4
f 1090/1/4 1091/1/4 1092/1/4
f 1092/1/4 1091/1/4 1093/1/4
f 1094/1/4 1095/1/4 1096/1/4
f 1096/1/4 1095/1/4 1097/1/4
f 1098/1/4 1099/1/4 1100/1/4
f 1098/1/4 1100/1/4 1101/1/4
f 1101/1/4 1100/1/4 1102/1/4
f 1103/1/4 1104/1/4 1105/1/4
f 1105/1/4 1104/1/4 1106/1/4
f 1107/1/4 1108/1/4 1109/1/4
f 1109/1/4 1108/1/4 1110/1/4
f 1111/1/4 1112/1/4 1113/1/4
f 1113/1/4 1112/1/4 1114/1/4
f 1115/1/4 1116/1/4 1117/1/4
f 1117/1/4 1116/1/4 1118/1/4
f 1119/1/4 1120/1/4 1121/1/4
f 1121/1/4 1120/1/4 1122/1/4
f 1126/1/5 1124/1/5 1123/1/5
f 1127/1/5 1124/1/5 1126/1/5
f 1130/1/5 1126/1/5 1125/1/5
f 1130/1/5 1128/1/5 1127/1/5
f 1130/1/5 1127/1/5 1126/1/5
f 1131/1/5 1128/1/5 1130/1/5
f 1133/1/5 1130/1/5 1129/1/5
f 1133/1/5 1132/1/5 1131/1/5
f 1133/1/5 1131/1/5 1130/1/5
f 1136/1/5 1133/1/5 1129/1/5
f 1136/1/5 1134/1/5 1133/1/5
f 1137/1/5 1136/1/5 1135/1/5
f 1138/1/5 1134/1/5 1136/1/5
f 1138/1/5 1136/1/5 1137/1/5
f 1139/1/5 1134/1/5 1138/1/5
f 1140/1/5 1134/1/5 1139/1/5
f 1141/1/5 1139/1/5 1138/1/5
f 1142/1/5 1139/1/5 1141/1/5
f 1143/1/5 1139/1/5 1142/1/5
f 1144/1/5 1139/1/5 1143/1/5
f 1145/1/5 1143/1/5 1142/1/5
f 1146/1/5 1143/1/5 1145/1/5
f 1147/1/5 1143/1/5 1146/1/5
f 1148/1/5 1143/1/5 1147/1/5
f 1149/1/5 1143/1/5 1148/1/5
f 1150/1/5 1143/1/5 1149/1/5
f 1151/1/5 1147/1/5 1146/1/5
f 1152/1/5 1147/1/5 1151/1/5
f 1153/1/5 1149/1/5 1148/1/5
f 1154/1/5 1149/1/5 1153/1/5
f 1157/1/5 1156/1/5 1155/1/5
f 1158/1/5 1156/1/5 1157/1/5
f 1161/1/5 1160/1/5 1159/1/5
f 1162/1/5 1160/1/5 1161/1/5
f 1165/1/5 1164/1/5 1163/1/5
f 1166/1/5 1164/1/5 1165/1/5
f 1169/1/5 1168/1/5 1167/1/5
f 1170/1/5 1168/1/5 1169/1/5
f 1173/1/5 1172/1/5 1171/1/5
f 1174/1/5 1172/1/5 1173/1/5
f 1177/1/5 1176/1/5 1175/1/5
f 1178/1/5 1176/1/5 1177/1/5
f 1181/1/5 1180/1/5 1179/1/5
f 1182/1/5 1180/1/5 1181/1/5
f 1185/1/5 1184/1/5 1183/1/5
f 1186/1/5 1184/1/5 1185/1/5
f 1189/1/5 1188/1/5 1187/1/5
f 1190/1/5 1188/1/5 1189/1/5
f 1193/1/5 1192/1/5 1191/1/5
f 1194/1/5 1192/1/5 1193/1/5
f 1197/1/5 1196/1/5 1195/1/5
f 1198/1/5 1196/1/5 1197/1/5
f 1201/1/5 1200/1/5 1199/1/5
f 1203/1/5 1201/1/5 1199/1/5
f 1203/1/5 1202/1/5 1201/1/5
f 1204/1/5 1202/1/5 1203/1/5
f 1205/1/5 1202/1/5 1204/1/5
f 1208/1/5 1207/1/5 1206/1/5
f 1209/1/5 1207/1/5 1208/1/5
f 1212/1/5 1211/1/5 1210/1/5
f 1213/1/5 1212/1/5 1210/1/5
f 1214/1/5 1212/1/5 1213/1/5
f 1218/1/5 1216/1/5 1215/1/5
f 1218/1/5 1217/1/5 1216/1/5
f 1219/1/5 1217/1/5 1218/1/5
f 1222/1/5 1221/1/5 1220/1/5
f 1223/1/5 1222/1/5 1220/1/5
f 1224/1/5 1222/1/5 1223/1/5
f 1227/1/5 1226/1/5 1225/1/5
f 1228/1/5 1226/1/5 1227/1/5
f 1231/1/5 1230/1/5 1229/1/5
f 1232/1/5 1230/1/5 1231/1/5
f 1233/1/5 1230/1/5 1232/1/5
f 1238/1/5 1234/1/5 1233/1/5
f 1238/1/5 1233/1/5 1232/1/5
f 1239/1/5 1234/1/5 1238/1/5
f 1240/1/5 1237/1/5 1236/1/5
f 1240/1/5 1236/1/5 1235/1/5
f 1241/1/5 1237/1/5 1240/1/5
f 1244/1/5 1243/1/5 1242/1/5
f 1245/1/5 1243/1/5 1244/1/5
f 1246/1/5 1243/1/5 1245/1/5
f 1248/1/5 1247/1/5 1246/1/5
f 1248/1/5 1246/1/5 1245/1/5
f 1249/1/5 1247/1/5 1248/1/5
f 1250/1/5 1247/1/5 1249/1/5
f 1251/1/5 1250/1/5 1249/1/5
f 1252/1/5 1250/1/5 1251/1/5
f 1255/1/5 1254/1/5 1253/1/5
f 1256/1/5 1254/1/5 1255/1/5
f 1262/1/5 1258/1/5 1257/1/5
f 1263/1/5 1258/1/5 1262/1/5
f 1265/1/5 1261/1/5 1260/1/5
f 1265/1/5 1260/1/5 1259/1/5
f 1266/1/5 1261/1/5 1265/1/5
f 1267/1/5 1264/1/5 1263/1/5
f 1268/1/5 1264/1/5 1267/1/5
f 1271/1/5 1270/1/5 1269/1/5
f 1273/1/5 1271/1/5 1269/1/5
f 1273/1/5 1272/1/5 1271/1/5
f 1274/1/5 1272/1/5 1273/1/5
f 1275/1/5 1272/1/5 1274/1/5
f 1278/1/5 1277/1/5 1276/1/5
f 1279/1/5 1277/1/5 1278/1/5
f 1283/1/5 1281/1/5 1280/1/5
f 1283/1/5 1282/1/5 1281/1/5
f 1284/1/5 1282/1/5 1283/1/5
f 1288/1/5 1287/1/5 1286/1/5
f 1288/1/5 1286/1/5 1285/1/5
f 1289/1/5 1287/1/5 1288/1/5
f 1290/1/5 1287/1/5 1289/1/5
f 1291/1/5 1287/1/5 1290/1/5
f 1294/1/5 1293/1/5 1292/1/5
f 1295/1/5 1293/1/5 1294/1/5
f 1298/1/5 1297/1/5 1296/1/5
f 1299/1/5 1297/1/5 1298/1/5
f 1303/1/5 1301/1/5 1300/1/5
f 1303/1/5 1302/1/5 1301/1/5
f 1304/1/5 1302/1/5 1303/1/5
f 1307/1/5 1306/1/5 1305/1/5
f 1308/1/5 1306/1/5 1307/1/5
f 1311/1/5 1310/1/5 1309/1/5
f 1312/1/5 1310/1/5 1311/1/5
f 1316/1/5 1314/1/5 1313/1/5
f 1316/1/5 1315/1/5 1314/1/5
f 1317/1/5 1315/1/5 1316/1/5
f 1318/1/5 1316/1/5 1313/1/5
f 1319/1/5 1316/1/5 1318/1/5
f 1322/1/5 1321/1/5 1320/1/5
f 1323/1/5 1321/1/5 1322/1/5
f 1326/1/5 1325/1/5 1324/1/5
f 1327/1/5 1325/1/5 1326/1/5
f 1331/1/5 1329/1/5 1328/1/5
f 1332/1/5 1329/1/5 1331/1/5
f 1333/1/5 1329/1/5 1332/1/5
f 1334/1/5 1331/1/5 1330/1/5
f 1334/1/5 1332/1/5 1331/1/5
f 1335/1/5 1332/1/5 1334/1/5
f 1336/1/5 1332/1/5 1335/1/5
f 1337/1/6 1338/1/6 1340/1/6
f 1340/1/6 1338/1/6 1341/1/6
f 1339/1/6 1340/1/6 1344/1/6
f 1344/1/6 1340/1/6 1345/1/6
f 1341/1/6 1342/1/6 1346/1/6
f 1346/1/6 1342/1/6 1347/1/6
f 1343/1/6 1344/1/6 1349/1/6
f 1349/1/6 1344/1/6 1350/1/6
f 1347/1/6 1348/1/6 1351/1/6
f 1351/1/6 1348/1/6 1352/1/6
f 1352/1/6 1353/1/6 1357/1/6
f 1356/1/6 1357/1/6 1358/1/6
f 1357/1/6 1353/1/6 1359/1/6
f 1358/1/6 1357/1/6 1359/1/6
f 1354/1/6 1355/1/6 1360/1/6
f 1360/1/6 1355/1/6 1361/1/6
f 1359/1/6 1353/1/6 1363/1/6
f 1363/1/6 1353/1/6 1364/1/6
f 1365/1/6 1366/1/6 1369/1/6
f 1369/1/6 1366/1/6 1370/1/6
f 1367/1/6 1368/1/6 1374/1/6
f 1362/1/6 1363/1/6 1375/1/6
f 1375/1/6 1363/1/6 1376/1/6
f 1370/1/6 1371/1/6 1377/1/6
f 1377/1/6 1371/1/6 1378/1/6
f 1372/1/6 1373/1/6 1379/1/6
f 1379/1/6 1373/1/6 1380/1/6
f 1367/1/6 1374/1/6 1381/1/6
f 1374/1/6 1375/1/6 1381/1/6
f 1381/1/6 1375/1/6 1382/1/6
f 1378/1/6 1379/1/6 1383/1/6
f 1383/1/6 1379/1/6 1384/1/6
f 1380/1/6 1381/1/6 1385/1/6
f 1385/1/6 1381/1/6 1386/1/6
f 1387/1/6 1388/1/6 1390/1/6
f 1390/1/6 1388/1/6 1391/1/6
f 1391/1/6 1388/1/6 1392/1/6
f 1392/1/6 1388/1/6 1393/1/6
f 1389/1/6 1390/1/6 1396/1/6
f 1390/1/6 1391/1/6 1396/1/6
f 1396/1/6 1391/1/6 1397/1/6
f 1397/1/6 1391/1/6 1398/1/6
f 1392/1/6 1393/1/6 1399/1/6
f 1393/1/6 1394/1/6 1399/1/6
f 1399/1/6 1394/1/6 1400/1/6
f 1400/1/6 1394/1/6 1401/1/6
f 1401/1/6 1402/1/6 1403/1/6
f 1400/1/6 1401/1/6 1403/1/6
f 1403/1/6 1402/1/6 1404/1/6
f 1404/1/6 1402/1/6 1406/1/6
f 1406/1/6 1402/1/6 1407/1/6
f 1405/1/6 1406/1/6 1408/1/6
f 1408/1/6 1406/1/6 1409/1/6
f 1409/1/6 1410/1/6 1412/1/6
f 1412/1/6 1410/1/6 1413/1/6
f 1396/1/6 1397/1/6 1414/1/6
f 1395/1/6 1396/1/6 1414/1/6
f 1414/1/6 1397/1/6 1415/1/6
f 1415/1/6 1397/1/6 1416/1/6
f 1411/1/6 1412/1/6 1418/1/6
f 1416/1/6 1417/1/6 1419/1/6
f 1415/1/6 1416/1/6 1419/1/6
f 1419/1/6 1417/1/6 1420/1/6
f 1420/1/6 1417/1/6 1421/1/6
f 1421/1/6 1417/1/6 1422/1/6
f 1418/1/6 1412/1/6 1424/1/6
f 1424/1/6 1412/1/6 1425/1/6
f 1420/1/6 1421/1/6 1426/1/6
f 1426/1/6 1421/1/6 1427/1/6
f 1422/1/6 1423/1/6 1428/1/6
f 1428/1/6 1423/1/6 1429/1/6
f 1430/1/6 1431/1/6 1433/1/6
f 1433/1/6 1431/1/6 1434/1/6
f 1432/1/6 1433/1/6 1436/1/6
f 1436/1/6 1433/1/6 1437/1/6
f 1434/1/6 1435/1/6 1438/1/6
f 1438/1/6 1435/1/6 1439/1/6
f 1439/1/6 1440/1/6 1441/1/6
f 1441/1/6 1440/1/6 1442/1/6
f 1443/1/6 1444/1/6 1448/1/6
f 1448/1/6 1444/1/6 1449/1/6
f 1445/1/6 1446/1/6 1450/1/6
f 1450/1/6 1446/1/6 1451/1/6
f 1447/1/6 1448/1/6 1453/1/6
f 1453/1/6 1448/1/6 1454/1/6
f 1452/1/6 1453/1/6 1455/1/6
f 1455/1/6 1453/1/6 1456/1/6
f 1457/1/6 1458/1/6 1459/1/6
f 1459/1/6 1458/1/6 1460/1/6
f 1461/1/6 1462/1/6 1463/1/6
f 1463/1/6 1462/1/6 1464/1/6
f 1465/1/6 1466/1/6 1467/1/6
f 1467/1/6 1466/1/6 1468/1/6
f 1469/1/6 1470/1/6 1471/1/6
f 1471/1/6 1470/1/6 1472/1/6
f 1473/1/6 1474/1/6 1477/1/6
f 1477/1/6 1474/1/6 1478/1/6
f 1475/1/6 1476/1/6 1479/1/6
f 1479/1/6 1476/1/6 1480/1/6
f 1481/1/6 1482/1/6 1483/1/6
f 1483/1/6 1482/1/6 1484/1/6
f 1485/1/6 1486/1/6 1489/1/6
f 1489/1/6 1486/1/6 1490/1/6
f 1487/1/6 1488/1/6 1491/1/6
f 1491/1/6 1488/1/6 1492/1/6
f 1493/1/6 1494/1/6 1495/1/6
f 1495/1/6 1494/1/6 1496/1/6
f 1497/1/6 1498/1/6 1499/1/6
f 1499/1/6 1498/1/6 1500/1/6
f 1501/1/6 1502/1/6 1505/1/6
f 1505/1/6 1502/1/6 1506/1/6
f 1503/1/6 1504/1/6 1507/1/6
f 1507/1/6 1504/1/6 1508/1/6
f 1509/1/6 1510/1/6 1511/1/6
f 1511/1/6 1510/1/6 1512/1/6
f 1513/1/6 1514/1/6 1515/1/6
f 1515/1/6 1514/1/6 1516/1/6
f 1516/1/6 1517/1/6 1520/1/6
f 1520/1/6 1517/1/6 1521/1/6
f 1518/1/6 1519/1/6 1522/1/6
f 1522/1/6 1519/1/6 1523/1/6
f 1524/1/6 1525/1/6 1527/1/6
f 1527/1/6 1525/1/6 1528/1/6
f 1526/1/6 1527/1/6 1529/1/6
f 1529/1/6 1527/1/6 1530/1/6
f 1531/1/6 1532/1/6 1533/1/6
f 1533/1/6 1532/1/6 1534/1/6
f 1535/1/6 1536/1/6 1537/1/6
f 1537/1/6 1536/1/6 1538/1/6
f 1539/1/6 1540/1/6 1542/1/6
f 1540/1/6 1541/1/6 1542/1/6
f 1542/1/6 1541/1/6 1543/1/6
f 1543/1/6 1541/1/6 1544/1/6
f 1543/1/6 1544/1/6 1547/1/6
f 1545/1/6 1546/1/6 1548/1/6
f 1548/1/6 1546/1/6 1549/1/6
f 1547/1/6 1544/1/6 1550/1/6
f 1550/1/6 1544/1/6 1551/1/6
f 1552/1/6 1553/1/6 1555/1/6
f 1553/1/6 1554/1/6 1555/1/6
f 1555/1/6 1554/1/6 1556/1/6
f 1557/1/6 1558/1/6 1559/1/6
f 1557/1/6 1559/1/6 1562/1/6
f 1560/1/6 1561/1/6 1563/1/6
f 1557/1/6 1562/1/6 1564/1/6
f 1564/1/6 1562/1/6 1565/1/6
f 1563/1/6 1561/1/6 1566/1/6
f 1566/1/6 1561/1/6 1567/1/6
f 1568/1/6 1569/1/6 1571/1/6
f 1569/1/6 1570/1/6 1571/1/6
f 1571/1/6 1570/1/6 1572/1/6
f 1573/1/6 1574/1/6 1577/1/6
f 1577/1/6 1574/1/6 1578/1/6
f 1578/1/6 1574/1/6 1579/1/6
f 1575/1/6 1576/1/6 1580/1/6
f 1578/1/6 1579/1/6 1581/1/6
f 1581/1/6 1579/1/6 1582/1/6
f 1580/1/6 1576/1/6 1583/1/6
f 1583/1/6 1576/1/6 1584/1/6
f 1585/1/6 1586/1/6 1587/1/6
f 1587/1/6 1586/1/6 1588/1/6
f 1587/1/6 1588/1/6 1590/1/6
f 1588/1/6 1589/1/6 1590/1/6
f 1590/1/6 1589/1/6 1591/1/6
f 1591/1/6 1589/1/6 1592/1/6
f 1592/1/6 1593/1/6 1594/1/6
f 1591/1/6 1592/1/6 1594/1/6
f 1594/1/6 1593/1/6 1595/1/6
f 1596/1/6 1597/1/6 1598/1/6
f 1598/1/6 1597/1/6 1599/1/6
f 1600/1/6 1601/1/6 1604/1/6
f 1604/1/6 1601/1/6 1605/1/6
f 1602/1/6 1603/1/6 1607/1/6
f 1605/1/6 1606/1/6 1608/1/6
f 1608/1/6 1606/1/6 1609/1/6
f 1607/1/6 1603/1/6 1611/1/6
f 1611/1/6 1603/1/6 1612/1/6
f 1609/1/6 1610/1/6 1613/1/6
f 1613/1/6 1610/1/6 1614/1/6
f 1615/1/6 1616/1/6 1618/1/6
f 1616/1/6 1617/1/6 1618/1/6
f 1618/1/6 1617/1/6 1619/1/6
f 1619/1/6 1617/1/6 1620/1/6
f 1620/1/6 1617/1/6 1621/1/6
f 1622/1/6 1623/1/6 1624/1/6
f 1624/1/6 1623/1/6 1625/1/6
f 1626/1/6 1627/1/6 1628/1/6
f 1628/1/6 1627/1/6 1631/1/6
f 1631/1/6 1627/1/6 1632/1/6
f 1629/1/6 1630/1/6 1633/1/6
f 1633/1/6 1634/1/6 1635/1/6
f 1629/1/6 1633/1/6 1635/1/6
f 1635/1/6 1634/1/6 1636/1/6
f 1636/1/6 1634/1/6 1637/1/6
f 1638/1/6 1639/1/6 1640/1/6
f 1640/1/6 1639/1/6 1641/1/6
f 1642/1/6 1643/1/6 1644/1/6
f 1644/1/6 1643/1/6 1645/1/6
f 1646/1/6 1647/1/6 1648/1/6
f 1648/1/6 1647/1/6 1649/1/6
f 1649/1/6 1647/1/6 1650/1/6
f 1651/1/6 1652/1/6 1653/1/6
f 1653/1/6 1652/1/6 1654/1/6
f 1655/1/6 1656/1/6 1657/1/6
f 1657/1/6 1656/1/6 1658/1/6
f 1659/1/6 1660/1/6 1662/1/6
f 1662/1/6 1660/1/6 1663/1/6
f 1661/1/6 1662/1/6 1663/1/6
f 1663/1/6 1660/1/6 1664/1/6
f 1661/1/6 1663/1/6 1665/1/6
f 1665/1/6 1663/1/6 1666/1/6
f 1667/1/6 1668/1/6 1669/1/6
f 1669/1/6 1668/1/6 1670/1/6
f 1671/1/6 1672/1/6 1673/1/6
f 1673/1/6 1672/1/6 1674/1/6
f 1675/1/6 1676/1/6 1678/1/6
f 1678/1/6 1676/1/6 1679/1/6
f 1679/1/6 1676/1/6 1680/1/6
f 1677/1/6 1678/1/6 1681/1/6
f 1678/1/6 1679/1/6 1681/1/6
f 1681/1/6 1679/1/6 1682/1/6
f 1677/1/6 1681/1/6 1683/1/6
f 1683/1/6 1681/1/6 1684/1/6
