# MagicaVoxel @ Ephtracy

# group
o 

# material
mtllib Nudeges medis.mtl
usemtl palette

# normals
vn -1 0 0
vn 1 0 0
vn 0 0 1
vn 0 0 -1
vn 0 -1 0
vn 0 1 0

# texcoords
vt 0.537109 0.5
vt 0.986328 0.5

# verts
v 1 4.1 -1.1
v 1 4.1 -1.2
v 1 4.2 -1.1
v 1 4.2 -1.2
v 1.1 4 -1.1
v 1.1 4 -1.3
v 1.1 4.1 -1.1
v 1.1 4.1 -1.2
v 1.1 4.1 -1.3
v 1.2 4.2 -2.7
v 1.2 4.2 -2.9
v 1.2 4.3 -2.7
v 1.2 4.3 -2.9
v 1.3 3.9 -1.3
v 1.3 3.9 -1.4
v 1.3 4 -1.3
v 1.3 4.1 -1.3
v 1.3 4.1 -1.4
v 1.3 4.1 -2.6
v 1.3 4.1 -2.7
v 1.3 4.2 -2.6
v 1.3 4.2 -2.7
v 1.3 4.3 -2.6
v 1.3 4.3 -2.7
v 1.4 3.9 -1.4
v 1.4 3.9 -1.5
v 1.4 4 -1.4
v 1.4 4 -1.5
v 1.4 4 -2.5
v 1.4 4 -2.6
v 1.4 4.1 -2.6
v 1.4 4.2 -2.5
v 1.4 4.2 -2.6
v 1.5 2 -1.9
v 1.5 2 -2.2
v 1.5 2.1 -1.9
v 1.5 2.1 -2.2
v 1.5 3.9 -1.5
v 1.5 3.9 -1.6
v 1.5 3.9 -2.4
v 1.5 3.9 -2.5
v 1.5 4 -1.5
v 1.5 4 -1.6
v 1.5 4 -2.5
v 1.5 4.1 -2.4
v 1.5 4.1 -2.5
v 1.6 2 -1.7
v 1.6 2 -1.9
v 1.6 2 -2.2
v 1.6 2 -2.4
v 1.6 2.1 -1.7
v 1.6 2.1 -1.8
v 1.6 2.1 -1.9
v 1.6 2.1 -2
v 1.6 2.1 -2.2
v 1.6 2.1 -2.3
v 1.6 2.1 -2.4
v 1.6 2.2 -1.8
v 1.6 2.2 -2
v 1.6 2.2 -2.3
v 1.6 3.8 -1.5
v 1.6 3.8 -1.7
v 1.6 3.8 -2.3
v 1.6 3.8 -2.4
v 1.6 3.9 -1.5
v 1.6 3.9 -1.6
v 1.6 3.9 -1.7
v 1.6 3.9 -2.4
v 1.6 4 -2.3
v 1.6 4 -2.4
v 1.7 2 -1.6
v 1.7 2 -1.7
v 1.7 2 -2.4
v 1.7 2 -2.5
v 1.7 2.1 -1.6
v 1.7 2.1 -1.7
v 1.7 2.1 -1.8
v 1.7 2.1 -2.3
v 1.7 2.1 -2.4
v 1.7 2.1 -2.5
v 1.7 2.2 -1.7
v 1.7 2.2 -1.8
v 1.7 2.2 -2.3
v 1.7 2.2 -2.4
v 1.7 3.7 -1.6
v 1.7 3.7 -1.8
v 1.7 3.7 -2.2
v 1.7 3.7 -2.3
v 1.7 3.8 -1.6
v 1.7 3.8 -1.7
v 1.7 3.8 -1.8
v 1.7 3.8 -2.3
v 1.7 3.9 -2.2
v 1.7 3.9 -2.3
v 1.8 2 -1.5
v 1.8 2 -1.6
v 1.8 2 -2.5
v 1.8 2 -2.6
v 1.8 2.1 -1.5
v 1.8 2.1 -1.6
v 1.8 2.1 -1.7
v 1.8 2.1 -2.4
v 1.8 2.1 -2.5
v 1.8 2.1 -2.6
v 1.8 2.2 -1.6
v 1.8 2.2 -1.7
v 1.8 2.2 -1.8
v 1.8 2.2 -2
v 1.8 2.2 -2.3
v 1.8 2.2 -2.4
v 1.8 2.2 -2.5
v 1.8 2.3 -1.8
v 1.8 2.3 -1.9
v 1.8 2.3 -2
v 1.8 2.3 -2.1
v 1.8 2.3 -2.2
v 1.8 2.3 -2.3
v 1.8 2.5 -1.9
v 1.8 2.5 -2
v 1.8 2.6 -2
v 1.8 2.6 -2.1
v 1.8 2.7 -1.9
v 1.8 2.7 -2
v 1.8 2.7 -2.2
v 1.8 2.8 -2.1
v 1.8 2.8 -2.2
v 1.8 2.9 -2.1
v 1.8 2.9 -2.2
v 1.8 3.1 -2.1
v 1.8 3.1 -2.2
v 1.8 3.2 -1.9
v 1.8 3.2 -2
v 1.8 3.3 -2
v 1.8 3.3 -2.1
v 1.8 3.6 -1.7
v 1.8 3.6 -1.9
v 1.8 3.6 -2.1
v 1.8 3.6 -2.2
v 1.8 3.7 -1.7
v 1.8 3.7 -1.8
v 1.8 3.7 -1.9
v 1.8 3.7 -2.2
v 1.8 3.8 -2.1
v 1.8 3.8 -2.2
v 1.9 2.2 -1.7
v 1.9 2.2 -1.8
v 1.9 2.3 -1.7
v 1.9 2.3 -1.8
v 1.9 2.3 -1.9
v 1.9 2.3 -2.2
v 1.9 2.3 -2.3
v 1.9 2.5 -1.9
v 1.9 2.5 -2
v 1.9 2.6 -1.8
v 1.9 2.6 -1.9
v 1.9 2.6 -2
v 1.9 2.6 -2.2
v 1.9 2.6 -2.3
v 1.9 2.7 -1.9
v 1.9 2.7 -2
v 1.9 2.7 -2.2
v 1.9 2.8 -2.1
v 1.9 2.8 -2.2
v 1.9 2.9 -1.8
v 1.9 2.9 -1.9
v 1.9 2.9 -2.1
v 1.9 2.9 -2.2
v 1.9 3 -2.2
v 1.9 3 -2.3
v 1.9 3.1 -2.1
v 1.9 3.1 -2.2
v 1.9 3.2 -1.9
v 1.9 3.2 -2
v 1.9 3.3 -1.8
v 1.9 3.3 -1.9
v 1.9 3.3 -2
v 1.9 3.3 -2.1
v 1.9 3.6 -1.9
v 1.9 3.6 -2.1
v 1.9 3.6 -2.2
v 1.9 3.7 -1.9
v 1.9 3.7 -2.1
v 2 2 -2.5
v 2 2 -2.6
v 2 2.1 -2.4
v 2 2.1 -2.5
v 2 2.1 -2.6
v 2 2.2 -2.3
v 2 2.2 -2.4
v 2 2.2 -2.5
v 2 2.3 -2.3
v 2 2.3 -2.4
v 2 2.6 -1.8
v 2 2.6 -1.9
v 2 2.9 -1.8
v 2 2.9 -1.9
v 2 3 -2.2
v 2 3 -2.3
v 2 3.1 -2.2
v 2 3.1 -2.3
v 2 3.3 -2.2
v 2 3.3 -2.3
v 2 3.7 -1.9
v 2 3.7 -2.2
v 2 3.8 -1.9
v 2 3.8 -2.2
v 2.1 2.8 -2.2
v 2.1 2.8 -2.3
v 2.1 2.9 -1.8
v 2.1 2.9 -1.9
v 2.1 3 -1.8
v 2.1 3 -1.9
v 2.1 3 -2.2
v 2.1 3 -2.3
v 2.1 3.8 -1.9
v 2.1 3.8 -2
v 2.1 3.8 -2.1
v 2.1 3.8 -2.2
v 2.1 3.9 -2.1
v 2.1 3.9 -2.2
v 2.1 4 -1.9
v 2.1 4 -2
v 2.2 3.8 -2.2
v 2.2 3.8 -2.3
v 2.2 3.9 -2.2
v 2.2 3.9 -2.3
v 2.2 4 -1.8
v 2.2 4 -1.9
v 2.2 4 -2
v 2.2 4.1 -1.9
v 2.2 4.1 -2
v 2.2 4.2 -1.8
v 2.2 4.2 -1.9
v 2.3 2.1 -2.3
v 2.3 2.1 -2.4
v 2.3 2.2 -2.3
v 2.3 2.2 -2.4
v 2.3 3.9 -2.2
v 2.3 3.9 -2.3
v 2.3 4 -2.2
v 2.3 4 -2.3
v 2.3 4.2 -1.7
v 2.3 4.2 -1.8
v 2.3 4.2 -1.9
v 2.3 4.3 -1.8
v 2.3 4.3 -1.9
v 2.3 4.5 -1.7
v 2.3 4.5 -1.8
v 2.4 2.8 -2
v 2.4 2.8 -2.1
v 2.4 2.9 -2
v 2.4 2.9 -2.1
v 2.4 3.9 -2.3
v 2.4 3.9 -2.4
v 2.4 4 -2.3
v 2.4 4 -2.4
v 2.4 4.4 -1.6
v 2.4 4.4 -1.7
v 2.4 4.5 -1.7
v 2.4 4.6 -1.6
v 2.4 4.6 -1.7
v 2.5 3.9 -2.4
v 2.5 3.9 -2.6
v 2.5 4 -2.4
v 2.5 4 -2.5
v 2.5 4 -2.6
v 2.5 4 -2.7
v 2.5 4.1 -2.5
v 2.5 4.1 -2.7
v 2.5 4.6 -1.5
v 2.5 4.6 -1.6
v 2.5 4.6 -1.7
v 2.5 4.7 -1.5
v 2.5 4.7 -1.7
v 2.6 4 -2.7
v 2.6 4 -2.8
v 2.6 4.1 -2.7
v 2.6 4.1 -2.8
v 2.6 4.1 -2.9
v 2.6 4.2 -2.7
v 2.6 4.2 -2.9
v 2.6 4.6 -1.4
v 2.6 4.6 -1.5
v 2.6 4.7 -1.4
v 2.6 4.7 -1.5
v 1.2 4 -1.1
v 1.2 4 -1.2
v 1.2 4.1 -1.2
v 1.2 4.2 -1.1
v 1.2 4.2 -1.2
v 1.3 4.2 -2.8
v 1.3 4.2 -2.9
v 1.3 4.3 -2.8
v 1.3 4.3 -2.9
v 1.4 4 -1.2
v 1.4 4 -1.3
v 1.4 4 -1.4
v 1.4 4.1 -1.2
v 1.4 4.1 -1.4
v 1.4 4.2 -2.6
v 1.4 4.2 -2.7
v 1.4 4.2 -2.8
v 1.4 4.3 -2.6
v 1.4 4.3 -2.8
v 1.5 3.9 -1.3
v 1.5 3.9 -1.4
v 1.5 4 -1.3
v 1.5 4 -1.4
v 1.5 4.1 -2.5
v 1.5 4.1 -2.6
v 1.5 4.1 -2.7
v 1.5 4.2 -2.5
v 1.5 4.2 -2.7
v 1.6 3.9 -1.4
v 1.6 3.9 -1.5
v 1.6 4 -1.4
v 1.6 4 -1.5
v 1.6 4 -2.4
v 1.6 4 -2.5
v 1.6 4 -2.6
v 1.6 4.1 -2.4
v 1.6 4.1 -2.6
v 1.7 3.8 -1.5
v 1.7 3.8 -1.6
v 1.7 3.9 -1.6
v 1.7 3.9 -2.3
v 1.7 3.9 -2.4
v 1.7 3.9 -2.5
v 1.7 4 -1.5
v 1.7 4 -1.6
v 1.7 4 -2.3
v 1.7 4 -2.5
v 1.8 3.7 -1.6
v 1.8 3.7 -1.7
v 1.8 3.8 -1.7
v 1.8 3.8 -2.2
v 1.8 3.8 -2.3
v 1.8 3.8 -2.4
v 1.8 3.9 -1.6
v 1.8 3.9 -1.7
v 1.8 3.9 -2.2
v 1.8 3.9 -2.4
v 1.9 2 -2.5
v 1.9 2 -2.6
v 1.9 2.1 -2.4
v 1.9 2.1 -2.5
v 1.9 2.1 -2.6
v 1.9 2.2 -2.4
v 1.9 2.2 -2.5
v 1.9 3.6 -1.7
v 1.9 3.6 -1.8
v 1.9 3.7 -1.8
v 1.9 3.7 -2.1
v 1.9 3.7 -2.2
v 1.9 3.7 -2.3
v 1.9 3.8 -1.7
v 1.9 3.8 -1.8
v 1.9 3.8 -2.1
v 1.9 3.8 -2.3
v 2 2.6 -2.2
v 2 2.6 -2.3
v 2 2.9 -1.8
v 2 2.9 -1.9
v 2 3 -1.8
v 2 3 -1.9
v 2 3 -2.2
v 2 3 -2.3
v 2 3.6 -1.8
v 2 3.6 -1.9
v 2 3.7 -1.8
v 2 3.7 -1.9
v 2.1 2.5 -2.2
v 2.1 2.5 -2.3
v 2.1 2.6 -2.2
v 2.1 2.6 -2.3
v 2.1 3 -1.8
v 2.1 3 -1.9
v 2.1 3.1 -1.8
v 2.1 3.1 -1.9
v 2.1 3.5 -1.9
v 2.1 3.5 -2
v 2.1 3.6 -2.1
v 2.1 3.6 -2.2
v 2.1 3.7 -2
v 2.1 3.7 -2.1
v 2.1 3.8 -1.9
v 2.1 3.8 -2
v 2.1 3.8 -2.1
v 2.1 3.8 -2.2
v 2.2 2 -2.5
v 2.2 2 -2.6
v 2.2 2.1 -2.3
v 2.2 2.1 -2.5
v 2.2 2.1 -2.6
v 2.2 2.2 -1.7
v 2.2 2.2 -1.8
v 2.2 2.2 -2.4
v 2.2 2.2 -2.5
v 2.2 2.3 -1.7
v 2.2 2.3 -1.8
v 2.2 2.3 -1.9
v 2.2 2.3 -2.2
v 2.2 2.3 -2.3
v 2.2 2.3 -2.4
v 2.2 2.5 -2.2
v 2.2 2.5 -2.3
v 2.2 2.8 -2.2
v 2.2 2.8 -2.3
v 2.2 2.9 -2.1
v 2.2 2.9 -2.2
v 2.2 3 -1.8
v 2.2 3 -1.9
v 2.2 3.1 -1.8
v 2.2 3.1 -1.9
v 2.2 3.1 -2.1
v 2.2 3.1 -2.2
v 2.2 3.2 -1.9
v 2.2 3.2 -2
v 2.2 3.3 -1.8
v 2.2 3.3 -1.9
v 2.2 3.3 -2
v 2.2 3.3 -2.1
v 2.2 3.3 -2.2
v 2.2 3.3 -2.3
v 2.2 3.5 -1.9
v 2.2 3.5 -2
v 2.2 3.6 -2.1
v 2.2 3.6 -2.2
v 2.2 3.7 -2
v 2.2 3.7 -2.1
v 2.2 3.8 -1.9
v 2.2 3.8 -2
v 2.2 3.9 -1.9
v 2.2 3.9 -2
v 2.3 2 -1.5
v 2.3 2 -1.6
v 2.3 2.1 -1.5
v 2.3 2.1 -1.6
v 2.3 2.1 -1.7
v 2.3 2.2 -1.6
v 2.3 2.2 -1.7
v 2.3 2.2 -1.8
v 2.3 2.2 -1.9
v 2.3 2.2 -2
v 2.3 2.2 -2.1
v 2.3 2.2 -2.2
v 2.3 2.2 -2.3
v 2.3 2.3 -1.8
v 2.3 2.3 -1.9
v 2.3 2.3 -2
v 2.3 2.3 -2.1
v 2.3 2.3 -2.2
v 2.3 2.3 -2.3
v 2.3 2.7 -2
v 2.3 2.7 -2.1
v 2.3 2.7 -2.2
v 2.3 2.8 -2
v 2.3 2.8 -2.1
v 2.3 2.9 -2.1
v 2.3 2.9 -2.2
v 2.3 3.1 -1.9
v 2.3 3.1 -2.1
v 2.3 3.1 -2.2
v 2.3 3.2 -1.9
v 2.3 3.2 -2
v 2.3 3.3 -1.9
v 2.3 3.3 -2
v 2.3 3.3 -2.1
v 2.3 3.3 -2.2
v 2.3 3.8 -2.1
v 2.3 3.8 -2.2
v 2.3 3.9 -1.9
v 2.3 3.9 -2
v 2.3 3.9 -2.1
v 2.3 3.9 -2.2
v 2.3 4 -1.8
v 2.3 4 -1.9
v 2.3 4.1 -1.8
v 2.3 4.1 -1.9
v 2.3 4.1 -2
v 2.4 2 -1.6
v 2.4 2 -1.7
v 2.4 2 -2.4
v 2.4 2 -2.5
v 2.4 2.1 -1.6
v 2.4 2.1 -1.7
v 2.4 2.1 -1.8
v 2.4 2.1 -2
v 2.4 2.1 -2.1
v 2.4 2.1 -2.2
v 2.4 2.1 -2.4
v 2.4 2.1 -2.5
v 2.4 2.2 -1.7
v 2.4 2.2 -1.8
v 2.4 2.2 -1.9
v 2.4 2.2 -2
v 2.4 2.2 -2.1
v 2.4 2.2 -2.2
v 2.4 2.2 -2.4
v 2.4 2.3 -1.9
v 2.4 2.3 -2
v 2.4 2.3 -2.1
v 2.4 2.3 -2.2
v 2.4 2.7 -2
v 2.4 2.7 -2.1
v 2.4 2.8 -2
v 2.4 2.8 -2.1
v 2.4 3.8 -2.2
v 2.4 3.8 -2.3
v 2.4 3.9 -2.3
v 2.4 4 -2.2
v 2.4 4 -2.3
v 2.4 4.1 -1.8
v 2.4 4.1 -1.9
v 2.4 4.2 -1.7
v 2.4 4.2 -1.8
v 2.4 4.3 -1.8
v 2.4 4.3 -1.9
v 2.4 4.4 -1.7
v 2.4 4.5 -1.7
v 2.4 4.5 -1.8
v 2.5 2 -1.7
v 2.5 2 -1.8
v 2.5 2 -2.2
v 2.5 2 -2.4
v 2.5 2.1 -1.7
v 2.5 2.1 -1.8
v 2.5 2.1 -1.9
v 2.5 2.1 -2
v 2.5 2.1 -2.1
v 2.5 2.1 -2.2
v 2.5 2.1 -2.4
v 2.5 2.2 -1.8
v 2.5 2.2 -1.9
v 2.5 2.2 -2
v 2.5 2.2 -2.1
v 2.5 2.2 -2.2
v 2.5 2.8 -2
v 2.5 2.8 -2.1
v 2.5 2.9 -2
v 2.5 2.9 -2.1
v 2.5 3.9 -2.3
v 2.5 3.9 -2.4
v 2.5 4 -2.3
v 2.5 4 -2.4
v 2.5 4.4 -1.6
v 2.5 4.4 -1.7
v 2.5 4.5 -1.6
v 2.5 4.5 -1.7
v 2.6 2 -1.8
v 2.6 2 -2.2
v 2.6 2.1 -1.8
v 2.6 2.1 -2.2
v 2.6 3.9 -2.4
v 2.6 3.9 -2.6
v 2.6 4 -2.4
v 2.6 4 -2.5
v 2.6 4 -2.6
v 2.6 4.1 -2.5
v 2.6 4.1 -2.6
v 2.6 4.5 -1.6
v 2.6 4.5 -1.7
v 2.6 4.6 -1.6
v 2.6 4.7 -1.6
v 2.6 4.7 -1.7
v 2.7 4 -2.6
v 2.7 4 -2.8
v 2.7 4.1 -2.6
v 2.7 4.1 -2.7
v 2.7 4.1 -2.8
v 2.7 4.1 -2.9
v 2.7 4.2 -2.7
v 2.7 4.2 -2.9
v 2.7 4.6 -1.5
v 2.7 4.6 -1.6
v 2.7 4.7 -1.5
v 2.7 4.7 -1.6
v 2.8 4.6 -1.4
v 2.8 4.6 -1.5
v 2.8 4.7 -1.4
v 2.8 4.7 -1.5
v 1 4.1 -1.1
v 1 4.2 -1.1
v 1.1 4 -1.1
v 1.1 4.1 -1.1
v 1.2 4 -1.1
v 1.2 4.2 -1.1
v 1.2 4 -1.2
v 1.2 4.1 -1.2
v 1.4 4 -1.2
v 1.4 4.1 -1.2
v 1.3 3.9 -1.3
v 1.3 4 -1.3
v 1.4 3.9 -1.3
v 1.4 4 -1.3
v 1.5 3.9 -1.3
v 1.5 4 -1.3
v 1.5 3.9 -1.4
v 1.5 4 -1.4
v 1.6 3.9 -1.4
v 1.6 4 -1.4
v 2.6 4.6 -1.4
v 2.6 4.7 -1.4
v 2.7 4.6 -1.4
v 2.7 4.7 -1.4
v 2.8 4.6 -1.4
v 2.8 4.7 -1.4
v 1.6 3.8 -1.5
v 1.6 3.9 -1.5
v 1.6 4 -1.5
v 1.7 3.8 -1.5
v 1.7 4 -1.5
v 1.8 2 -1.5
v 1.8 2.1 -1.5
v 2 2 -1.5
v 2 2.1 -1.5
v 2.2 2 -1.5
v 2.2 2.1 -1.5
v 2.3 2 -1.5
v 2.3 2.1 -1.5
v 2.5 4.6 -1.5
v 2.5 4.7 -1.5
v 2.6 4.6 -1.5
v 2.6 4.7 -1.5
v 1.7 2 -1.6
v 1.7 2.1 -1.6
v 1.7 3.7 -1.6
v 1.7 3.8 -1.6
v 1.7 3.9 -1.6
v 1.8 2 -1.6
v 1.8 2.1 -1.6
v 1.8 2.2 -1.6
v 1.8 3.7 -1.6
v 1.8 3.9 -1.6
v 2 2.1 -1.6
v 2.2 2.1 -1.6
v 2.2 2.2 -1.6
v 2.3 2 -1.6
v 2.3 2.1 -1.6
v 2.3 2.2 -1.6
v 2.4 2 -1.6
v 2.4 2.1 -1.6
v 2.4 4.4 -1.6
v 2.4 4.6 -1.6
v 2.5 4.4 -1.6
v 2.5 4.5 -1.6
v 2.5 4.6 -1.6
v 2.6 4.5 -1.6
v 2.6 4.6 -1.6
v 1.6 2 -1.7
v 1.6 2.1 -1.7
v 1.7 2 -1.7
v 1.7 2.1 -1.7
v 1.7 2.2 -1.7
v 1.8 2.1 -1.7
v 1.8 2.2 -1.7
v 1.8 3.6 -1.7
v 1.8 3.7 -1.7
v 1.8 3.8 -1.7
v 1.9 2.2 -1.7
v 1.9 2.3 -1.7
v 1.9 3.6 -1.7
v 1.9 3.8 -1.7
v 2.2 2.2 -1.7
v 2.2 2.3 -1.7
v 2.3 2.1 -1.7
v 2.3 2.2 -1.7
v 2.3 4.2 -1.7
v 2.3 4.5 -1.7
v 2.4 2 -1.7
v 2.4 2.1 -1.7
v 2.4 2.2 -1.7
v 2.4 4.2 -1.7
v 2.4 4.4 -1.7
v 2.4 4.5 -1.7
v 2.5 2 -1.7
v 2.5 2.1 -1.7
v 1.6 2.1 -1.8
v 1.6 2.2 -1.8
v 1.7 2.1 -1.8
v 1.7 2.2 -1.8
v 1.8 2.2 -1.8
v 1.8 2.3 -1.8
v 1.9 2.2 -1.8
v 1.9 2.3 -1.8
v 1.9 2.6 -1.8
v 1.9 2.9 -1.8
v 1.9 3.3 -1.8
v 1.9 3.6 -1.8
v 1.9 3.7 -1.8
v 2 2.6 -1.8
v 2 2.9 -1.8
v 2 3 -1.8
v 2 3.6 -1.8
v 2 3.7 -1.8
v 2.1 2.9 -1.8
v 2.1 3 -1.8
v 2.1 3.1 -1.8
v 2.2 2.2 -1.8
v 2.2 2.3 -1.8
v 2.2 3 -1.8
v 2.2 3.1 -1.8
v 2.2 3.3 -1.8
v 2.2 4 -1.8
v 2.2 4.2 -1.8
v 2.3 2.2 -1.8
v 2.3 2.3 -1.8
v 2.3 4 -1.8
v 2.3 4.1 -1.8
v 2.3 4.2 -1.8
v 2.4 2.1 -1.8
v 2.4 2.2 -1.8
v 2.4 4.1 -1.8
v 2.4 4.2 -1.8
v 2.5 2 -1.8
v 2.5 2.1 -1.8
v 2.5 2.2 -1.8
v 2.6 2 -1.8
v 2.6 2.1 -1.8
v 1.5 2 -1.9
v 1.5 2.1 -1.9
v 1.6 2 -1.9
v 1.6 2.1 -1.9
v 1.8 2.3 -1.9
v 1.8 2.5 -1.9
v 1.8 2.7 -1.9
v 1.8 3.2 -1.9
v 1.9 2.3 -1.9
v 1.9 2.5 -1.9
v 1.9 2.6 -1.9
v 1.9 2.7 -1.9
v 1.9 2.9 -1.9
v 1.9 3.2 -1.9
v 1.9 3.3 -1.9
v 1.9 3.6 -1.9
v 2 2.6 -1.9
v 2 2.9 -1.9
v 2 3 -1.9
v 2 3.6 -1.9
v 2 3.7 -1.9
v 2 3.8 -1.9
v 2.1 2.9 -1.9
v 2.1 3 -1.9
v 2.1 3.1 -1.9
v 2.1 3.5 -1.9
v 2.1 3.8 -1.9
v 2.1 4 -1.9
v 2.2 2.3 -1.9
v 2.2 3 -1.9
v 2.2 3.1 -1.9
v 2.2 3.2 -1.9
v 2.2 3.3 -1.9
v 2.2 3.5 -1.9
v 2.2 3.8 -1.9
v 2.2 3.9 -1.9
v 2.2 4 -1.9
v 2.3 2.2 -1.9
v 2.3 2.3 -1.9
v 2.3 3.1 -1.9
v 2.3 3.2 -1.9
v 2.3 3.3 -1.9
v 2.3 3.9 -1.9
v 2.3 4 -1.9
v 2.4 2.2 -1.9
v 2.4 2.3 -1.9
v 1.8 2.5 -2
v 1.8 2.6 -2
v 1.8 2.7 -2
v 1.8 3.2 -2
v 1.8 3.3 -2
v 1.9 2.5 -2
v 1.9 2.6 -2
v 1.9 2.7 -2
v 1.9 3.2 -2
v 1.9 3.3 -2
v 2.1 3.5 -2
v 2.1 3.7 -2
v 2.2 3.5 -2
v 2.2 3.7 -2
v 2.3 2.7 -2
v 2.3 2.8 -2
v 2.4 2.7 -2
v 2.4 2.8 -2
v 2.4 2.9 -2
v 2.5 2.8 -2
v 2.5 2.9 -2
v 1.8 3.6 -2.1
v 1.8 3.8 -2.1
v 1.9 3.6 -2.1
v 1.9 3.7 -2.1
v 1.9 3.8 -2.1
v 2.1 3.8 -2.1
v 2.1 3.9 -2.1
v 2.2 3.1 -2.1
v 2.2 3.3 -2.1
v 2.2 3.8 -2.1
v 2.2 3.9 -2.1
v 2.3 2.2 -2.1
v 2.3 2.3 -2.1
v 2.3 3.1 -2.1
v 2.3 3.3 -2.1
v 2.3 3.8 -2.1
v 2.3 3.9 -2.1
v 2.4 2.1 -2.1
v 2.4 2.2 -2.1
v 2.4 2.3 -2.1
v 2.5 2.1 -2.1
v 2.5 2.2 -2.1
v 1.7 3.7 -2.2
v 1.7 3.9 -2.2
v 1.8 3.7 -2.2
v 1.8 3.8 -2.2
v 1.8 3.9 -2.2
v 2.3 3.8 -2.2
v 2.3 3.9 -2.2
v 2.3 4 -2.2
v 2.4 3.8 -2.2
v 2.4 4 -2.2
v 1.6 3.8 -2.3
v 1.6 4 -2.3
v 1.7 3.8 -2.3
v 1.7 3.9 -2.3
v 1.7 4 -2.3
v 2.4 3.9 -2.3
v 2.4 4 -2.3
v 2.5 3.9 -2.3
v 2.5 4 -2.3
v 1.5 3.9 -2.4
v 1.5 4.1 -2.4
v 1.6 3.9 -2.4
v 1.6 4 -2.4
v 1.6 4.1 -2.4
v 2.5 3.9 -2.4
v 2.5 4 -2.4
v 2.6 3.9 -2.4
v 2.6 4 -2.4
v 1.4 4 -2.5
v 1.4 4.2 -2.5
v 1.5 4 -2.5
v 1.5 4.1 -2.5
v 1.5 4.2 -2.5
v 2.5 4 -2.5
v 2.5 4.1 -2.5
v 2.6 4 -2.5
v 2.6 4.1 -2.5
v 1.3 4.1 -2.6
v 1.3 4.2 -2.6
v 1.3 4.3 -2.6
v 1.4 4.1 -2.6
v 1.4 4.2 -2.6
v 1.4 4.3 -2.6
v 2.6 4 -2.6
v 2.6 4.1 -2.6
v 2.7 4 -2.6
v 2.7 4.1 -2.6
v 1.2 4.2 -2.7
v 1.2 4.3 -2.7
v 1.3 4.2 -2.7
v 1.3 4.3 -2.7
v 2.6 4.1 -2.7
v 2.6 4.2 -2.7
v 2.7 4.1 -2.7
v 2.7 4.2 -2.7
v 1 4.1 -1.2
v 1 4.2 -1.2
v 1.1 4.1 -1.2
v 1.2 4.1 -1.2
v 1.2 4.2 -1.2
v 1.1 4 -1.3
v 1.1 4.1 -1.3
v 1.3 4 -1.3
v 1.3 4.1 -1.3
v 1.3 3.9 -1.4
v 1.3 4.1 -1.4
v 1.4 3.9 -1.4
v 1.4 4 -1.4
v 1.4 4.1 -1.4
v 1.4 3.9 -1.5
v 1.4 4 -1.5
v 1.5 3.9 -1.5
v 1.5 4 -1.5
v 2.7 4.6 -1.5
v 2.7 4.7 -1.5
v 2.8 4.6 -1.5
v 2.8 4.7 -1.5
v 1.5 3.9 -1.6
v 1.5 4 -1.6
v 1.6 3.9 -1.6
v 1.7 3.9 -1.6
v 1.7 4 -1.6
v 2.6 4.6 -1.6
v 2.6 4.7 -1.6
v 2.7 4.6 -1.6
v 2.7 4.7 -1.6
v 1.6 3.8 -1.7
v 1.6 3.9 -1.7
v 1.7 3.8 -1.7
v 1.8 3.8 -1.7
v 1.8 3.9 -1.7
v 2.4 4.4 -1.7
v 2.4 4.5 -1.7
v 2.4 4.6 -1.7
v 2.5 4.4 -1.7
v 2.5 4.5 -1.7
v 2.5 4.6 -1.7
v 2.5 4.7 -1.7
v 2.6 4.5 -1.7
v 2.6 4.7 -1.7
v 1.7 3.7 -1.8
v 1.7 3.8 -1.8
v 1.8 3.7 -1.8
v 1.9 3.7 -1.8
v 1.9 3.8 -1.8
v 2.3 4.3 -1.8
v 2.3 4.5 -1.8
v 2.4 4.3 -1.8
v 2.4 4.5 -1.8
v 1.8 3.6 -1.9
v 1.8 3.7 -1.9
v 1.9 3.6 -1.9
v 1.9 3.7 -1.9
v 2.2 4.1 -1.9
v 2.2 4.2 -1.9
v 2.3 4.1 -1.9
v 2.3 4.2 -1.9
v 2.3 4.3 -1.9
v 2.4 4.1 -1.9
v 2.4 4.3 -1.9
v 2.1 3.8 -2
v 2.1 4 -2
v 2.2 3.2 -2
v 2.2 3.3 -2
v 2.2 3.8 -2
v 2.2 3.9 -2
v 2.2 4 -2
v 2.2 4.1 -2
v 2.3 2.2 -2
v 2.3 2.3 -2
v 2.3 3.2 -2
v 2.3 3.3 -2
v 2.3 3.9 -2
v 2.3 4.1 -2
v 2.4 2.1 -2
v 2.4 2.2 -2
v 2.4 2.3 -2
v 2.5 2.1 -2
v 2.5 2.2 -2
v 1.8 2.8 -2.1
v 1.8 2.9 -2.1
v 1.8 3.1 -2.1
v 1.8 3.3 -2.1
v 1.9 2.8 -2.1
v 1.9 2.9 -2.1
v 1.9 3.1 -2.1
v 1.9 3.3 -2.1
v 2.1 3.6 -2.1
v 2.1 3.7 -2.1
v 2.2 2.9 -2.1
v 2.2 3.1 -2.1
v 2.2 3.6 -2.1
v 2.2 3.7 -2.1
v 2.3 2.7 -2.1
v 2.3 2.8 -2.1
v 2.3 2.9 -2.1
v 2.3 3.1 -2.1
v 2.4 2.7 -2.1
v 2.4 2.8 -2.1
v 2.4 2.9 -2.1
v 2.5 2.8 -2.1
v 2.5 2.9 -2.1
v 1.5 2 -2.2
v 1.5 2.1 -2.2
v 1.6 2 -2.2
v 1.6 2.1 -2.2
v 1.8 2.3 -2.2
v 1.8 2.7 -2.2
v 1.8 2.8 -2.2
v 1.8 2.9 -2.2
v 1.8 3.1 -2.2
v 1.8 3.6 -2.2
v 1.8 3.7 -2.2
v 1.9 2.3 -2.2
v 1.9 2.6 -2.2
v 1.9 2.7 -2.2
v 1.9 2.8 -2.2
v 1.9 2.9 -2.2
v 1.9 3 -2.2
v 1.9 3.1 -2.2
v 1.9 3.6 -2.2
v 1.9 3.7 -2.2
v 2 2.6 -2.2
v 2 3 -2.2
v 2 3.1 -2.2
v 2 3.3 -2.2
v 2 3.7 -2.2
v 2 3.8 -2.2
v 2.1 2.5 -2.2
v 2.1 2.6 -2.2
v 2.1 2.7 -2.2
v 2.1 2.8 -2.2
v 2.1 3 -2.2
v 2.1 3.6 -2.2
v 2.1 3.8 -2.2
v 2.1 3.9 -2.2
v 2.2 2.3 -2.2
v 2.2 2.5 -2.2
v 2.2 2.8 -2.2
v 2.2 2.9 -2.2
v 2.2 3.1 -2.2
v 2.2 3.3 -2.2
v 2.2 3.6 -2.2
v 2.2 3.8 -2.2
v 2.2 3.9 -2.2
v 2.3 2.2 -2.2
v 2.3 2.3 -2.2
v 2.3 2.7 -2.2
v 2.3 2.9 -2.2
v 2.3 3.1 -2.2
v 2.3 3.3 -2.2
v 2.4 2.1 -2.2
v 2.4 2.2 -2.2
v 2.4 2.3 -2.2
v 2.5 2 -2.2
v 2.5 2.1 -2.2
v 2.5 2.2 -2.2
v 2.6 2 -2.2
v 2.6 2.1 -2.2
v 1.6 2.1 -2.3
v 1.6 2.2 -2.3
v 1.7 2.1 -2.3
v 1.7 2.2 -2.3
v 1.7 3.7 -2.3
v 1.7 3.8 -2.3
v 1.8 2.2 -2.3
v 1.8 2.3 -2.3
v 1.8 3.8 -2.3
v 1.9 2.3 -2.3
v 1.9 2.6 -2.3
v 1.9 3 -2.3
v 1.9 3.7 -2.3
v 1.9 3.8 -2.3
v 2 2.2 -2.3
v 2 2.3 -2.3
v 2 2.6 -2.3
v 2 3 -2.3
v 2 3.1 -2.3
v 2 3.3 -2.3
v 2.1 2.5 -2.3
v 2.1 2.6 -2.3
v 2.1 2.8 -2.3
v 2.1 3 -2.3
v 2.1 3.1 -2.3
v 2.2 2.1 -2.3
v 2.2 2.3 -2.3
v 2.2 2.5 -2.3
v 2.2 2.8 -2.3
v 2.2 3.3 -2.3
v 2.2 3.8 -2.3
v 2.2 3.9 -2.3
v 2.3 2.1 -2.3
v 2.3 2.2 -2.3
v 2.3 2.3 -2.3
v 2.3 3.9 -2.3
v 2.3 4 -2.3
v 2.4 3.8 -2.3
v 2.4 3.9 -2.3
v 2.4 4 -2.3
v 1.6 2 -2.4
v 1.6 2.1 -2.4
v 1.6 3.8 -2.4
v 1.6 3.9 -2.4
v 1.7 2 -2.4
v 1.7 2.1 -2.4
v 1.7 2.2 -2.4
v 1.7 3.9 -2.4
v 1.8 2.1 -2.4
v 1.8 2.2 -2.4
v 1.8 3.8 -2.4
v 1.8 3.9 -2.4
v 1.9 2.1 -2.4
v 1.9 2.2 -2.4
v 2 2.1 -2.4
v 2 2.2 -2.4
v 2 2.3 -2.4
v 2.2 2.2 -2.4
v 2.2 2.3 -2.4
v 2.3 2.1 -2.4
v 2.3 2.2 -2.4
v 2.4 2 -2.4
v 2.4 2.1 -2.4
v 2.4 2.2 -2.4
v 2.4 3.9 -2.4
v 2.4 4 -2.4
v 2.5 2 -2.4
v 2.5 2.1 -2.4
v 2.5 3.9 -2.4
v 2.5 4 -2.4
v 1.5 3.9 -2.5
v 1.5 4 -2.5
v 1.6 4 -2.5
v 1.7 2 -2.5
v 1.7 2.1 -2.5
v 1.7 3.9 -2.5
v 1.7 4 -2.5
v 1.8 2 -2.5
v 1.8 2.1 -2.5
v 1.8 2.2 -2.5
v 1.9 2 -2.5
v 1.9 2.1 -2.5
v 1.9 2.2 -2.5
v 2 2 -2.5
v 2 2.1 -2.5
v 2 2.2 -2.5
v 2.2 2 -2.5
v 2.2 2.1 -2.5
v 2.2 2.2 -2.5
v 2.4 2 -2.5
v 2.4 2.1 -2.5
v 1.4 4 -2.6
v 1.4 4.1 -2.6
v 1.5 4.1 -2.6
v 1.6 4 -2.6
v 1.6 4.1 -2.6
v 1.8 2 -2.6
v 1.8 2.1 -2.6
v 1.9 2 -2.6
v 1.9 2.1 -2.6
v 2 2 -2.6
v 2 2.1 -2.6
v 2.2 2 -2.6
v 2.2 2.1 -2.6
v 2.5 3.9 -2.6
v 2.5 4 -2.6
v 2.6 3.9 -2.6
v 2.6 4 -2.6
v 1.3 4.1 -2.7
v 1.3 4.2 -2.7
v 1.4 4.2 -2.7
v 1.5 4.1 -2.7
v 1.5 4.2 -2.7
v 2.5 4 -2.7
v 2.5 4.1 -2.7
v 2.6 4 -2.7
v 2.6 4.1 -2.7
v 1.3 4.2 -2.8
v 1.3 4.3 -2.8
v 1.4 4.2 -2.8
v 1.4 4.3 -2.8
v 2.6 4 -2.8
v 2.6 4.1 -2.8
v 2.7 4 -2.8
v 2.7 4.1 -2.8
v 1.2 4.2 -2.9
v 1.2 4.3 -2.9
v 1.3 4.2 -2.9
v 1.3 4.3 -2.9
v 2.6 4.1 -2.9
v 2.6 4.2 -2.9
v 2.7 4.1 -2.9
v 2.7 4.2 -2.9
v 1.8 2 -1.5
v 2 2 -1.5
v 2.2 2 -1.5
v 2.3 2 -1.5
v 1.7 2 -1.6
v 1.8 2 -1.6
v 2.3 2 -1.6
v 2.4 2 -1.6
v 1.6 2 -1.7
v 1.7 2 -1.7
v 1.9 2 -1.7
v 2 2 -1.7
v 2.1 2 -1.7
v 2.4 2 -1.7
v 2.5 2 -1.7
v 2.5 2 -1.8
v 2.6 2 -1.8
v 1.5 2 -1.9
v 1.6 2 -1.9
v 1.8 2 -2
v 1.9 2 -2
v 2.1 2 -2
v 2.2 2 -2
v 1.5 2 -2.2
v 1.6 2 -2.2
v 2.5 2 -2.2
v 2.6 2 -2.2
v 1.6 2 -2.4
v 1.7 2 -2.4
v 2.4 2 -2.4
v 2.5 2 -2.4
v 1.7 2 -2.5
v 1.8 2 -2.5
v 1.9 2 -2.5
v 2 2 -2.5
v 2.2 2 -2.5
v 2.4 2 -2.5
v 1.8 2 -2.6
v 1.9 2 -2.6
v 2 2 -2.6
v 2.2 2 -2.6
v 1.8 2.7 -1.9
v 1.9 2.7 -1.9
v 1.8 2.7 -2
v 1.9 2.7 -2
v 2.3 2.7 -2
v 2.4 2.7 -2
v 2.3 2.7 -2.1
v 2.4 2.7 -2.1
v 2.4 2.8 -2
v 2.5 2.8 -2
v 2.4 2.8 -2.1
v 2.5 2.8 -2.1
v 2.1 2.8 -2.2
v 2.2 2.8 -2.2
v 2.1 2.8 -2.3
v 2.2 2.8 -2.3
v 1.9 2.9 -1.8
v 2 2.9 -1.8
v 1.9 2.9 -1.9
v 2 2.9 -1.9
v 1.8 2.9 -2.1
v 1.9 2.9 -2.1
v 1.8 2.9 -2.2
v 1.9 2.9 -2.2
v 2 3 -1.8
v 2.1 3 -1.8
v 2 3 -1.9
v 2.1 3 -1.9
v 2 3 -2.2
v 2.1 3 -2.2
v 2 3 -2.3
v 2.1 3 -2.3
v 2.1 3.1 -1.8
v 2.2 3.1 -1.8
v 2.1 3.1 -1.9
v 2.2 3.1 -1.9
v 2.2 3.1 -2.1
v 2.3 3.1 -2.1
v 2.2 3.1 -2.2
v 2.3 3.1 -2.2
v 2.2 3.2 -1.9
v 2.3 3.2 -1.9
v 2.2 3.2 -2
v 2.3 3.2 -2
v 1.8 3.6 -1.7
v 1.9 3.6 -1.7
v 1.9 3.6 -1.8
v 2 3.6 -1.8
v 1.8 3.6 -1.9
v 1.9 3.6 -1.9
v 2 3.6 -1.9
v 1.8 3.6 -2.1
v 1.9 3.6 -2.1
v 1.8 3.6 -2.2
v 1.9 3.6 -2.2
v 1.7 3.7 -1.6
v 1.8 3.7 -1.6
v 1.8 3.7 -1.7
v 1.7 3.7 -1.8
v 1.8 3.7 -1.8
v 1.7 3.7 -2.2
v 1.8 3.7 -2.2
v 1.9 3.7 -2.2
v 1.7 3.7 -2.3
v 1.9 3.7 -2.3
v 1.6 3.8 -1.5
v 1.7 3.8 -1.5
v 1.7 3.8 -1.6
v 1.6 3.8 -1.7
v 1.7 3.8 -1.7
v 2.1 3.8 -1.9
v 2.2 3.8 -1.9
v 2.1 3.8 -2
v 2.2 3.8 -2
v 2.1 3.8 -2.1
v 2.2 3.8 -2.1
v 2.3 3.8 -2.1
v 2.1 3.8 -2.2
v 2.2 3.8 -2.2
v 2.3 3.8 -2.2
v 2.4 3.8 -2.2
v 1.6 3.8 -2.3
v 1.7 3.8 -2.3
v 1.8 3.8 -2.3
v 2.2 3.8 -2.3
v 2.4 3.8 -2.3
v 1.6 3.8 -2.4
v 1.8 3.8 -2.4
v 1.3 3.9 -1.3
v 1.4 3.9 -1.3
v 1.5 3.9 -1.3
v 1.3 3.9 -1.4
v 1.4 3.9 -1.4
v 1.5 3.9 -1.4
v 1.6 3.9 -1.4
v 1.4 3.9 -1.5
v 1.5 3.9 -1.5
v 1.6 3.9 -1.5
v 1.5 3.9 -1.6
v 1.6 3.9 -1.6
v 2.2 3.9 -1.9
v 2.3 3.9 -1.9
v 2.2 3.9 -2
v 2.3 3.9 -2
v 2.4 3.9 -2.3
v 2.5 3.9 -2.3
v 1.5 3.9 -2.4
v 1.6 3.9 -2.4
v 1.7 3.9 -2.4
v 2.4 3.9 -2.4
v 2.5 3.9 -2.4
v 2.6 3.9 -2.4
v 1.5 3.9 -2.5
v 1.7 3.9 -2.5
v 2.5 3.9 -2.6
v 2.6 3.9 -2.6
v 1.1 4 -1.1
v 1.2 4 -1.1
v 1.2 4 -1.2
v 1.4 4 -1.2
v 1.1 4 -1.3
v 1.3 4 -1.3
v 1.4 4 -1.3
v 2.2 4 -1.8
v 2.3 4 -1.8
v 2.2 4 -1.9
v 2.3 4 -1.9
v 1.4 4 -2.5
v 1.5 4 -2.5
v 1.6 4 -2.5
v 1.4 4 -2.6
v 1.6 4 -2.6
v 2.5 4 -2.6
v 2.6 4 -2.6
v 2.7 4 -2.6
v 2.5 4 -2.7
v 2.6 4 -2.7
v 2.6 4 -2.8
v 2.7 4 -2.8
v 1 4.1 -1.1
v 1.1 4.1 -1.1
v 1 4.1 -1.2
v 1.1 4.1 -1.2
v 2.3 4.1 -1.8
v 2.4 4.1 -1.8
v 2.3 4.1 -1.9
v 2.4 4.1 -1.9
v 1.3 4.1 -2.6
v 1.4 4.1 -2.6
v 1.5 4.1 -2.6
v 1.3 4.1 -2.7
v 1.5 4.1 -2.7
v 2.6 4.1 -2.8
v 2.7 4.1 -2.8
v 2.6 4.1 -2.9
v 2.7 4.1 -2.9
v 2.3 4.2 -1.7
v 2.4 4.2 -1.7
v 2.3 4.2 -1.8
v 2.4 4.2 -1.8
v 1.2 4.2 -2.7
v 1.3 4.2 -2.7
v 1.4 4.2 -2.7
v 1.3 4.2 -2.8
v 1.4 4.2 -2.8
v 1.2 4.2 -2.9
v 1.3 4.2 -2.9
v 2.4 4.4 -1.6
v 2.5 4.4 -1.6
v 2.4 4.4 -1.7
v 2.5 4.4 -1.7
v 2.5 4.5 -1.6
v 2.6 4.5 -1.6
v 2.5 4.5 -1.7
v 2.6 4.5 -1.7
v 2.6 4.6 -1.4
v 2.7 4.6 -1.4
v 2.8 4.6 -1.4
v 2.5 4.6 -1.5
v 2.6 4.6 -1.5
v 2.7 4.6 -1.5
v 2.8 4.6 -1.5
v 2.5 4.6 -1.6
v 2.6 4.6 -1.6
v 2.7 4.6 -1.6
v 1.8 2.1 -1.5
v 2 2.1 -1.5
v 2.2 2.1 -1.5
v 2.3 2.1 -1.5
v 1.7 2.1 -1.6
v 1.8 2.1 -1.6
v 2 2.1 -1.6
v 2.2 2.1 -1.6
v 2.3 2.1 -1.6
v 2.4 2.1 -1.6
v 1.6 2.1 -1.7
v 1.7 2.1 -1.7
v 1.8 2.1 -1.7
v 2.3 2.1 -1.7
v 2.4 2.1 -1.7
v 2.5 2.1 -1.7
v 1.6 2.1 -1.8
v 1.7 2.1 -1.8
v 2.4 2.1 -1.8
v 2.5 2.1 -1.8
v 2.6 2.1 -1.8
v 1.5 2.1 -1.9
v 1.6 2.1 -1.9
v 2.5 2.1 -1.9
v 1.6 2.1 -2
v 2.4 2.1 -2
v 2.5 2.1 -2
v 2.4 2.1 -2.1
v 2.5 2.1 -2.1
v 1.5 2.1 -2.2
v 1.6 2.1 -2.2
v 2.4 2.1 -2.2
v 2.5 2.1 -2.2
v 2.6 2.1 -2.2
v 1.6 2.1 -2.3
v 1.7 2.1 -2.3
v 2.2 2.1 -2.3
v 2.3 2.1 -2.3
v 1.6 2.1 -2.4
v 1.7 2.1 -2.4
v 1.8 2.1 -2.4
v 1.9 2.1 -2.4
v 2 2.1 -2.4
v 2.3 2.1 -2.4
v 2.4 2.1 -2.4
v 2.5 2.1 -2.4
v 1.7 2.1 -2.5
v 1.8 2.1 -2.5
v 1.9 2.1 -2.5
v 2 2.1 -2.5
v 2.2 2.1 -2.5
v 2.4 2.1 -2.5
v 1.8 2.1 -2.6
v 1.9 2.1 -2.6
v 2 2.1 -2.6
v 2.2 2.1 -2.6
v 1.8 2.2 -1.6
v 2.2 2.2 -1.6
v 2.3 2.2 -1.6
v 1.7 2.2 -1.7
v 1.8 2.2 -1.7
v 1.9 2.2 -1.7
v 2.2 2.2 -1.7
v 2.3 2.2 -1.7
v 2.4 2.2 -1.7
v 1.6 2.2 -1.8
v 1.7 2.2 -1.8
v 1.8 2.2 -1.8
v 1.9 2.2 -1.8
v 2.2 2.2 -1.8
v 2.3 2.2 -1.8
v 2.4 2.2 -1.8
v 2.5 2.2 -1.8
v 2.3 2.2 -1.9
v 2.4 2.2 -1.9
v 2.5 2.2 -1.9
v 1.6 2.2 -2
v 1.8 2.2 -2
v 2.3 2.2 -2
v 2.4 2.2 -2
v 2.5 2.2 -2
v 2.3 2.2 -2.1
v 2.4 2.2 -2.1
v 2.5 2.2 -2.1
v 2.3 2.2 -2.2
v 2.4 2.2 -2.2
v 2.5 2.2 -2.2
v 1.6 2.2 -2.3
v 1.7 2.2 -2.3
v 1.8 2.2 -2.3
v 2 2.2 -2.3
v 2.3 2.2 -2.3
v 1.7 2.2 -2.4
v 1.8 2.2 -2.4
v 1.9 2.2 -2.4
v 2 2.2 -2.4
v 2.2 2.2 -2.4
v 2.3 2.2 -2.4
v 2.4 2.2 -2.4
v 1.8 2.2 -2.5
v 1.9 2.2 -2.5
v 2 2.2 -2.5
v 2.2 2.2 -2.5
v 1.9 2.3 -1.7
v 2.2 2.3 -1.7
v 1.8 2.3 -1.8
v 1.9 2.3 -1.8
v 2.2 2.3 -1.8
v 2.3 2.3 -1.8
v 1.8 2.3 -1.9
v 1.9 2.3 -1.9
v 2.2 2.3 -1.9
v 2.3 2.3 -1.9
v 2.4 2.3 -1.9
v 2.3 2.3 -2
v 2.4 2.3 -2
v 2.3 2.3 -2.1
v 2.4 2.3 -2.1
v 1.8 2.3 -2.2
v 1.9 2.3 -2.2
v 2.2 2.3 -2.2
v 2.3 2.3 -2.2
v 2.4 2.3 -2.2
v 1.8 2.3 -2.3
v 1.9 2.3 -2.3
v 2 2.3 -2.3
v 2.2 2.3 -2.3
v 2.3 2.3 -2.3
v 2 2.3 -2.4
v 2.2 2.3 -2.4
v 1.8 2.5 -1.9
v 1.9 2.5 -1.9
v 1.8 2.5 -2
v 1.9 2.5 -2
v 2.1 2.5 -2.2
v 2.2 2.5 -2.2
v 2.1 2.5 -2.3
v 2.2 2.5 -2.3
v 1.9 2.6 -1.8
v 2 2.6 -1.8
v 1.9 2.6 -1.9
v 2 2.6 -1.9
v 2 2.6 -2.2
v 2.1 2.6 -2.2
v 2 2.6 -2.3
v 2.1 2.6 -2.3
v 2.3 2.8 -2
v 2.4 2.8 -2
v 1.8 2.8 -2.1
v 1.9 2.8 -2.1
v 2.3 2.8 -2.1
v 2.4 2.8 -2.1
v 1.8 2.8 -2.2
v 1.9 2.8 -2.2
v 2 2.9 -1.8
v 2.1 2.9 -1.8
v 2 2.9 -1.9
v 2.1 2.9 -1.9
v 2.4 2.9 -2
v 2.5 2.9 -2
v 2.2 2.9 -2.1
v 2.3 2.9 -2.1
v 2.4 2.9 -2.1
v 2.5 2.9 -2.1
v 2.2 2.9 -2.2
v 2.3 2.9 -2.2
v 2.1 3 -1.8
v 2.2 3 -1.8
v 2.1 3 -1.9
v 2.2 3 -1.9
v 1.9 3 -2.2
v 2 3 -2.2
v 1.9 3 -2.3
v 2 3 -2.3
v 2.2 3.1 -1.9
v 2.3 3.1 -1.9
v 1.8 3.1 -2.1
v 1.9 3.1 -2.1
v 2.2 3.1 -2.1
v 2.3 3.1 -2.1
v 1.8 3.1 -2.2
v 1.9 3.1 -2.2
v 1.8 3.2 -1.9
v 1.9 3.2 -1.9
v 1.8 3.2 -2
v 1.9 3.2 -2
v 1.9 3.3 -1.8
v 2.2 3.3 -1.8
v 1.9 3.3 -1.9
v 2.2 3.3 -1.9
v 2.3 3.3 -1.9
v 1.8 3.3 -2
v 1.9 3.3 -2
v 2.2 3.3 -2
v 2.3 3.3 -2
v 1.8 3.3 -2.1
v 1.9 3.3 -2.1
v 2.2 3.3 -2.1
v 2.3 3.3 -2.1
v 2 3.3 -2.2
v 2.2 3.3 -2.2
v 2.3 3.3 -2.2
v 2 3.3 -2.3
v 2.2 3.3 -2.3
v 2.1 3.5 -1.9
v 2.2 3.5 -1.9
v 2.1 3.5 -2
v 2.2 3.5 -2
v 2.1 3.6 -2.1
v 2.2 3.6 -2.1
v 2.1 3.6 -2.2
v 2.2 3.6 -2.2
v 1.8 3.7 -1.8
v 1.9 3.7 -1.8
v 2 3.7 -1.8
v 1.8 3.7 -1.9
v 1.9 3.7 -1.9
v 2 3.7 -1.9
v 2.1 3.7 -2
v 2.2 3.7 -2
v 1.9 3.7 -2.1
v 2.1 3.7 -2.1
v 2.2 3.7 -2.1
v 1.9 3.7 -2.2
v 2 3.7 -2.2
v 1.7 3.8 -1.7
v 1.8 3.8 -1.7
v 1.9 3.8 -1.7
v 1.7 3.8 -1.8
v 1.9 3.8 -1.8
v 2 3.8 -1.9
v 2.1 3.8 -1.9
v 2.1 3.8 -2
v 1.8 3.8 -2.1
v 1.9 3.8 -2.1
v 2.1 3.8 -2.1
v 1.8 3.8 -2.2
v 2 3.8 -2.2
v 2.1 3.8 -2.2
v 1.8 3.8 -2.3
v 1.9 3.8 -2.3
v 1.6 3.9 -1.6
v 1.7 3.9 -1.6
v 1.8 3.9 -1.6
v 1.6 3.9 -1.7
v 1.8 3.9 -1.7
v 2.1 3.9 -2.1
v 2.2 3.9 -2.1
v 2.3 3.9 -2.1
v 1.7 3.9 -2.2
v 1.8 3.9 -2.2
v 2.1 3.9 -2.2
v 2.2 3.9 -2.2
v 2.3 3.9 -2.2
v 1.7 3.9 -2.3
v 2.2 3.9 -2.3
v 2.3 3.9 -2.3
v 1.7 3.9 -2.4
v 1.8 3.9 -2.4
v 1.4 4 -1.3
v 1.5 4 -1.3
v 1.4 4 -1.4
v 1.5 4 -1.4
v 1.6 4 -1.4
v 1.4 4 -1.5
v 1.5 4 -1.5
v 1.6 4 -1.5
v 1.7 4 -1.5
v 1.5 4 -1.6
v 1.7 4 -1.6
v 2.1 4 -1.9
v 2.2 4 -1.9
v 2.1 4 -2
v 2.2 4 -2
v 2.3 4 -2.2
v 2.4 4 -2.2
v 1.6 4 -2.3
v 1.7 4 -2.3
v 2.3 4 -2.3
v 2.4 4 -2.3
v 2.5 4 -2.3
v 1.6 4 -2.4
v 2.4 4 -2.4
v 2.5 4 -2.4
v 2.6 4 -2.4
v 1.6 4 -2.5
v 1.7 4 -2.5
v 2.5 4 -2.5
v 2.6 4 -2.5
v 1.1 4.1 -1.2
v 1.2 4.1 -1.2
v 1.4 4.1 -1.2
v 1.1 4.1 -1.3
v 1.3 4.1 -1.3
v 1.3 4.1 -1.4
v 1.4 4.1 -1.4
v 2.2 4.1 -1.9
v 2.3 4.1 -1.9
v 2.2 4.1 -2
v 2.3 4.1 -2
v 1.5 4.1 -2.4
v 1.6 4.1 -2.4
v 1.5 4.1 -2.5
v 2.5 4.1 -2.5
v 2.6 4.1 -2.5
v 1.5 4.1 -2.6
v 1.6 4.1 -2.6
v 2.6 4.1 -2.6
v 2.7 4.1 -2.6
v 2.5 4.1 -2.7
v 2.6 4.1 -2.7
v 2.7 4.1 -2.7
v 1 4.2 -1.1
v 1.2 4.2 -1.1
v 1 4.2 -1.2
v 1.2 4.2 -1.2
v 2.2 4.2 -1.8
v 2.3 4.2 -1.8
v 2.2 4.2 -1.9
v 2.3 4.2 -1.9
v 1.4 4.2 -2.5
v 1.5 4.2 -2.5
v 1.4 4.2 -2.6
v 1.4 4.2 -2.7
v 1.5 4.2 -2.7
v 2.6 4.2 -2.7
v 2.7 4.2 -2.7
v 2.6 4.2 -2.9
v 2.7 4.2 -2.9
v 2.3 4.3 -1.8
v 2.4 4.3 -1.8
v 2.3 4.3 -1.9
v 2.4 4.3 -1.9
v 1.3 4.3 -2.6
v 1.4 4.3 -2.6
v 1.2 4.3 -2.7
v 1.3 4.3 -2.7
v 1.3 4.3 -2.8
v 1.4 4.3 -2.8
v 1.2 4.3 -2.9
v 1.3 4.3 -2.9
v 2.3 4.5 -1.7
v 2.4 4.5 -1.7
v 2.3 4.5 -1.8
v 2.4 4.5 -1.8
v 2.4 4.6 -1.6
v 2.5 4.6 -1.6
v 2.4 4.6 -1.7
v 2.5 4.6 -1.7
v 2.6 4.7 -1.4
v 2.7 4.7 -1.4
v 2.8 4.7 -1.4
v 2.5 4.7 -1.5
v 2.6 4.7 -1.5
v 2.7 4.7 -1.5
v 2.8 4.7 -1.5
v 2.6 4.7 -1.6
v 2.7 4.7 -1.6
v 2.5 4.7 -1.7
v 2.6 4.7 -1.7

# faces
f 3/1/1 2/1/1 1/1/1
f 4/1/1 2/1/1 3/1/1
f 7/1/1 6/1/1 5/1/1
f 8/1/1 6/1/1 7/1/1
f 9/1/1 6/1/1 8/1/1
f 12/1/1 11/1/1 10/1/1
f 13/1/1 11/1/1 12/1/1
f 16/1/1 15/1/1 14/1/1
f 17/1/1 15/1/1 16/1/1
f 18/1/1 15/1/1 17/1/1
f 21/2/1 20/2/1 19/2/1
f 22/2/1 20/2/1 21/2/1
f 23/1/1 22/1/1 21/1/1
f 24/1/1 22/1/1 23/1/1
f 27/2/1 26/2/1 25/2/1
f 28/2/1 26/2/1 27/2/1
f 31/2/1 30/2/1 29/2/1
f 32/2/1 31/2/1 29/2/1
f 33/2/1 31/2/1 32/2/1
f 36/1/1 35/1/1 34/1/1
f 37/1/1 35/1/1 36/1/1
f 42/2/1 39/2/1 38/2/1
f 43/2/1 39/2/1 42/2/1
f 44/2/1 41/2/1 40/2/1
f 45/2/1 44/2/1 40/2/1
f 46/2/1 44/2/1 45/2/1
f 51/2/1 48/2/1 47/2/1
f 52/2/1 48/2/1 51/2/1
f 53/2/1 48/2/1 52/2/1
f 55/2/1 50/2/1 49/2/1
f 56/2/1 50/2/1 55/2/1
f 57/2/1 50/2/1 56/2/1
f 58/2/1 54/2/1 53/2/1
f 58/2/1 53/2/1 52/2/1
f 59/1/1 56/1/1 55/1/1
f 59/2/1 54/2/1 58/2/1
f 59/1/1 55/1/1 54/1/1
f 60/1/1 56/1/1 59/1/1
f 65/2/1 62/2/1 61/2/1
f 66/2/1 62/2/1 65/2/1
f 67/2/1 62/2/1 66/2/1
f 68/2/1 64/2/1 63/2/1
f 69/2/1 68/2/1 63/2/1
f 70/2/1 68/2/1 69/2/1
f 75/1/1 72/1/1 71/1/1
f 76/1/1 72/1/1 75/1/1
f 79/2/1 74/2/1 73/2/1
f 80/2/1 74/2/1 79/2/1
f 81/2/1 77/2/1 76/2/1
f 82/2/1 77/2/1 81/2/1
f 83/1/1 79/1/1 78/1/1
f 84/1/1 79/1/1 83/1/1
f 89/2/1 86/2/1 85/2/1
f 90/2/1 86/2/1 89/2/1
f 91/2/1 86/2/1 90/2/1
f 92/2/1 88/2/1 87/2/1
f 93/2/1 92/2/1 87/2/1
f 94/2/1 92/2/1 93/2/1
f 99/1/1 96/1/1 95/1/1
f 100/1/1 96/1/1 99/1/1
f 103/1/1 98/1/1 97/1/1
f 104/1/1 98/1/1 103/1/1
f 105/2/1 101/2/1 100/2/1
f 106/2/1 101/2/1 105/2/1
f 110/1/1 103/1/1 102/1/1
f 111/1/1 103/1/1 110/1/1
f 112/2/1 108/2/1 107/2/1
f 113/2/1 108/2/1 112/2/1
f 114/1/1 109/1/1 108/1/1
f 114/2/1 108/2/1 113/2/1
f 115/1/1 109/1/1 114/1/1
f 116/1/1 109/1/1 115/1/1
f 117/1/1 109/1/1 116/1/1
f 118/2/1 114/2/1 113/2/1
f 118/2/1 115/2/1 114/2/1
f 119/2/1 115/2/1 118/2/1
f 120/2/1 115/2/1 119/2/1
f 121/1/1 116/1/1 115/1/1
f 121/2/1 115/2/1 120/2/1
f 123/1/1 121/1/1 120/1/1
f 124/1/1 116/1/1 121/1/1
f 124/1/1 121/1/1 123/1/1
f 125/2/1 123/2/1 122/2/1
f 125/2/1 124/2/1 123/2/1
f 126/2/1 124/2/1 125/2/1
f 127/2/1 125/2/1 122/2/1
f 129/2/1 127/2/1 122/2/1
f 129/2/1 128/2/1 127/2/1
f 130/2/1 128/2/1 129/2/1
f 131/2/1 129/2/1 122/2/1
f 132/2/1 129/2/1 131/2/1
f 133/2/1 129/2/1 132/2/1
f 134/2/1 129/2/1 133/2/1
f 139/2/1 136/2/1 135/2/1
f 140/2/1 136/2/1 139/2/1
f 141/2/1 136/2/1 140/2/1
f 142/2/1 138/2/1 137/2/1
f 143/2/1 142/2/1 137/2/1
f 144/2/1 142/2/1 143/2/1
f 147/2/1 146/2/1 145/2/1
f 148/2/1 146/2/1 147/2/1
f 152/2/1 149/2/1 148/2/1
f 154/2/1 152/2/1 148/2/1
f 154/2/1 153/2/1 152/2/1
f 155/2/1 153/2/1 154/2/1
f 156/2/1 153/2/1 155/2/1
f 157/1/1 151/1/1 150/1/1
f 158/1/1 151/1/1 157/1/1
f 159/2/1 156/2/1 155/2/1
f 160/2/1 156/2/1 159/2/1
f 161/2/1 158/2/1 157/2/1
f 163/2/1 158/2/1 161/2/1
f 166/2/1 163/2/1 162/2/1
f 167/2/1 158/2/1 163/2/1
f 167/2/1 163/2/1 166/2/1
f 168/2/1 158/2/1 167/2/1
f 169/2/1 158/2/1 168/2/1
f 172/2/1 165/2/1 164/2/1
f 174/2/1 172/2/1 164/2/1
f 174/2/1 173/2/1 172/2/1
f 175/2/1 173/2/1 174/2/1
f 176/2/1 173/2/1 175/2/1
f 177/2/1 171/2/1 170/2/1
f 178/2/1 176/2/1 175/2/1
f 178/2/1 177/2/1 176/2/1
f 179/2/1 171/2/1 177/2/1
f 179/2/1 177/2/1 178/2/1
f 180/2/1 171/2/1 179/2/1
f 181/2/1 179/2/1 178/2/1
f 182/2/1 179/2/1 181/2/1
f 186/1/1 184/1/1 183/1/1
f 187/1/1 184/1/1 186/1/1
f 189/1/1 186/1/1 185/1/1
f 190/1/1 186/1/1 189/1/1
f 191/1/1 189/1/1 188/1/1
f 192/1/1 189/1/1 191/1/1
f 195/2/1 194/2/1 193/2/1
f 196/2/1 194/2/1 195/2/1
f 199/2/1 198/2/1 197/2/1
f 200/2/1 198/2/1 199/2/1
f 201/1/1 200/1/1 199/1/1
f 202/1/1 200/1/1 201/1/1
f 205/2/1 204/2/1 203/2/1
f 206/2/1 204/2/1 205/2/1
f 211/2/1 210/2/1 209/2/1
f 212/2/1 210/2/1 211/2/1
f 213/1/1 208/1/1 207/1/1
f 214/1/1 208/1/1 213/1/1
f 219/1/1 218/1/1 217/1/1
f 220/1/1 218/1/1 219/1/1
f 221/2/1 216/2/1 215/2/1
f 222/2/1 216/2/1 221/2/1
f 225/2/1 224/2/1 223/2/1
f 226/2/1 224/2/1 225/2/1
f 230/2/1 228/2/1 227/2/1
f 230/2/1 229/2/1 228/2/1
f 231/2/1 229/2/1 230/2/1
f 232/2/1 230/2/1 227/2/1
f 233/2/1 230/2/1 232/2/1
f 236/1/1 235/1/1 234/1/1
f 237/1/1 235/1/1 236/1/1
f 240/2/1 239/2/1 238/2/1
f 241/2/1 239/2/1 240/2/1
f 245/2/1 243/2/1 242/2/1
f 245/2/1 244/2/1 243/2/1
f 246/2/1 244/2/1 245/2/1
f 247/2/1 245/2/1 242/2/1
f 248/2/1 245/2/1 247/2/1
f 251/1/1 250/1/1 249/1/1
f 252/1/1 250/1/1 251/1/1
f 255/2/1 254/2/1 253/2/1
f 256/2/1 254/2/1 255/2/1
f 259/2/1 258/2/1 257/2/1
f 260/2/1 259/2/1 257/2/1
f 261/2/1 259/2/1 260/2/1
f 264/1/1 263/1/1 262/1/1
f 265/1/1 263/1/1 264/1/1
f 266/1/1 263/1/1 265/1/1
f 268/1/1 267/1/1 266/1/1
f 268/1/1 266/1/1 265/1/1
f 269/1/1 267/1/1 268/1/1
f 273/2/1 271/2/1 270/2/1
f 273/2/1 272/2/1 271/2/1
f 274/2/1 272/2/1 273/2/1
f 277/1/1 276/1/1 275/1/1
f 278/1/1 276/1/1 277/1/1
f 280/1/1 278/1/1 277/1/1
f 280/1/1 279/1/1 278/1/1
f 281/1/1 279/1/1 280/1/1
f 284/2/1 283/2/1 282/2/1
f 285/2/1 283/2/1 284/2/1
f 286/1/2 287/1/2 288/1/2
f 286/1/2 288/1/2 289/1/2
f 289/1/2 288/1/2 290/1/2
f 291/1/2 292/1/2 293/1/2
f 293/1/2 292/1/2 294/1/2
f 295/1/2 296/1/2 298/1/2
f 296/1/2 297/1/2 298/1/2
f 298/1/2 297/1/2 299/1/2
f 300/1/2 301/1/2 303/1/2
f 301/1/2 302/1/2 303/1/2
f 303/1/2 302/1/2 304/1/2
f 305/2/2 306/2/2 307/2/2
f 307/2/2 306/2/2 308/2/2
f 309/2/2 310/2/2 312/2/2
f 310/2/2 311/2/2 312/2/2
f 312/2/2 311/2/2 313/2/2
f 314/2/2 315/2/2 316/2/2
f 316/2/2 315/2/2 317/2/2
f 319/2/2 320/2/2 321/2/2
f 318/2/2 319/2/2 321/2/2
f 321/2/2 320/2/2 322/2/2
f 323/2/2 324/2/2 325/2/2
f 323/2/2 325/2/2 329/2/2
f 329/2/2 325/2/2 330/2/2
f 327/2/2 328/2/2 331/2/2
f 326/2/2 327/2/2 331/2/2
f 331/2/2 328/2/2 332/2/2
f 333/2/2 334/2/2 335/2/2
f 333/2/2 335/2/2 339/2/2
f 339/2/2 335/2/2 340/2/2
f 337/2/2 338/2/2 341/2/2
f 336/2/2 337/2/2 341/2/2
f 341/2/2 338/2/2 342/2/2
f 343/1/2 344/1/2 346/1/2
f 346/1/2 344/1/2 347/1/2
f 345/1/2 346/1/2 348/1/2
f 348/1/2 346/1/2 349/1/2
f 350/2/2 351/2/2 352/2/2
f 350/2/2 352/2/2 356/2/2
f 356/2/2 352/2/2 357/2/2
f 354/2/2 355/2/2 358/2/2
f 353/2/2 354/2/2 358/2/2
f 358/2/2 355/2/2 359/2/2
f 362/2/2 363/2/2 364/2/2
f 364/2/2 363/2/2 365/2/2
f 360/2/2 361/2/2 366/2/2
f 366/2/2 361/2/2 367/2/2
f 368/2/2 369/2/2 370/2/2
f 370/2/2 369/2/2 371/2/2
f 372/1/2 373/1/2 374/1/2
f 374/1/2 373/1/2 375/1/2
f 376/2/2 377/2/2 378/2/2
f 378/2/2 377/2/2 379/2/2
f 380/2/2 381/2/2 384/2/2
f 382/2/2 383/2/2 385/2/2
f 380/2/2 384/2/2 386/2/2
f 384/2/2 385/2/2 386/2/2
f 386/2/2 385/2/2 387/2/2
f 385/2/2 383/2/2 388/2/2
f 387/2/2 385/2/2 388/2/2
f 388/2/2 383/2/2 389/2/2
f 390/1/2 391/1/2 393/1/2
f 393/1/2 391/1/2 394/1/2
f 392/1/2 393/1/2 397/1/2
f 397/1/2 393/1/2 398/1/2
f 395/2/2 396/2/2 399/2/2
f 399/2/2 396/2/2 400/2/2
f 392/1/2 397/1/2 403/1/2
f 403/1/2 397/1/2 404/1/2
f 402/1/2 403/1/2 405/1/2
f 405/1/2 403/1/2 406/1/2
f 407/1/2 408/1/2 410/1/2
f 400/2/2 401/2/2 411/2/2
f 411/2/2 401/2/2 412/2/2
f 409/2/2 410/2/2 415/2/2
f 410/1/2 408/1/2 416/1/2
f 415/2/2 410/2/2 416/2/2
f 413/2/2 414/2/2 417/2/2
f 414/2/2 415/2/2 417/2/2
f 417/2/2 415/2/2 418/2/2
f 413/2/2 417/2/2 419/2/2
f 419/2/2 417/2/2 420/2/2
f 418/2/2 415/2/2 421/2/2
f 421/2/2 415/2/2 422/2/2
f 416/1/2 408/1/2 423/1/2
f 423/1/2 408/1/2 424/1/2
f 421/2/2 422/2/2 425/2/2
f 422/2/2 423/2/2 425/2/2
f 420/2/2 421/2/2 425/2/2
f 425/2/2 423/2/2 426/2/2
f 426/2/2 423/2/2 427/2/2
f 427/2/2 423/2/2 428/2/2
f 426/2/2 427/2/2 429/2/2
f 429/2/2 427/2/2 430/2/2
f 431/2/2 432/2/2 433/2/2
f 433/2/2 432/2/2 434/2/2
f 435/1/2 436/1/2 437/1/2
f 437/1/2 436/1/2 438/1/2
f 438/1/2 439/1/2 440/1/2
f 440/1/2 439/1/2 441/1/2
f 442/2/2 443/2/2 448/2/2
f 448/2/2 443/2/2 449/2/2
f 444/1/2 445/1/2 450/1/2
f 450/1/2 445/1/2 451/1/2
f 446/1/2 447/1/2 452/1/2
f 452/1/2 447/1/2 453/1/2
f 450/1/2 451/1/2 454/1/2
f 451/1/2 452/1/2 454/1/2
f 449/2/2 450/2/2 454/2/2
f 454/1/2 452/1/2 455/1/2
f 455/1/2 452/1/2 456/1/2
f 449/2/2 454/2/2 457/2/2
f 455/2/2 456/2/2 458/2/2
f 458/2/2 456/2/2 459/2/2
f 457/2/2 458/2/2 459/2/2
f 459/2/2 456/2/2 460/2/2
f 449/2/2 457/2/2 461/2/2
f 457/2/2 459/2/2 461/2/2
f 461/2/2 459/2/2 462/2/2
f 464/2/2 465/2/2 466/2/2
f 466/2/2 465/2/2 467/2/2
f 462/2/2 463/2/2 468/2/2
f 468/2/2 463/2/2 469/2/2
f 470/2/2 471/2/2 474/2/2
f 474/2/2 471/2/2 475/2/2
f 472/2/2 473/2/2 477/2/2
f 476/2/2 477/2/2 478/2/2
f 477/2/2 473/2/2 479/2/2
f 478/2/2 477/2/2 479/2/2
f 479/2/2 473/2/2 480/2/2
f 481/1/2 482/1/2 485/1/2
f 485/1/2 482/1/2 486/1/2
f 483/1/2 484/1/2 491/1/2
f 491/1/2 484/1/2 492/1/2
f 486/2/2 487/2/2 493/2/2
f 493/2/2 487/2/2 494/2/2
f 488/2/2 489/2/2 496/2/2
f 496/2/2 489/2/2 497/2/2
f 490/1/2 491/1/2 498/1/2
f 498/1/2 491/1/2 499/1/2
f 495/2/2 496/2/2 500/2/2
f 500/2/2 496/2/2 501/2/2
f 497/1/2 498/1/2 502/1/2
f 502/1/2 498/1/2 503/1/2
f 504/2/2 505/2/2 506/2/2
f 506/2/2 505/2/2 507/2/2
f 508/2/2 509/2/2 510/2/2
f 508/2/2 510/2/2 511/2/2
f 511/2/2 510/2/2 512/2/2
f 513/2/2 514/2/2 516/2/2
f 516/2/2 514/2/2 517/2/2
f 515/2/2 516/2/2 517/2/2
f 517/2/2 514/2/2 518/2/2
f 515/2/2 517/2/2 519/2/2
f 519/2/2 517/2/2 520/2/2
f 520/2/2 517/2/2 521/2/2
f 522/1/2 523/1/2 526/1/2
f 526/1/2 523/1/2 527/1/2
f 524/1/2 525/1/2 531/1/2
f 531/1/2 525/1/2 532/1/2
f 527/1/2 528/1/2 533/1/2
f 528/2/2 529/2/2 534/2/2
f 533/1/2 528/1/2 534/1/2
f 534/2/2 529/2/2 535/2/2
f 530/1/2 531/1/2 536/1/2
f 536/1/2 531/1/2 537/1/2
f 538/1/2 539/1/2 540/1/2
f 540/1/2 539/1/2 541/1/2
f 542/2/2 543/2/2 544/2/2
f 544/2/2 543/2/2 545/2/2
f 546/2/2 547/2/2 548/2/2
f 548/2/2 547/2/2 549/2/2
f 550/1/2 551/1/2 552/1/2
f 552/1/2 551/1/2 553/1/2
f 554/1/2 555/1/2 556/1/2
f 556/1/2 555/1/2 557/1/2
f 557/1/2 555/1/2 558/1/2
f 557/1/2 558/1/2 559/1/2
f 559/1/2 558/1/2 560/1/2
f 561/2/2 562/2/2 563/2/2
f 563/2/2 562/2/2 564/2/2
f 564/2/2 562/2/2 565/2/2
f 566/1/2 567/1/2 568/1/2
f 568/1/2 567/1/2 569/1/2
f 569/1/2 567/1/2 570/1/2
f 570/1/2 571/1/2 572/1/2
f 569/1/2 570/1/2 572/1/2
f 572/1/2 571/1/2 573/1/2
f 574/2/2 575/2/2 576/2/2
f 576/2/2 575/2/2 577/2/2
f 578/1/2 579/1/2 580/1/2
f 580/1/2 579/1/2 581/1/2
f 585/1/3 583/1/3 582/1/3
f 586/1/3 585/1/3 584/1/3
f 587/1/3 583/1/3 585/1/3
f 587/1/3 585/1/3 586/1/3
f 590/1/3 589/1/3 588/1/3
f 591/1/3 589/1/3 590/1/3
f 594/1/3 593/1/3 592/1/3
f 595/1/3 593/1/3 594/1/3
f 596/2/3 595/2/3 594/2/3
f 597/2/3 595/2/3 596/2/3
f 600/2/3 599/2/3 598/2/3
f 601/2/3 599/2/3 600/2/3
f 604/2/3 603/2/3 602/2/3
f 605/2/3 603/2/3 604/2/3
f 606/1/3 605/1/3 604/1/3
f 607/1/3 605/1/3 606/1/3
f 611/2/3 609/2/3 608/2/3
f 611/2/3 610/2/3 609/2/3
f 612/2/3 610/2/3 611/2/3
f 615/1/3 614/1/3 613/1/3
f 616/1/3 614/1/3 615/1/3
f 617/2/3 616/2/3 615/2/3
f 618/2/3 616/2/3 617/2/3
f 619/1/3 618/1/3 617/1/3
f 620/1/3 618/1/3 619/1/3
f 623/2/3 622/2/3 621/2/3
f 624/2/3 622/2/3 623/2/3
f 630/1/3 626/1/3 625/1/3
f 631/1/3 626/1/3 630/1/3
f 633/2/3 629/2/3 628/2/3
f 633/2/3 628/2/3 627/2/3
f 634/2/3 629/2/3 633/2/3
f 635/2/3 632/2/3 631/2/3
f 636/2/3 632/2/3 635/2/3
f 637/2/3 632/2/3 636/2/3
f 639/1/3 637/1/3 636/1/3
f 640/1/3 637/1/3 639/1/3
f 641/1/3 639/1/3 638/1/3
f 642/1/3 639/1/3 641/1/3
f 645/2/3 644/2/3 643/2/3
f 646/2/3 644/2/3 645/2/3
f 647/2/3 644/2/3 646/2/3
f 648/2/3 647/2/3 646/2/3
f 649/2/3 647/2/3 648/2/3
f 652/2/3 651/2/3 650/2/3
f 653/2/3 651/2/3 652/2/3
f 655/2/3 654/2/3 653/2/3
f 656/2/3 654/2/3 655/2/3
f 662/2/3 659/2/3 658/2/3
f 662/2/3 658/2/3 657/2/3
f 663/2/3 659/2/3 662/2/3
f 664/2/3 661/2/3 660/2/3
f 665/2/3 661/2/3 664/2/3
f 671/2/3 667/2/3 666/2/3
f 672/2/3 667/2/3 671/2/3
f 673/2/3 669/2/3 668/2/3
f 674/2/3 669/2/3 673/2/3
f 675/2/3 669/2/3 674/2/3
f 676/1/3 671/1/3 670/1/3
f 677/1/3 671/1/3 676/1/3
f 680/2/3 679/2/3 678/2/3
f 681/2/3 679/2/3 680/2/3
f 684/2/3 683/2/3 682/2/3
f 685/2/3 683/2/3 684/2/3
f 691/2/3 686/2/3 685/2/3
f 692/2/3 688/2/3 687/2/3
f 693/2/3 688/2/3 692/2/3
f 694/2/3 690/2/3 689/2/3
f 695/2/3 690/2/3 694/2/3
f 696/2/3 692/2/3 691/2/3
f 697/2/3 688/2/3 693/2/3
f 698/2/3 688/2/3 697/2/3
f 700/2/3 696/2/3 691/2/3
f 700/2/3 691/2/3 685/2/3
f 700/2/3 697/2/3 696/2/3
f 701/2/3 697/2/3 700/2/3
f 702/2/3 688/2/3 698/2/3
f 703/2/3 688/2/3 702/2/3
f 706/2/3 700/2/3 699/2/3
f 707/2/3 700/2/3 706/2/3
f 708/2/3 705/2/3 704/2/3
f 709/2/3 705/2/3 708/2/3
f 710/2/3 705/2/3 709/2/3
f 713/2/3 710/2/3 709/2/3
f 714/2/3 710/2/3 713/2/3
f 716/1/3 712/1/3 711/1/3
f 717/1/3 712/1/3 716/1/3
f 718/1/3 716/1/3 715/1/3
f 719/1/3 716/1/3 718/1/3
f 722/1/3 721/1/3 720/1/3
f 723/1/3 721/1/3 722/1/3
f 728/2/3 725/2/3 724/2/3
f 729/2/3 725/2/3 728/2/3
f 731/2/3 727/2/3 726/2/3
f 732/2/3 727/2/3 731/2/3
f 733/2/3 727/2/3 732/2/3
f 736/2/3 731/2/3 730/2/3
f 736/2/3 732/2/3 731/2/3
f 737/2/3 732/2/3 736/2/3
f 739/2/3 735/2/3 734/2/3
f 742/2/3 738/2/3 737/2/3
f 743/2/3 738/2/3 742/2/3
f 745/2/3 741/2/3 740/2/3
f 745/2/3 740/2/3 739/2/3
f 745/2/3 739/2/3 734/2/3
f 746/2/3 741/2/3 745/2/3
f 749/2/3 744/2/3 743/2/3
f 750/2/3 744/2/3 749/2/3
f 752/2/3 745/2/3 734/2/3
f 753/2/3 745/2/3 752/2/3
f 754/2/3 747/2/3 746/2/3
f 755/2/3 747/2/3 754/2/3
f 756/2/3 747/2/3 755/2/3
f 758/2/3 750/2/3 749/2/3
f 758/2/3 749/2/3 748/2/3
f 759/2/3 750/2/3 758/2/3
f 760/2/3 752/2/3 751/2/3
f 761/2/3 752/2/3 760/2/3
f 762/2/3 756/2/3 755/2/3
f 763/2/3 756/2/3 762/2/3
f 764/2/3 758/2/3 757/2/3
f 765/2/3 758/2/3 764/2/3
f 771/2/3 767/2/3 766/2/3
f 772/1/3 768/1/3 767/1/3
f 772/2/3 767/2/3 771/2/3
f 773/1/3 768/1/3 772/1/3
f 774/2/3 770/2/3 769/2/3
f 775/2/3 770/2/3 774/2/3
f 778/2/3 777/2/3 776/2/3
f 779/2/3 777/2/3 778/2/3
f 782/2/3 781/2/3 780/2/3
f 783/2/3 781/2/3 782/2/3
f 785/1/3 784/1/3 783/1/3
f 786/1/3 784/1/3 785/1/3
f 789/2/3 788/2/3 787/2/3
f 790/2/3 788/2/3 789/2/3
f 791/2/3 788/2/3 790/2/3
f 796/1/3 793/1/3 792/1/3
f 797/1/3 793/1/3 796/1/3
f 800/2/3 795/2/3 794/2/3
f 801/2/3 795/2/3 800/2/3
f 802/2/3 797/2/3 796/2/3
f 803/2/3 797/2/3 802/2/3
f 805/1/3 799/1/3 798/1/3
f 806/1/3 799/1/3 805/1/3
f 807/1/3 805/1/3 804/1/3
f 808/1/3 805/1/3 807/1/3
f 811/2/3 810/2/3 809/2/3
f 812/2/3 810/2/3 811/2/3
f 813/2/3 810/2/3 812/2/3
f 817/2/3 815/2/3 814/2/3
f 817/2/3 816/2/3 815/2/3
f 818/2/3 816/2/3 817/2/3
f 821/2/3 820/2/3 819/2/3
f 822/2/3 820/2/3 821/2/3
f 823/2/3 820/2/3 822/2/3
f 826/2/3 825/2/3 824/2/3
f 827/2/3 825/2/3 826/2/3
f 830/2/3 829/2/3 828/2/3
f 831/2/3 829/2/3 830/2/3
f 832/2/3 829/2/3 831/2/3
f 835/1/3 834/1/3 833/1/3
f 836/1/3 834/1/3 835/1/3
f 839/2/3 838/2/3 837/2/3
f 840/2/3 838/2/3 839/2/3
f 841/2/3 838/2/3 840/2/3
f 844/1/3 843/1/3 842/1/3
f 845/1/3 843/1/3 844/1/3
f 849/2/3 847/2/3 846/2/3
f 850/1/3 848/1/3 847/1/3
f 850/2/3 847/2/3 849/2/3
f 851/1/3 848/1/3 850/1/3
f 854/1/3 853/1/3 852/1/3
f 855/1/3 853/1/3 854/1/3
f 858/1/3 857/1/3 856/1/3
f 859/1/3 857/1/3 858/1/3
f 862/1/3 861/1/3 860/1/3
f 863/1/3 861/1/3 862/1/3
f 864/1/4 865/1/4 866/1/4
f 866/1/4 865/1/4 867/1/4
f 867/1/4 865/1/4 868/1/4
f 869/1/4 870/1/4 871/1/4
f 871/1/4 870/1/4 872/1/4
f 873/1/4 874/1/4 875/1/4
f 875/1/4 874/1/4 876/1/4
f 876/1/4 874/1/4 877/1/4
f 878/2/4 879/2/4 880/2/4
f 880/2/4 879/2/4 881/2/4
f 882/1/4 883/1/4 884/1/4
f 884/1/4 883/1/4 885/1/4
f 886/2/4 887/2/4 888/2/4
f 888/2/4 887/2/4 889/2/4
f 889/2/4 887/2/4 890/2/4
f 891/2/4 892/2/4 893/2/4
f 893/2/4 892/2/4 894/2/4
f 895/2/4 896/2/4 897/2/4
f 897/2/4 896/2/4 898/2/4
f 898/2/4 896/2/4 899/2/4
f 900/2/4 901/2/4 903/2/4
f 901/2/4 902/2/4 903/2/4
f 903/2/4 902/2/4 904/2/4
f 904/2/4 902/2/4 905/2/4
f 905/2/4 906/2/4 907/2/4
f 904/2/4 905/2/4 907/2/4
f 907/2/4 906/2/4 908/2/4
f 909/2/4 910/2/4 911/2/4
f 911/2/4 910/2/4 912/2/4
f 912/2/4 910/2/4 913/2/4
f 914/2/4 915/2/4 916/2/4
f 916/2/4 915/2/4 917/2/4
f 918/2/4 919/2/4 920/2/4
f 920/2/4 919/2/4 921/2/4
f 922/2/4 923/2/4 924/2/4
f 924/2/4 923/2/4 925/2/4
f 924/2/4 925/2/4 927/2/4
f 925/2/4 926/2/4 927/2/4
f 927/2/4 926/2/4 928/2/4
f 929/2/4 930/2/4 933/2/4
f 933/2/4 930/2/4 934/2/4
f 934/2/4 930/2/4 935/2/4
f 931/2/4 932/2/4 939/2/4
f 939/2/4 932/2/4 940/2/4
f 935/2/4 936/2/4 941/2/4
f 934/2/4 935/2/4 941/2/4
f 941/2/4 936/2/4 942/2/4
f 937/2/4 938/2/4 944/2/4
f 944/2/4 938/2/4 945/2/4
f 943/2/4 944/2/4 946/2/4
f 946/2/4 944/2/4 947/2/4
f 948/2/4 949/2/4 952/2/4
f 952/2/4 949/2/4 953/2/4
f 950/2/4 951/2/4 954/2/4
f 954/2/4 951/2/4 955/2/4
f 956/2/4 957/2/4 960/2/4
f 960/2/4 957/2/4 961/2/4
f 958/2/4 959/2/4 964/2/4
f 964/2/4 959/2/4 965/2/4
f 962/2/4 963/2/4 966/2/4
f 966/2/4 963/2/4 967/2/4
f 967/1/4 968/1/4 969/1/4
f 969/1/4 968/1/4 970/1/4
f 971/1/4 972/1/4 973/1/4
f 973/1/4 972/1/4 974/1/4
f 975/1/4 976/1/4 982/1/4
f 982/1/4 976/1/4 983/1/4
f 976/2/4 977/2/4 984/2/4
f 983/1/4 976/1/4 984/1/4
f 984/2/4 977/2/4 985/2/4
f 978/2/4 979/2/4 986/2/4
f 986/2/4 979/2/4 987/2/4
f 987/2/4 979/2/4 988/2/4
f 980/2/4 981/2/4 989/2/4
f 989/2/4 981/2/4 990/2/4
f 987/2/4 988/2/4 992/2/4
f 989/2/4 990/2/4 992/2/4
f 988/2/4 989/2/4 992/2/4
f 992/2/4 990/2/4 993/2/4
f 993/2/4 990/2/4 994/2/4
f 994/2/4 990/2/4 995/2/4
f 991/2/4 992/2/4 998/2/4
f 998/2/4 992/2/4 999/2/4
f 999/2/4 992/2/4 1000/2/4
f 1000/2/4 992/2/4 1001/2/4
f 994/2/4 995/2/4 1002/2/4
f 995/2/4 996/2/4 1002/2/4
f 1002/2/4 996/2/4 1003/2/4
f 997/1/4 998/1/4 1006/1/4
f 998/1/4 999/1/4 1006/1/4
f 999/2/4 1000/2/4 1007/2/4
f 994/2/4 1002/2/4 1010/2/4
f 1010/2/4 1002/2/4 1011/2/4
f 1003/1/4 1004/1/4 1012/1/4
f 1012/1/4 1004/1/4 1013/1/4
f 1005/1/4 1006/1/4 1015/1/4
f 1007/2/4 1008/2/4 1016/2/4
f 1006/1/4 999/1/4 1016/1/4
f 1015/1/4 1006/1/4 1016/1/4
f 999/2/4 1007/2/4 1016/2/4
f 1016/2/4 1008/2/4 1017/2/4
f 1009/2/4 1010/2/4 1018/2/4
f 1018/2/4 1010/2/4 1019/2/4
f 1014/1/4 1015/1/4 1021/1/4
f 1021/1/4 1015/1/4 1022/1/4
f 1020/1/4 1021/1/4 1024/1/4
f 1024/1/4 1021/1/4 1025/1/4
f 1023/1/4 1024/1/4 1026/1/4
f 1026/1/4 1024/1/4 1027/1/4
f 1028/1/4 1029/1/4 1030/1/4
f 1030/1/4 1029/1/4 1031/1/4
f 1032/2/4 1033/2/4 1036/2/4
f 1034/1/4 1035/1/4 1037/1/4
f 1032/2/4 1036/2/4 1040/2/4
f 1040/2/4 1036/2/4 1041/2/4
f 1034/1/4 1037/1/4 1042/1/4
f 1037/1/4 1038/1/4 1042/1/4
f 1042/1/4 1038/1/4 1043/1/4
f 1038/2/4 1039/2/4 1044/2/4
f 1043/1/4 1038/1/4 1044/1/4
f 1044/2/4 1039/2/4 1045/2/4
f 1043/1/4 1044/1/4 1048/1/4
f 1048/1/4 1044/1/4 1049/1/4
f 1045/2/4 1046/2/4 1051/2/4
f 1046/1/4 1047/1/4 1052/1/4
f 1051/2/4 1046/2/4 1052/2/4
f 1043/1/4 1048/1/4 1054/1/4
f 1054/1/4 1048/1/4 1055/1/4
f 1050/1/4 1051/1/4 1056/1/4
f 1051/1/4 1052/1/4 1056/1/4
f 1052/1/4 1047/1/4 1057/1/4
f 1056/1/4 1052/1/4 1057/1/4
f 1053/1/4 1054/1/4 1060/1/4
f 1060/1/4 1054/1/4 1061/1/4
f 1061/1/4 1054/1/4 1062/1/4
f 1058/2/4 1059/2/4 1063/2/4
f 1063/2/4 1064/2/4 1065/2/4
f 1058/2/4 1063/2/4 1065/2/4
f 1065/2/4 1064/2/4 1066/2/4
f 1066/2/4 1064/2/4 1067/2/4
f 1068/2/4 1069/2/4 1072/2/4
f 1072/2/4 1069/2/4 1073/2/4
f 1070/2/4 1071/2/4 1075/2/4
f 1073/1/4 1074/1/4 1076/1/4
f 1076/1/4 1074/1/4 1077/1/4
f 1070/2/4 1075/2/4 1078/2/4
f 1078/2/4 1075/2/4 1079/2/4
f 1080/1/4 1081/1/4 1082/1/4
f 1082/1/4 1081/1/4 1083/1/4
f 1083/1/4 1084/1/4 1085/1/4
f 1085/1/4 1084/1/4 1086/1/4
f 1087/1/4 1088/1/4 1090/1/4
f 1090/1/4 1088/1/4 1091/1/4
f 1089/1/4 1090/1/4 1094/1/4
f 1094/1/4 1090/1/4 1095/1/4
f 1092/2/4 1093/2/4 1096/2/4
f 1096/2/4 1093/2/4 1097/2/4
f 1098/2/4 1099/2/4 1100/2/4
f 1098/2/4 1100/2/4 1103/2/4
f 1103/2/4 1100/2/4 1104/2/4
f 1101/2/4 1102/2/4 1105/2/4
f 1105/2/4 1102/2/4 1106/2/4
f 1106/1/4 1107/1/4 1109/1/4
f 1109/1/4 1107/1/4 1110/1/4
f 1108/1/4 1109/1/4 1111/1/4
f 1111/1/4 1109/1/4 1112/1/4
f 1112/1/4 1113/1/4 1115/1/4
f 1115/1/4 1113/1/4 1116/1/4
f 1114/1/4 1115/1/4 1117/1/4
f 1117/1/4 1115/1/4 1118/1/4
f 1119/2/4 1120/2/4 1121/2/4
f 1119/2/4 1121/2/4 1122/2/4
f 1122/2/4 1121/2/4 1123/2/4
f 1124/1/4 1125/1/4 1126/1/4
f 1126/1/4 1125/1/4 1127/1/4
f 1128/1/4 1129/1/4 1130/1/4
f 1130/1/4 1129/1/4 1131/1/4
f 1132/1/4 1133/1/4 1134/1/4
f 1134/1/4 1133/1/4 1135/1/4
f 1136/2/4 1137/2/4 1138/2/4
f 1136/2/4 1138/2/4 1139/2/4
f 1139/2/4 1138/2/4 1140/2/4
f 1141/1/4 1142/1/4 1143/1/4
f 1143/1/4 1142/1/4 1144/1/4
f 1145/1/4 1146/1/4 1147/1/4
f 1147/1/4 1146/1/4 1148/1/4
f 1149/1/4 1150/1/4 1151/1/4
f 1151/1/4 1150/1/4 1152/1/4
f 1153/1/4 1154/1/4 1155/1/4
f 1155/1/4 1154/1/4 1156/1/4
f 1157/1/4 1158/1/4 1159/1/4
f 1159/1/4 1158/1/4 1160/1/4
f 1166/1/5 1162/1/5 1161/1/5
f 1167/1/5 1164/1/5 1163/1/5
f 1170/1/5 1166/1/5 1165/1/5
f 1171/1/5 1162/1/5 1166/1/5
f 1171/1/5 1166/1/5 1170/1/5
f 1172/2/5 1163/2/5 1162/2/5
f 1172/1/5 1162/1/5 1171/1/5
f 1173/2/5 1163/2/5 1172/2/5
f 1174/1/5 1168/1/5 1167/1/5
f 1176/1/5 1175/1/5 1174/1/5
f 1179/2/5 1171/2/5 1170/2/5
f 1179/2/5 1170/2/5 1169/2/5
f 1180/2/5 1171/2/5 1179/2/5
f 1181/1/5 1172/1/5 1171/1/5
f 1181/2/5 1171/2/5 1180/2/5
f 1181/1/5 1173/1/5 1172/1/5
f 1182/2/5 1163/2/5 1173/2/5
f 1182/1/5 1173/1/5 1181/1/5
f 1183/1/5 1177/1/5 1176/1/5
f 1183/2/5 1163/2/5 1182/2/5
f 1183/1/5 1176/1/5 1174/1/5
f 1183/1/5 1167/1/5 1163/1/5
f 1183/1/5 1174/1/5 1167/1/5
f 1184/1/5 1179/1/5 1178/1/5
f 1185/2/5 1180/2/5 1179/2/5
f 1185/1/5 1179/1/5 1184/1/5
f 1186/1/5 1181/1/5 1180/1/5
f 1186/1/5 1182/1/5 1181/1/5
f 1186/1/5 1177/1/5 1183/1/5
f 1186/1/5 1183/1/5 1182/1/5
f 1187/1/5 1177/1/5 1186/1/5
f 1188/2/5 1180/2/5 1185/2/5
f 1189/2/5 1180/2/5 1188/2/5
f 1190/1/5 1186/1/5 1180/1/5
f 1191/1/5 1186/1/5 1190/1/5
f 1192/2/5 1180/2/5 1189/2/5
f 1193/1/5 1190/1/5 1180/1/5
f 1193/2/5 1180/2/5 1192/2/5
f 1194/1/5 1190/1/5 1193/1/5
f 1195/1/5 1190/1/5 1194/1/5
f 1196/1/5 1190/1/5 1195/1/5
f 1197/1/5 1190/1/5 1196/1/5
f 1198/1/5 1194/1/5 1193/1/5
f 1199/1/5 1194/1/5 1198/1/5
f 1200/1/5 1196/1/5 1195/1/5
f 1201/1/5 1196/1/5 1200/1/5
f 1204/2/5 1203/2/5 1202/2/5
f 1205/2/5 1203/2/5 1204/2/5
f 1208/2/5 1207/2/5 1206/2/5
f 1209/2/5 1207/2/5 1208/2/5
f 1212/1/5 1211/1/5 1210/1/5
f 1213/1/5 1211/1/5 1212/1/5
f 1216/1/5 1215/1/5 1214/1/5
f 1217/1/5 1215/1/5 1216/1/5
f 1220/2/5 1219/2/5 1218/2/5
f 1221/2/5 1219/2/5 1220/2/5
f 1224/2/5 1223/2/5 1222/2/5
f 1225/2/5 1223/2/5 1224/2/5
f 1228/2/5 1227/2/5 1226/2/5
f 1229/2/5 1227/2/5 1228/2/5
f 1232/2/5 1231/2/5 1230/2/5
f 1233/2/5 1231/2/5 1232/2/5
f 1236/2/5 1235/2/5 1234/2/5
f 1237/2/5 1235/2/5 1236/2/5
f 1240/2/5 1239/2/5 1238/2/5
f 1241/2/5 1239/2/5 1240/2/5
f 1244/2/5 1243/2/5 1242/2/5
f 1245/2/5 1243/2/5 1244/2/5
f 1248/2/5 1247/2/5 1246/2/5
f 1250/2/5 1248/2/5 1246/2/5
f 1250/2/5 1249/2/5 1248/2/5
f 1251/2/5 1249/2/5 1250/2/5
f 1252/2/5 1249/2/5 1251/2/5
f 1255/2/5 1254/2/5 1253/2/5
f 1256/2/5 1254/2/5 1255/2/5
f 1259/2/5 1258/2/5 1257/2/5
f 1260/2/5 1259/2/5 1257/2/5
f 1261/2/5 1259/2/5 1260/2/5
f 1265/2/5 1263/2/5 1262/2/5
f 1265/2/5 1264/2/5 1263/2/5
f 1266/2/5 1264/2/5 1265/2/5
f 1269/2/5 1268/2/5 1267/2/5
f 1270/2/5 1269/2/5 1267/2/5
f 1271/2/5 1269/2/5 1270/2/5
f 1274/2/5 1273/2/5 1272/2/5
f 1275/2/5 1273/2/5 1274/2/5
f 1279/1/5 1277/1/5 1276/1/5
f 1280/2/5 1278/2/5 1277/2/5
f 1280/1/5 1277/1/5 1279/1/5
f 1281/2/5 1278/2/5 1280/2/5
f 1286/2/5 1282/2/5 1281/2/5
f 1286/2/5 1281/2/5 1280/2/5
f 1287/2/5 1282/2/5 1286/2/5
f 1288/2/5 1285/2/5 1284/2/5
f 1288/2/5 1284/2/5 1283/2/5
f 1289/2/5 1285/2/5 1288/2/5
f 1293/1/5 1291/1/5 1290/1/5
f 1294/2/5 1292/2/5 1291/2/5
f 1294/1/5 1291/1/5 1293/1/5
f 1295/2/5 1292/2/5 1294/2/5
f 1297/2/5 1296/2/5 1295/2/5
f 1297/2/5 1295/2/5 1294/2/5
f 1298/2/5 1296/2/5 1297/2/5
f 1299/2/5 1296/2/5 1298/2/5
f 1300/2/5 1299/2/5 1298/2/5
f 1301/2/5 1299/2/5 1300/2/5
f 1304/2/5 1303/2/5 1302/2/5
f 1305/2/5 1303/2/5 1304/2/5
f 1311/2/5 1307/2/5 1306/2/5
f 1312/2/5 1307/2/5 1311/2/5
f 1314/2/5 1310/2/5 1309/2/5
f 1314/2/5 1309/2/5 1308/2/5
f 1315/2/5 1310/2/5 1314/2/5
f 1316/1/5 1313/1/5 1312/1/5
f 1317/1/5 1313/1/5 1316/1/5
f 1320/1/5 1319/1/5 1318/1/5
f 1322/1/5 1320/1/5 1318/1/5
f 1322/1/5 1321/1/5 1320/1/5
f 1323/1/5 1321/1/5 1322/1/5
f 1324/1/5 1321/1/5 1323/1/5
f 1327/2/5 1326/2/5 1325/2/5
f 1328/2/5 1326/2/5 1327/2/5
f 1332/2/5 1330/2/5 1329/2/5
f 1332/2/5 1331/2/5 1330/2/5
f 1333/2/5 1331/2/5 1332/2/5
f 1337/1/5 1336/1/5 1335/1/5
f 1337/1/5 1335/1/5 1334/1/5
f 1338/1/5 1336/1/5 1337/1/5
f 1339/1/5 1336/1/5 1338/1/5
f 1340/1/5 1336/1/5 1339/1/5
f 1343/1/5 1342/1/5 1341/1/5
f 1344/1/5 1342/1/5 1343/1/5
f 1347/2/5 1346/2/5 1345/2/5
f 1348/2/5 1346/2/5 1347/2/5
f 1352/2/5 1350/2/5 1349/2/5
f 1352/2/5 1351/2/5 1350/2/5
f 1353/2/5 1351/2/5 1352/2/5
f 1356/1/5 1355/1/5 1354/1/5
f 1357/1/5 1355/1/5 1356/1/5
f 1360/2/5 1359/2/5 1358/2/5
f 1361/2/5 1359/2/5 1360/2/5
f 1365/1/5 1363/1/5 1362/1/5
f 1365/1/5 1364/1/5 1363/1/5
f 1366/1/5 1364/1/5 1365/1/5
f 1367/1/5 1365/1/5 1362/1/5
f 1368/1/5 1365/1/5 1367/1/5
f 1371/2/5 1370/2/5 1369/2/5
f 1372/2/5 1370/2/5 1371/2/5
f 1375/2/5 1374/2/5 1373/2/5
f 1376/2/5 1374/2/5 1375/2/5
f 1381/2/5 1378/2/5 1377/2/5
f 1382/1/5 1379/1/5 1378/1/5
f 1382/2/5 1378/2/5 1381/2/5
f 1383/1/5 1379/1/5 1382/1/5
f 1384/2/5 1381/2/5 1380/2/5
f 1384/2/5 1382/2/5 1381/2/5
f 1385/2/5 1382/2/5 1384/2/5
f 1386/2/5 1382/2/5 1385/2/5
f 1387/1/6 1388/1/6 1392/1/6
f 1388/2/6 1389/2/6 1393/2/6
f 1392/1/6 1388/1/6 1393/1/6
f 1389/1/6 1390/1/6 1394/1/6
f 1393/2/6 1389/2/6 1394/2/6
f 1394/1/6 1390/1/6 1395/1/6
f 1391/1/6 1392/1/6 1398/1/6
f 1398/1/6 1392/1/6 1399/1/6
f 1395/1/6 1396/1/6 1400/1/6
f 1400/1/6 1396/1/6 1401/1/6
f 1397/2/6 1398/2/6 1403/2/6
f 1403/2/6 1398/2/6 1404/2/6
f 1401/1/6 1402/1/6 1405/1/6
f 1405/1/6 1402/1/6 1406/1/6
f 1406/1/6 1407/1/6 1410/1/6
f 1408/1/6 1409/1/6 1411/1/6
f 1410/1/6 1407/1/6 1413/1/6
f 1412/1/6 1413/1/6 1414/1/6
f 1413/1/6 1407/1/6 1415/1/6
f 1414/1/6 1413/1/6 1415/1/6
f 1408/1/6 1411/1/6 1416/1/6
f 1416/1/6 1411/1/6 1417/1/6
f 1415/1/6 1407/1/6 1419/1/6
f 1419/1/6 1407/1/6 1420/1/6
f 1421/2/6 1422/2/6 1425/2/6
f 1425/2/6 1422/2/6 1426/2/6
f 1423/1/6 1424/1/6 1430/1/6
f 1418/1/6 1419/1/6 1431/1/6
f 1431/1/6 1419/1/6 1432/1/6
f 1426/2/6 1427/2/6 1433/2/6
f 1433/2/6 1427/2/6 1434/2/6
f 1428/1/6 1429/1/6 1435/1/6
f 1435/1/6 1429/1/6 1436/1/6
f 1423/1/6 1430/1/6 1437/1/6
f 1430/1/6 1431/1/6 1437/1/6
f 1437/1/6 1431/1/6 1438/1/6
f 1434/1/6 1435/1/6 1439/1/6
f 1439/1/6 1435/1/6 1440/1/6
f 1436/1/6 1437/1/6 1441/1/6
f 1441/1/6 1437/1/6 1442/1/6
f 1443/2/6 1444/2/6 1447/2/6
f 1447/2/6 1444/2/6 1448/2/6
f 1444/1/6 1445/1/6 1449/1/6
f 1448/2/6 1444/2/6 1449/2/6
f 1449/1/6 1445/1/6 1450/1/6
f 1447/2/6 1448/2/6 1453/2/6
f 1446/2/6 1447/2/6 1453/2/6
f 1453/2/6 1448/2/6 1454/2/6
f 1454/2/6 1448/2/6 1455/2/6
f 1449/2/6 1450/2/6 1456/2/6
f 1450/2/6 1451/2/6 1456/2/6
f 1456/2/6 1451/2/6 1457/2/6
f 1457/2/6 1451/2/6 1458/2/6
f 1457/2/6 1458/2/6 1460/2/6
f 1458/1/6 1459/1/6 1461/1/6
f 1460/2/6 1458/2/6 1461/2/6
f 1461/1/6 1459/1/6 1462/1/6
f 1453/2/6 1454/2/6 1463/2/6
f 1452/2/6 1453/2/6 1463/2/6
f 1463/2/6 1454/2/6 1464/2/6
f 1461/2/6 1462/2/6 1466/2/6
f 1466/2/6 1462/2/6 1467/2/6
f 1465/2/6 1466/2/6 1468/2/6
f 1468/2/6 1466/2/6 1469/2/6
f 1469/1/6 1470/1/6 1472/1/6
f 1472/1/6 1470/1/6 1473/1/6
f 1463/1/6 1464/1/6 1474/1/6
f 1474/1/6 1464/1/6 1475/1/6
f 1475/1/6 1464/1/6 1476/1/6
f 1471/1/6 1472/1/6 1478/1/6
f 1476/1/6 1477/1/6 1479/1/6
f 1475/1/6 1476/1/6 1479/1/6
f 1479/1/6 1477/1/6 1480/1/6
f 1480/1/6 1477/1/6 1481/1/6
f 1481/1/6 1477/1/6 1482/1/6
f 1478/1/6 1472/1/6 1484/1/6
f 1484/1/6 1472/1/6 1485/1/6
f 1480/1/6 1481/1/6 1486/1/6
f 1486/1/6 1481/1/6 1487/1/6
f 1482/1/6 1483/1/6 1488/1/6
f 1488/1/6 1483/1/6 1489/1/6
f 1490/2/6 1491/2/6 1493/2/6
f 1493/2/6 1491/2/6 1494/2/6
f 1492/2/6 1493/2/6 1496/2/6
f 1496/2/6 1493/2/6 1497/2/6
f 1494/2/6 1495/2/6 1498/2/6
f 1498/2/6 1495/2/6 1499/2/6
f 1499/2/6 1500/2/6 1501/2/6
f 1501/2/6 1500/2/6 1502/2/6
f 1503/1/6 1504/1/6 1508/1/6
f 1508/1/6 1504/1/6 1509/1/6
f 1505/1/6 1506/1/6 1510/1/6
f 1510/1/6 1506/1/6 1511/1/6
f 1507/1/6 1508/1/6 1513/1/6
f 1513/1/6 1508/1/6 1514/1/6
f 1512/1/6 1513/1/6 1515/1/6
f 1515/1/6 1513/1/6 1516/1/6
f 1517/2/6 1518/2/6 1519/2/6
f 1519/2/6 1518/2/6 1520/2/6
f 1521/1/6 1522/1/6 1523/1/6
f 1523/1/6 1522/1/6 1524/1/6
f 1525/2/6 1526/2/6 1527/2/6
f 1527/2/6 1526/2/6 1528/2/6
f 1529/1/6 1530/1/6 1531/1/6
f 1531/1/6 1530/1/6 1532/1/6
f 1533/2/6 1534/2/6 1537/2/6
f 1537/2/6 1534/2/6 1538/2/6
f 1535/2/6 1536/2/6 1539/2/6
f 1539/2/6 1536/2/6 1540/2/6
f 1541/2/6 1542/2/6 1543/2/6
f 1543/2/6 1542/2/6 1544/2/6
f 1545/1/6 1546/1/6 1549/1/6
f 1549/1/6 1546/1/6 1550/1/6
f 1547/2/6 1548/2/6 1551/2/6
f 1551/2/6 1548/2/6 1552/2/6
f 1553/2/6 1554/2/6 1555/2/6
f 1555/2/6 1554/2/6 1556/2/6
f 1557/2/6 1558/2/6 1559/2/6
f 1559/2/6 1558/2/6 1560/2/6
f 1561/2/6 1562/2/6 1565/2/6
f 1565/2/6 1562/2/6 1566/2/6
f 1563/2/6 1564/2/6 1567/2/6
f 1567/2/6 1564/2/6 1568/2/6
f 1569/2/6 1570/2/6 1571/2/6
f 1571/2/6 1570/2/6 1572/2/6
f 1573/2/6 1574/2/6 1575/2/6
f 1575/2/6 1574/2/6 1576/2/6
f 1576/2/6 1577/2/6 1580/2/6
f 1580/2/6 1577/2/6 1581/2/6
f 1578/2/6 1579/2/6 1582/2/6
f 1582/2/6 1579/2/6 1583/2/6
f 1584/2/6 1585/2/6 1587/2/6
f 1587/2/6 1585/2/6 1588/2/6
f 1586/1/6 1587/1/6 1589/1/6
f 1589/1/6 1587/1/6 1590/1/6
f 1591/2/6 1592/2/6 1593/2/6
f 1593/2/6 1592/2/6 1594/2/6
f 1595/2/6 1596/2/6 1597/2/6
f 1597/2/6 1596/2/6 1598/2/6
f 1599/2/6 1600/2/6 1602/2/6
f 1600/2/6 1601/2/6 1602/2/6
f 1602/2/6 1601/2/6 1603/2/6
f 1603/2/6 1601/2/6 1604/2/6
f 1603/2/6 1604/2/6 1607/2/6
f 1605/2/6 1606/2/6 1608/2/6
f 1608/2/6 1606/2/6 1609/2/6
f 1607/2/6 1604/2/6 1610/2/6
f 1610/2/6 1604/2/6 1611/2/6
f 1612/2/6 1613/2/6 1615/2/6
f 1613/2/6 1614/2/6 1615/2/6
f 1615/2/6 1614/2/6 1616/2/6
f 1617/2/6 1618/2/6 1619/2/6
f 1617/2/6 1619/2/6 1622/2/6
f 1620/2/6 1621/2/6 1623/2/6
f 1617/2/6 1622/2/6 1624/2/6
f 1624/2/6 1622/2/6 1625/2/6
f 1623/2/6 1621/2/6 1626/2/6
f 1626/2/6 1621/2/6 1627/2/6
f 1628/2/6 1629/2/6 1631/2/6
f 1629/2/6 1630/2/6 1631/2/6
f 1631/2/6 1630/2/6 1632/2/6
f 1633/1/6 1634/1/6 1638/1/6
f 1634/2/6 1635/2/6 1639/2/6
f 1638/1/6 1634/1/6 1639/1/6
f 1639/2/6 1635/2/6 1640/2/6
f 1636/2/6 1637/2/6 1641/2/6
f 1639/2/6 1640/2/6 1642/2/6
f 1642/2/6 1640/2/6 1643/2/6
f 1641/2/6 1637/2/6 1644/2/6
f 1644/2/6 1637/2/6 1645/2/6
f 1646/2/6 1647/2/6 1648/2/6
f 1648/2/6 1647/2/6 1649/2/6
f 1648/2/6 1649/2/6 1651/2/6
f 1649/2/6 1650/2/6 1651/2/6
f 1651/2/6 1650/2/6 1652/2/6
f 1652/2/6 1650/2/6 1653/2/6
f 1653/2/6 1654/2/6 1655/2/6
f 1652/2/6 1653/2/6 1655/2/6
f 1655/2/6 1654/2/6 1656/2/6
f 1657/2/6 1658/2/6 1659/2/6
f 1659/2/6 1658/2/6 1660/2/6
f 1661/2/6 1662/2/6 1665/2/6
f 1665/2/6 1662/2/6 1666/2/6
f 1663/2/6 1664/2/6 1668/2/6
f 1666/2/6 1667/2/6 1669/2/6
f 1669/2/6 1667/2/6 1670/2/6
f 1668/2/6 1664/2/6 1672/2/6
f 1672/2/6 1664/2/6 1673/2/6
f 1670/1/6 1671/1/6 1674/1/6
f 1674/1/6 1671/1/6 1675/1/6
f 1676/1/6 1677/1/6 1679/1/6
f 1677/1/6 1678/1/6 1679/1/6
f 1679/1/6 1678/1/6 1680/1/6
f 1680/1/6 1678/1/6 1681/1/6
f 1681/1/6 1678/1/6 1682/1/6
f 1683/2/6 1684/2/6 1685/2/6
f 1685/2/6 1684/2/6 1686/2/6
f 1687/2/6 1688/2/6 1689/2/6
f 1689/2/6 1688/2/6 1692/2/6
f 1692/2/6 1688/2/6 1693/2/6
f 1690/1/6 1691/1/6 1694/1/6
f 1694/1/6 1695/1/6 1696/1/6
f 1690/1/6 1694/1/6 1696/1/6
f 1696/1/6 1695/1/6 1697/1/6
f 1697/1/6 1695/1/6 1698/1/6
f 1699/1/6 1700/1/6 1701/1/6
f 1701/1/6 1700/1/6 1702/1/6
f 1703/2/6 1704/2/6 1705/2/6
f 1705/2/6 1704/2/6 1706/2/6
f 1707/2/6 1708/2/6 1709/2/6
f 1709/2/6 1708/2/6 1710/2/6
f 1710/2/6 1708/2/6 1711/2/6
f 1712/1/6 1713/1/6 1714/1/6
f 1714/1/6 1713/1/6 1715/1/6
f 1716/2/6 1717/2/6 1718/2/6
f 1718/2/6 1717/2/6 1719/2/6
f 1720/1/6 1721/1/6 1723/1/6
f 1723/1/6 1721/1/6 1724/1/6
f 1722/1/6 1723/1/6 1724/1/6
f 1724/1/6 1721/1/6 1725/1/6
f 1722/1/6 1724/1/6 1726/1/6
f 1726/1/6 1724/1/6 1727/1/6
f 1728/2/6 1729/2/6 1730/2/6
f 1730/2/6 1729/2/6 1731/2/6
f 1732/2/6 1733/2/6 1734/2/6
f 1734/2/6 1733/2/6 1735/2/6
f 1736/2/6 1737/2/6 1740/2/6
f 1737/1/6 1738/1/6 1741/1/6
f 1740/2/6 1737/2/6 1741/2/6
f 1741/1/6 1738/1/6 1742/1/6
f 1739/2/6 1740/2/6 1743/2/6
f 1740/2/6 1741/2/6 1743/2/6
f 1743/2/6 1741/2/6 1744/2/6
f 1739/2/6 1743/2/6 1745/2/6
f 1745/2/6 1743/2/6 1746/2/6
